{"name":"uniecrmc",
 "interfaces":[],
 "entities":[
		{"name":"changeOriginalDocumentRED","abstract":false,"parent":null,"table":"changeoriginaldocumentred_t","interfaces":[],"properties":[{"name":"id","column":"id","type":"LONG","length":255,"required":true,"remote":null},{"name":"class","column":"discriminator","type":"SHORT","length":255,"required":true,"remote":null},{"name":"oldOrigin","column":"oldorigin_id","type":"LONG","length":0,"required":false,"remote":"requestedEnrollmentDirection"},{"name":"newOrigin","column":"neworigin_id","type":"LONG","length":0,"required":true,"remote":"requestedEnrollmentDirection"},{"name":"entrantRequest","column":"entrantrequest_id","type":"LONG","length":0,"required":true,"remote":"entrantRequest"},{"name":"dateChange","column":"datechange_p","type":"TIMESTAMP","length":255,"required":true,"remote":null},{"name":"comment","column":"comment_p","type":"TRIMMEDSTRING","length":2000,"required":false,"remote":null}]},
		{"name":"discipline2RealizationWayRelationExt","abstract":false,"parent":null,"table":"dscpln2rlztnwyrltnext_t","interfaces":[],"properties":[{"name":"id","column":"id","type":"LONG","length":255,"required":true,"remote":null},{"name":"class","column":"discriminator","type":"SHORT","length":255,"required":true,"remote":null},{"name":"discipline2RealizationWayRelation","column":"dscpln2rlztnwyrltn_id","type":"LONG","length":0,"required":true,"remote":"discipline2RealizationWayRelation"},{"name":"passMarkContract","column":"passmarkcontract_p","type":"DOUBLE","length":255,"required":true,"remote":null}]},
		{"name":"documentReturnMethod","abstract":false,"parent":null,"table":"documentreturnmethod_t","interfaces":[],"properties":[{"name":"id","column":"id","type":"LONG","length":255,"required":true,"remote":null},{"name":"class","column":"discriminator","type":"SHORT","length":255,"required":true,"remote":null},{"name":"code","column":"code_p","type":"TRIMMEDSTRING","length":255,"required":true,"remote":null},{"name":"printTitle","column":"printtitle_p","type":"TRIMMEDSTRING","length":255,"required":false,"remote":null},{"name":"title","column":"title_p","type":"TRIMMEDSTRING","length":1200,"required":false,"remote":null}]},
		{"name":"ecgDistributionSRQuota","abstract":false,"parent":null,"table":"ecgdistributionsrquota_t","interfaces":[],"properties":[{"name":"id","column":"id","type":"LONG","length":255,"required":true,"remote":null},{"name":"class","column":"discriminator","type":"SHORT","length":255,"required":true,"remote":null},{"name":"distributionQuota","column":"distributionquota_id","type":"LONG","length":0,"required":true,"remote":"ecgDistributionQuota"},{"name":"quota","column":"quota_p","type":"INTEGER","length":255,"required":true,"remote":null}]},
		{"name":"ecgEntrantRecommendedDetailExt","abstract":false,"parent":null,"table":"cgentrntrcmmndddtlext_t","interfaces":[],"properties":[{"name":"id","column":"id","type":"LONG","length":255,"required":true,"remote":null},{"name":"class","column":"discriminator","type":"SHORT","length":255,"required":true,"remote":null},{"name":"ecgEntrantRecommendedDetail","column":"ecgentrantrecommendeddetail_id","type":"LONG","length":0,"required":true,"remote":"ecgEntrantRecommendedDetail"},{"name":"haveSpecialRights","column":"havespecialrights_p","type":"BOOLEAN","length":255,"required":true,"remote":null}]},
		{"name":"ecgEntrantRecommendedExt","abstract":false,"parent":null,"table":"ecgentrantrecommendedext_t","interfaces":[],"properties":[{"name":"id","column":"id","type":"LONG","length":255,"required":true,"remote":null},{"name":"class","column":"discriminator","type":"SHORT","length":255,"required":true,"remote":null},{"name":"ecgEntrantRecommended","column":"ecgentrantrecommended_id","type":"LONG","length":0,"required":true,"remote":"ecgEntrantRecommended"},{"name":"haveSpecialRights","column":"havespecialrights_p","type":"BOOLEAN","length":255,"required":true,"remote":null}]},
		{"name":"enrollmentDirectionExt","abstract":false,"parent":null,"table":"enrollmentdirectionext_t","interfaces":[],"properties":[{"name":"id","column":"id","type":"LONG","length":255,"required":true,"remote":null},{"name":"class","column":"discriminator","type":"SHORT","length":255,"required":true,"remote":null},{"name":"enrollmentDirection","column":"enrollmentdirection_id","type":"LONG","length":0,"required":true,"remote":"enrollmentDirection"},{"name":"haveSpecialRightsPlanBudget","column":"havespecialrightsplanbudget_p","type":"INTEGER","length":255,"required":false,"remote":null},{"name":"haveSpecialRightsPlanContract","column":"hvspclrghtsplncntrct_p","type":"INTEGER","length":255,"required":false,"remote":null},{"name":"advansedPlanBudget","column":"advansedplanbudget_p","type":"INTEGER","length":255,"required":false,"remote":null}]},
		{"name":"enrollmentDirectionRestrictionRMC","abstract":false,"parent":null,"table":"nrllmntdrctnrstrctnrmc_t","interfaces":[],"properties":[{"name":"id","column":"id","type":"LONG","length":255,"required":true,"remote":null},{"name":"class","column":"discriminator","type":"SHORT","length":255,"required":true,"remote":null},{"name":"enrollmentCampaign","column":"enrollmentcampaign_id","type":"LONG","length":0,"required":true,"remote":"enrollmentCampaign"},{"name":"developForm","column":"developform_id","type":"LONG","length":0,"required":true,"remote":"developForm"},{"name":"compensationType","column":"compensationtype_id","type":"LONG","length":0,"required":true,"remote":"compensationType"},{"name":"structureEducationLevels","column":"structureeducationlevels_id","type":"LONG","length":0,"required":true,"remote":"structureEducationLevels"},{"name":"maxEnrollmentDirection","column":"maxenrollmentdirection_p","type":"INTEGER","length":255,"required":false,"remote":null},{"name":"maxMinisterialDirection","column":"maxministerialdirection_p","type":"INTEGER","length":255,"required":false,"remote":null},{"name":"maxFormativeOrgUnit","column":"maxformativeorgunit_p","type":"INTEGER","length":255,"required":false,"remote":null},{"name":"maxCompetitionGroup","column":"maxcompetitiongroup_p","type":"INTEGER","length":255,"required":false,"remote":null}]},
		{"name":"entranceDisciplineExt","abstract":false,"parent":null,"table":"entrancedisciplineext_t","interfaces":[],"properties":[{"name":"id","column":"id","type":"LONG","length":255,"required":true,"remote":null},{"name":"class","column":"discriminator","type":"SHORT","length":255,"required":true,"remote":null},{"name":"entranceDiscipline","column":"entrancediscipline_id","type":"LONG","length":0,"required":true,"remote":"entranceDiscipline"},{"name":"priority","column":"priority_p","type":"INTEGER","length":255,"required":true,"remote":null}]},
		{"name":"entrant2IndividualAchievements","abstract":false,"parent":null,"table":"ntrnt2indvdlachvmnts_t","interfaces":[],"properties":[{"name":"id","column":"id","type":"LONG","length":255,"required":true,"remote":null},{"name":"class","column":"discriminator","type":"SHORT","length":255,"required":true,"remote":null},{"name":"entrant","column":"entrant_id","type":"LONG","length":0,"required":true,"remote":"entrant"},{"name":"individualAchievements","column":"individualachievements_id","type":"LONG","length":0,"required":false,"remote":"individualAchievements"},{"name":"text","column":"text_p","type":"TEXT","length":255,"required":false,"remote":null}]},
		{"name":"entrant2SpecialConditions","abstract":false,"parent":null,"table":"entrant2specialconditions_t","interfaces":[],"properties":[{"name":"id","column":"id","type":"LONG","length":255,"required":true,"remote":null},{"name":"class","column":"discriminator","type":"SHORT","length":255,"required":true,"remote":null},{"name":"entrant","column":"entrant_id","type":"LONG","length":0,"required":true,"remote":"entrant"},{"name":"specialConditionsForEntrant","column":"specialconditionsforentrant_id","type":"LONG","length":0,"required":false,"remote":"specialConditionsForEntrant"}]},
		{"name":"entrantEduLevelDistributionReport","abstract":false,"parent":null,"table":"ntrntedlvldstrbtnrprt_t","interfaces":[],"properties":[{"name":"id","column":"id","type":"LONG","length":255,"required":true,"remote":null},{"name":"class","column":"discriminator","type":"SHORT","length":255,"required":true,"remote":null},{"name":"content","column":"content_id","type":"LONG","length":0,"required":true,"remote":"databaseFile"},{"name":"formingDate","column":"formingdate_p","type":"TIMESTAMP","length":255,"required":true,"remote":null},{"name":"enrollmentCampaign","column":"enrollmentcampaign_id","type":"LONG","length":0,"required":true,"remote":"enrollmentCampaign"},{"name":"developFormTitle","column":"developformtitle_p","type":"TRIMMEDSTRING","length":255,"required":false,"remote":null},{"name":"formativeOrgUnitTitle","column":"formativeorgunittitle_p","type":"TEXT","length":255,"required":false,"remote":null},{"name":"educationLevelsHighSchoolTitle","column":"dctnlvlshghschlttl_p","type":"TEXT","length":255,"required":false,"remote":null},{"name":"developConditionTitle","column":"developconditiontitle_p","type":"TEXT","length":255,"required":false,"remote":null}]},
		{"name":"entrantExt","abstract":false,"parent":null,"table":"entrantext_t","interfaces":[],"properties":[{"name":"id","column":"id","type":"LONG","length":255,"required":true,"remote":null},{"name":"class","column":"discriminator","type":"SHORT","length":255,"required":true,"remote":null},{"name":"entrant","column":"entrant_id","type":"LONG","length":0,"required":true,"remote":"entrant"},{"name":"documentReturnMethod","column":"documentreturnmethod_id","type":"LONG","length":0,"required":false,"remote":"documentReturnMethod"},{"name":"additionalInfoText","column":"additionalinfotext_p","type":"TEXT","length":255,"required":false,"remote":null},{"name":"enrollmentPriority","column":"enrollmentpriority_p","type":"INTEGER","length":255,"required":false,"remote":null}]},
		{"name":"entrantRecommendedSettings","abstract":false,"parent":null,"table":"entrantrecommendedsettings_t","interfaces":[],"properties":[{"name":"id","column":"id","type":"LONG","length":255,"required":true,"remote":null},{"name":"class","column":"discriminator","type":"SHORT","length":255,"required":true,"remote":null},{"name":"enrollmentCampaign","column":"enrollmentcampaign_id","type":"LONG","length":0,"required":true,"remote":"enrollmentCampaign"},{"name":"usePriorityEntranceDiscipline","column":"sprrtyentrncdscpln_p","type":"BOOLEAN","length":255,"required":true,"remote":null},{"name":"useStructureLevelInRestriction","column":"sstrctrlvlinrstrctn_p","type":"BOOLEAN","length":255,"required":true,"remote":null},{"name":"useGroup","column":"usegroup_p","type":"BOOLEAN","length":255,"required":true,"remote":null},{"name":"useDemon","column":"usedemon_p","type":"BOOLEAN","length":255,"required":true,"remote":null},{"name":"interval","column":"interval_p","type":"INTEGER","length":255,"required":true,"remote":null},{"name":"path","column":"path_p","type":"TRIMMEDSTRING","length":255,"required":false,"remote":null}]},
		{"name":"individualAchievements","abstract":false,"parent":null,"table":"individualachievements_t","interfaces":[],"properties":[{"name":"id","column":"id","type":"LONG","length":255,"required":true,"remote":null},{"name":"class","column":"discriminator","type":"SHORT","length":255,"required":true,"remote":null},{"name":"code","column":"code_p","type":"TRIMMEDSTRING","length":255,"required":true,"remote":null},{"name":"title","column":"title_p","type":"TRIMMEDSTRING","length":1200,"required":false,"remote":null}]},
		{"name":"onlineEntrant2IndividualAchievement","abstract":false,"parent":null,"table":"nlnentrnt2indvdlachvmnt_t","interfaces":[],"properties":[{"name":"id","column":"id","type":"LONG","length":255,"required":true,"remote":null},{"name":"class","column":"discriminator","type":"SHORT","length":255,"required":true,"remote":null},{"name":"entrant","column":"entrant_id","type":"LONG","length":0,"required":true,"remote":"onlineEntrant"},{"name":"individualAchievements","column":"individualachievements_id","type":"LONG","length":0,"required":false,"remote":"individualAchievements"},{"name":"text","column":"text_p","type":"TEXT","length":255,"required":false,"remote":null},{"name":"order","column":"order_p","type":"INTEGER","length":255,"required":true,"remote":null}]},
		{"name":"onlineEntrantExt","abstract":false,"parent":null,"table":"onlineentrantext_t","interfaces":[],"properties":[{"name":"id","column":"id","type":"LONG","length":255,"required":true,"remote":null},{"name":"class","column":"discriminator","type":"SHORT","length":255,"required":true,"remote":null},{"name":"entrant","column":"entrant_id","type":"LONG","length":0,"required":true,"remote":"onlineEntrant"},{"name":"snilsNumber","column":"snilsnumber_p","type":"TRIMMEDSTRING","length":255,"required":false,"remote":null},{"name":"nextOfKinRelationDegree","column":"nextofkinrelationdegree_id","type":"LONG","length":0,"required":false,"remote":"relationDegree"},{"name":"nextOfKinLastName","column":"nextofkinlastname_p","type":"TRIMMEDSTRING","length":255,"required":false,"remote":null},{"name":"nextOfKinFirstName","column":"nextofkinfirstname_p","type":"TRIMMEDSTRING","length":255,"required":false,"remote":null},{"name":"nextOfKinMiddleName","column":"nextofkinmiddlename_p","type":"TRIMMEDSTRING","length":255,"required":false,"remote":null},{"name":"nextOfKinWorkPlace","column":"nextofkinworkplace_p","type":"TRIMMEDSTRING","length":255,"required":false,"remote":null},{"name":"nextOfKinWorkPost","column":"nextofkinworkpost_p","type":"TRIMMEDSTRING","length":255,"required":false,"remote":null},{"name":"nextOfKinPhone","column":"nextofkinphone_p","type":"TRIMMEDSTRING","length":255,"required":false,"remote":null},{"name":"description","column":"description_p","type":"TRIMMEDSTRING","length":255,"required":false,"remote":null}]},
		{"name":"onlinePriorityProfileEduOu","abstract":false,"parent":null,"table":"onlinepriorityprofileeduou_t","interfaces":[],"properties":[{"name":"id","column":"id","type":"LONG","length":255,"required":true,"remote":null},{"name":"class","column":"discriminator","type":"SHORT","length":255,"required":true,"remote":null},{"name":"onlineRequestedEnrollmentDirection","column":"nlnrqstdenrllmntdrctn_id","type":"LONG","length":0,"required":true,"remote":"onlineRequestedEnrollmentDirection"},{"name":"profileEducationOrgUnit","column":"profileeducationorgunit_id","type":"LONG","length":0,"required":true,"remote":"profileEducationOrgUnit"},{"name":"priority","column":"priority_p","type":"INTEGER","length":255,"required":true,"remote":null}]},
		{"name":"onlineRequestedEnrollmentDirectionOrder","abstract":false,"parent":null,"table":"nlnrqstdenrllmntdrctnordr_t","interfaces":[],"properties":[{"name":"id","column":"id","type":"LONG","length":255,"required":true,"remote":null},{"name":"class","column":"discriminator","type":"SHORT","length":255,"required":true,"remote":null},{"name":"onlineRequestedEnrollmentDirection","column":"nlnrqstdenrllmntdrctn_id","type":"LONG","length":0,"required":true,"remote":"onlineRequestedEnrollmentDirection"},{"name":"order","column":"order_p","type":"INTEGER","length":255,"required":true,"remote":null}]},
		{"name":"preliminaryEnrollmentStudentExt","abstract":false,"parent":null,"table":"prlmnryenrllmntstdntext_t","interfaces":[],"properties":[{"name":"id","column":"id","type":"LONG","length":255,"required":true,"remote":null},{"name":"class","column":"discriminator","type":"SHORT","length":255,"required":true,"remote":null},{"name":"preliminaryEnrollmentStudent","column":"prlmnryenrllmntstdnt_id","type":"LONG","length":0,"required":true,"remote":"preliminaryEnrollmentStudent"},{"name":"haveSpecialRights","column":"havespecialrights_p","type":"BOOLEAN","length":255,"required":true,"remote":null}]},
		{"name":"requestedEnrollmentDirectionExt","abstract":false,"parent":null,"table":"rqstdenrllmntdrctnext_t","interfaces":[],"properties":[{"name":"id","column":"id","type":"LONG","length":255,"required":true,"remote":null},{"name":"class","column":"discriminator","type":"SHORT","length":255,"required":true,"remote":null},{"name":"requestedEnrollmentDirection","column":"rqstdenrllmntdrctn_id","type":"LONG","length":0,"required":true,"remote":"requestedEnrollmentDirection"},{"name":"haveSpecialRights","column":"havespecialrights_p","type":"BOOLEAN","length":255,"required":true,"remote":null},{"name":"course","column":"course_id","type":"LONG","length":0,"required":false,"remote":"course"},{"name":"term","column":"term_id","type":"LONG","length":0,"required":false,"remote":"term"},{"name":"group","column":"group_id","type":"LONG","length":0,"required":false,"remote":"group"}]},
		{"name":"specialConditionsForEntrant","abstract":false,"parent":null,"table":"specialconditionsforentrant_t","interfaces":[],"properties":[{"name":"id","column":"id","type":"LONG","length":255,"required":true,"remote":null},{"name":"class","column":"discriminator","type":"SHORT","length":255,"required":true,"remote":null},{"name":"code","column":"code_p","type":"TRIMMEDSTRING","length":255,"required":true,"remote":null},{"name":"title","column":"title_p","type":"TRIMMEDSTRING","length":1200,"required":false,"remote":null}]},
		{"name":"targetAdmissionKindRMC","abstract":false,"parent":null,"table":"targetadmissionkindrmc_t","interfaces":[],"properties":[{"name":"id","column":"id","type":"LONG","length":255,"required":true,"remote":null},{"name":"class","column":"discriminator","type":"SHORT","length":255,"required":true,"remote":null},{"name":"base","column":"base_id","type":"LONG","length":0,"required":true,"remote":"targetAdmissionKind"},{"name":"contractNumber","column":"contractnumber_p","type":"TRIMMEDSTRING","length":255,"required":false,"remote":null}]},
		{"name":"enrollmentResultByCategoryReport","abstract":false,"parent":"storableReport","table":"enrrescat_report_t","interfaces":[],"properties":[{"name":"enrollmentCampaign","column":"enrollmentcampaign_id","type":"LONG","length":0,"required":true,"remote":"enrollmentCampaign"},{"name":"developForm","column":"developform_id","type":"LONG","length":0,"required":true,"remote":"developForm"},{"name":"formativeOrgUnit","column":"formativeorgunit_p","type":"TEXT","length":255,"required":false,"remote":null},{"name":"territorialOrgUnit","column":"territorialorgunit_p","type":"TEXT","length":255,"required":false,"remote":null},{"name":"qualification","column":"qualification_p","type":"TRIMMEDSTRING","length":255,"required":false,"remote":null},{"name":"developCondition","column":"developcondition_p","type":"TRIMMEDSTRING","length":255,"required":false,"remote":null},{"name":"entrantState","column":"entrantstate_p","type":"TRIMMEDSTRING","length":255,"required":false,"remote":null}]}],
 "dependencies":["unibasermc"]}