{"name":"uniepp",
 "interfaces":[
		{"name":"ru.tandemservice.uniepp.entity.eduelement.IEppEducationElement","view":"ieppeducationelement_v"},
		{"name":"ru.tandemservice.uniepp.entity.pps.IEppPPSCollectionOwner","view":"ieppppscollectionowner_v"}],
 "entities":[
		{"name":"eppControlActionType","abstract":true,"parent":null,"table":"epp_c_cactiontype_t","interfaces":[],"properties":[{"name":"id","column":"id","type":"LONG","length":255,"required":true,"remote":null},{"name":"class","column":"discriminator","type":"SHORT","length":255,"required":true,"remote":null},{"name":"code","column":"code_p","type":"TRIMMEDSTRING","length":255,"required":true,"remote":null},{"name":"catalogCode","column":"catalogcode_p","type":"TRIMMEDSTRING","length":255,"required":true,"remote":null},{"name":"disabled","column":"disabled_p","type":"BOOLEAN","length":255,"required":true,"remote":null},{"name":"shortTitle","column":"shorttitle_p","type":"TRIMMEDSTRING","length":255,"required":false,"remote":null},{"name":"abbreviation","column":"abbreviation_p","type":"TRIMMEDSTRING","length":255,"required":false,"remote":null},{"name":"activeInEduPlan","column":"activeineduplan_p","type":"BOOLEAN","length":255,"required":true,"remote":null},{"name":"usedWithDisciplines","column":"usedwithdisciplines_p","type":"BOOLEAN","length":255,"required":true,"remote":null},{"name":"usedWithPractice","column":"usedwithpractice_p","type":"BOOLEAN","length":255,"required":true,"remote":null},{"name":"usedWithAttestation","column":"usedwithattestation_p","type":"BOOLEAN","length":255,"required":true,"remote":null},{"name":"title","column":"title_p","type":"TRIMMEDSTRING","length":1200,"required":false,"remote":null}]},
		{"name":"eppFControlActionType","abstract":false,"parent":"eppControlActionType","table":"epp_c_cactiontype_f_t","interfaces":[],"properties":[{"name":"eppGroupType","column":"eppgrouptype_id","type":"LONG","length":0,"required":true,"remote":"eppGroupTypeFCA"},{"name":"defaultGradeScale","column":"defaultgradescale_id","type":"LONG","length":0,"required":true,"remote":"eppGradeScale"},{"name":"group","column":"group_id","type":"LONG","length":0,"required":true,"remote":"eppFControlActionGroup"},{"name":"priority","column":"priority_p","type":"INTEGER","length":255,"required":true,"remote":null},{"name":"totalMarkPriority","column":"totalmarkpriority_p","type":"INTEGER","length":255,"required":true,"remote":null}]},
		{"name":"eppIControlActionType","abstract":false,"parent":"eppControlActionType","table":"epp_c_cactiontype_i_t","interfaces":[],"properties":[{"name":"userCode","column":"usercode_p","type":"TRIMMEDSTRING","length":255,"required":true,"remote":null},{"name":"maxCount","column":"maxcount_p","type":"INTEGER","length":255,"required":true,"remote":null},{"name":"defaultGroupType","column":"defaultgrouptype_id","type":"LONG","length":0,"required":true,"remote":"eppGroupType"}]},
		{"name":"eppCtrDocTemplate","abstract":false,"parent":null,"table":"epp_ctr_c_doc_template","interfaces":[],"properties":[{"name":"id","column":"id","type":"LONG","length":255,"required":true,"remote":null},{"name":"class","column":"discriminator","type":"SHORT","length":255,"required":true,"remote":null},{"name":"code","column":"code_p","type":"TRIMMEDSTRING","length":255,"required":true,"remote":null},{"name":"title","column":"title_p","type":"TRIMMEDSTRING","length":1200,"required":false,"remote":null},{"name":"path","column":"path_p","type":"STRING","length":255,"required":true,"remote":null},{"name":"document","column":"document_p","type":"BLOB","length":255,"required":false,"remote":null},{"name":"editDate","column":"editdate_p","type":"TIMESTAMP","length":255,"required":false,"remote":null},{"name":"comment","column":"comment_p","type":"TEXT","length":255,"required":false,"remote":null}]},
		{"name":"eppCustomEduPlan","abstract":false,"parent":null,"table":"epp_custom_eduplan_t","interfaces":[],"properties":[{"name":"id","column":"id","type":"LONG","length":255,"required":true,"remote":null},{"name":"class","column":"discriminator","type":"SHORT","length":255,"required":true,"remote":null},{"name":"epvBlock","column":"epvblock_id","type":"LONG","length":0,"required":true,"remote":"eppEduPlanVersionSpecializationBlock"},{"name":"plan","column":"plan_id","type":"LONG","length":0,"required":true,"remote":"eppEduPlanProf"},{"name":"developGrid","column":"developgrid_id","type":"LONG","length":0,"required":true,"remote":"developGrid"},{"name":"developCondition","column":"developcondition_id","type":"LONG","length":0,"required":true,"remote":"developCondition"},{"name":"state","column":"state_id","type":"LONG","length":0,"required":true,"remote":"eppState"},{"name":"number","column":"number_p","type":"TRIMMEDSTRING","length":255,"required":true,"remote":null},{"name":"comment","column":"comment_p","type":"TEXT","length":255,"required":false,"remote":null}]},
		{"name":"eppCustomEpvRowTerm","abstract":false,"parent":null,"table":"epp_custom_eduplan_row_term_t","interfaces":[],"properties":[{"name":"id","column":"id","type":"LONG","length":255,"required":true,"remote":null},{"name":"class","column":"discriminator","type":"SHORT","length":255,"required":true,"remote":null},{"name":"epvRowTerm","column":"epvrowterm_id","type":"LONG","length":0,"required":true,"remote":"eppEpvRowTerm"},{"name":"customEduPlan","column":"customeduplan_id","type":"LONG","length":0,"required":true,"remote":"eppCustomEduPlan"},{"name":"newTerm","column":"newterm_id","type":"LONG","length":0,"required":true,"remote":"term"},{"name":"needRetake","column":"needretake_p","type":"BOOLEAN","length":255,"required":false,"remote":null},{"name":"excluded","column":"excluded_p","type":"BOOLEAN","length":255,"required":true,"remote":null}]},
		{"name":"eppDefaultSelfworkForSize","abstract":false,"parent":null,"table":"epp_def_selfwork_for_size_t","interfaces":[],"properties":[{"name":"id","column":"id","type":"LONG","length":255,"required":true,"remote":null},{"name":"class","column":"discriminator","type":"SHORT","length":255,"required":true,"remote":null},{"name":"developForm","column":"developform_id","type":"LONG","length":0,"required":false,"remote":"developForm"},{"name":"developCondition","column":"developcondition_id","type":"LONG","length":0,"required":false,"remote":"developCondition"},{"name":"developTech","column":"developtech_id","type":"LONG","length":0,"required":false,"remote":"developTech"},{"name":"developGrid","column":"developgrid_id","type":"LONG","length":0,"required":false,"remote":"developGrid"},{"name":"value","column":"value_p","type":"LONG","length":255,"required":true,"remote":null}]},
		{"name":"eppDefaultSizeForLabor","abstract":false,"parent":null,"table":"epp_def_size_for_labor_t","interfaces":[],"properties":[{"name":"id","column":"id","type":"LONG","length":255,"required":true,"remote":null},{"name":"class","column":"discriminator","type":"SHORT","length":255,"required":true,"remote":null},{"name":"developForm","column":"developform_id","type":"LONG","length":0,"required":false,"remote":"developForm"},{"name":"developCondition","column":"developcondition_id","type":"LONG","length":0,"required":false,"remote":"developCondition"},{"name":"developTech","column":"developtech_id","type":"LONG","length":0,"required":false,"remote":"developTech"},{"name":"developGrid","column":"developgrid_id","type":"LONG","length":0,"required":false,"remote":"developGrid"},{"name":"value","column":"value_p","type":"LONG","length":255,"required":true,"remote":null}]},
		{"name":"eppELoadWeekType","abstract":false,"parent":null,"table":"epp_eload_week_type_rel_t","interfaces":[],"properties":[{"name":"id","column":"id","type":"LONG","length":255,"required":true,"remote":null},{"name":"class","column":"discriminator","type":"SHORT","length":255,"required":true,"remote":null},{"name":"developForm","column":"developform_id","type":"LONG","length":0,"required":true,"remote":"developForm"},{"name":"loadType","column":"loadtype_id","type":"LONG","length":0,"required":true,"remote":"eppELoadType"},{"name":"weekType","column":"weektype_id","type":"LONG","length":0,"required":true,"remote":"eppWeekType"}]},
		{"name":"eppEduGroupSplitBaseElement","abstract":true,"parent":null,"table":"epp_edu_group_split_element_t","interfaces":[],"properties":[{"name":"id","column":"id","type":"LONG","length":255,"required":true,"remote":null},{"name":"class","column":"discriminator","type":"SHORT","length":255,"required":true,"remote":null},{"name":"splitVariant","column":"splitvariant_id","type":"LONG","length":0,"required":true,"remote":"eppEduGroupSplitVariant"}]},
		{"name":"eppEduGroupSplitByLangElement","abstract":false,"parent":"eppEduGroupSplitBaseElement","table":"epp_edu_group_split_el_lang_t","interfaces":[],"properties":[{"name":"foreignLanguage","column":"foreignlanguage_id","type":"LONG","length":0,"required":true,"remote":"foreignLanguage"}]},
		{"name":"eppEduGroupSplitBySexElement","abstract":false,"parent":"eppEduGroupSplitBaseElement","table":"epp_edu_group_split_el_sex_t","interfaces":[],"properties":[{"name":"sex","column":"sex_id","type":"LONG","length":0,"required":true,"remote":"sex"}]},
		{"name":"eppEduGroupSplitVariant","abstract":false,"parent":null,"table":"epp_c_edu_group_split_var_t","interfaces":[],"properties":[{"name":"id","column":"id","type":"LONG","length":255,"required":true,"remote":null},{"name":"class","column":"discriminator","type":"SHORT","length":255,"required":true,"remote":null},{"name":"code","column":"code_p","type":"TRIMMEDSTRING","length":255,"required":true,"remote":null},{"name":"shortTitle","column":"shorttitle_p","type":"TRIMMEDSTRING","length":255,"required":true,"remote":null},{"name":"title","column":"title_p","type":"TRIMMEDSTRING","length":1200,"required":false,"remote":null}]},
		{"name":"eppEduPlan","abstract":true,"parent":null,"table":"epp_eduplan_t","interfaces":[],"properties":[{"name":"id","column":"id","type":"LONG","length":255,"required":true,"remote":null},{"name":"class","column":"discriminator","type":"SHORT","length":255,"required":true,"remote":null},{"name":"programKind","column":"programkind_id","type":"LONG","length":0,"required":true,"remote":"eduProgramKind"},{"name":"programForm","column":"programform_id","type":"LONG","length":0,"required":true,"remote":"eduProgramForm"},{"name":"programTrait","column":"programtrait_id","type":"LONG","length":0,"required":false,"remote":"eduProgramTrait"},{"name":"developCondition","column":"developcondition_id","type":"LONG","length":0,"required":true,"remote":"developCondition"},{"name":"developGrid","column":"developgrid_id","type":"LONG","length":0,"required":true,"remote":"developGrid"},{"name":"number","column":"number_p","type":"TRIMMEDSTRING","length":255,"required":true,"remote":null},{"name":"registrationNumber","column":"registrationnumber_p","type":"TRIMMEDSTRING","length":255,"required":true,"remote":null},{"name":"titlePostfix","column":"titlepostfix_p","type":"TRIMMEDSTRING","length":255,"required":false,"remote":null},{"name":"eduStartYear","column":"edustartyear_p","type":"INTEGER","length":255,"required":true,"remote":null},{"name":"eduEndYear","column":"eduendyear_p","type":"INTEGER","length":255,"required":false,"remote":null},{"name":"owner","column":"owner_id","type":"LONG","length":0,"required":false,"remote":"orgUnit"},{"name":"state","column":"state_id","type":"LONG","length":0,"required":true,"remote":"eppState"},{"name":"confirmDate","column":"confirmdate_p","type":"DATE","length":255,"required":false,"remote":null},{"name":"comment","column":"comment_p","type":"TEXT","length":255,"required":false,"remote":null},{"name":"parent","column":"parent_id","type":"LONG","length":0,"required":false,"remote":"eppStateEduStandard"}]},
		{"name":"eppEduPlanAdditionalProf","abstract":false,"parent":"eppEduPlan","table":"epp_eduplan_prof_addit_t","interfaces":[],"properties":[{"name":"eduProgram","column":"eduprogram_id","type":"LONG","length":0,"required":true,"remote":"eduProgramAdditionalProf"}]},
		{"name":"eppEduPlanProf","abstract":true,"parent":"eppEduPlan","table":"epp_eduplan_prof_t","interfaces":[],"properties":[{"name":"baseLevel","column":"baselevel_id","type":"LONG","length":0,"required":true,"remote":"eduLevel"},{"name":"programSubject","column":"programsubject_id","type":"LONG","length":0,"required":true,"remote":"eduProgramSubject"},{"name":"programQualification","column":"programqualification_id","type":"LONG","length":0,"required":true,"remote":"eduProgramQualification"},{"name":"subjectQualification","column":"subjectqualification_id","type":"LONG","length":0,"required":true,"remote":"eduProgramSubjectQualification"},{"name":"stdProgramDurationYears","column":"stdprogramdurationyears_p","type":"INTEGER","length":255,"required":false,"remote":null},{"name":"stdProgramDurationMonths","column":"stdprogramdurationmonths_p","type":"INTEGER","length":255,"required":false,"remote":null},{"name":"laborAsLong","column":"laboraslong_p","type":"LONG","length":255,"required":false,"remote":null},{"name":"weeksAsLong","column":"weeksaslong_p","type":"LONG","length":255,"required":false,"remote":null}]},
		{"name":"eppEduPlanHigherProf","abstract":false,"parent":"eppEduPlanProf","table":"epp_eduplan_prof_higher_t","interfaces":[],"properties":[{"name":"programOrientation","column":"programorientation_id","type":"LONG","length":0,"required":false,"remote":"eduProgramOrientation"}]},
		{"name":"eppEduPlanSecondaryProf","abstract":false,"parent":"eppEduPlanProf","table":"epp_eduplan_prof_secondary_t","interfaces":[],"properties":[{"name":"inDepthStudy","column":"indepthstudy_p","type":"BOOLEAN","length":255,"required":true,"remote":null},{"name":"ownerOrgUnit","column":"ownerorgunit_id","type":"LONG","length":0,"required":false,"remote":"eduOwnerOrgUnit"}]},
		{"name":"eppEduPlanVersion","abstract":false,"parent":null,"table":"epp_eduplan_ver_t","interfaces":[],"properties":[{"name":"id","column":"id","type":"LONG","length":255,"required":true,"remote":null},{"name":"class","column":"discriminator","type":"SHORT","length":255,"required":true,"remote":null},{"name":"eduPlan","column":"eduplan_id","type":"LONG","length":0,"required":true,"remote":"eppEduPlan"},{"name":"number","column":"number_p","type":"TRIMMEDSTRING","length":255,"required":true,"remote":null},{"name":"registrationNumber","column":"registrationnumber_p","type":"TRIMMEDSTRING","length":255,"required":true,"remote":null},{"name":"protocolNumber","column":"protocolnumber_p","type":"TRIMMEDSTRING","length":255,"required":false,"remote":null},{"name":"titlePostfix","column":"titlepostfix_p","type":"TRIMMEDSTRING","length":255,"required":false,"remote":null},{"name":"loadPresentationInWeeks","column":"loadpresentationinweeks_p","type":"BOOLEAN","length":255,"required":true,"remote":null},{"name":"viewTableDiscipline","column":"viewtablediscipline_id","type":"LONG","length":0,"required":true,"remote":"eppViewTableDisciplines"},{"name":"state","column":"state_id","type":"LONG","length":0,"required":true,"remote":"eppState"},{"name":"hoursI","column":"hoursi_p","type":"BOOLEAN","length":255,"required":true,"remote":null},{"name":"hoursE","column":"hourse_p","type":"BOOLEAN","length":255,"required":true,"remote":null},{"name":"confirmDate","column":"confirmdate_p","type":"DATE","length":255,"required":false,"remote":null},{"name":"comment","column":"comment_p","type":"TEXT","length":255,"required":false,"remote":null},{"name":"developGridTerm","column":"developgridterm_id","type":"LONG","length":0,"required":true,"remote":"developGridTerm"}]},
		{"name":"eppEduPlanVersionBlock","abstract":true,"parent":null,"table":"epp_eduplan_verblock_t","interfaces":["org.tandemframework.shared.ctr.base.entity.ICtrPriceElement","ru.tandemservice.uniepp.entity.eduelement.IEppEducationElement"],"properties":[{"name":"id","column":"id","type":"LONG","length":255,"required":true,"remote":null},{"name":"class","column":"discriminator","type":"SHORT","length":255,"required":true,"remote":null},{"name":"eduPlanVersion","column":"eduplanversion_id","type":"LONG","length":0,"required":true,"remote":"eppEduPlanVersion"}]},
		{"name":"eppEduPlanVersionRootBlock","abstract":false,"parent":"eppEduPlanVersionBlock","table":"epp_eduplan_verblock_r_t","interfaces":[],"properties":[]},
		{"name":"eppEduPlanVersionSpecializationBlock","abstract":false,"parent":"eppEduPlanVersionBlock","table":"epp_eduplan_verblock_s_t","interfaces":["org.tandemframework.shared.commonbase.base.entity.IReorganizationObject"],"properties":[{"name":"programSpecialization","column":"programspecialization_id","type":"LONG","length":0,"required":true,"remote":"eduProgramSpecialization"},{"name":"ownerOrgUnit","column":"ownerorgunit_id","type":"LONG","length":0,"required":true,"remote":"eduOwnerOrgUnit"}]},
		{"name":"eppEduPlanVersionBlockProfActivityType","abstract":false,"parent":null,"table":"epp_epv_block_prof_act_type_t","interfaces":[],"properties":[{"name":"id","column":"id","type":"LONG","length":255,"required":true,"remote":null},{"name":"class","column":"discriminator","type":"SHORT","length":255,"required":true,"remote":null},{"name":"eduPlanVersionBlock","column":"eduplanversionblock_id","type":"LONG","length":0,"required":true,"remote":"eppEduPlanVersionBlock"},{"name":"profActivityType","column":"profactivitytype_id","type":"LONG","length":0,"required":true,"remote":"eppProfActivityType"}]},
		{"name":"eppEduPlanVersionWeekType","abstract":false,"parent":null,"table":"epp_eduplan_ver_week_type_t","interfaces":[],"properties":[{"name":"id","column":"id","type":"LONG","length":255,"required":true,"remote":null},{"name":"class","column":"discriminator","type":"SHORT","length":255,"required":true,"remote":null},{"name":"eduPlanVersion","column":"eduplanversion_id","type":"LONG","length":0,"required":true,"remote":"eppEduPlanVersion"},{"name":"course","column":"course_id","type":"LONG","length":0,"required":true,"remote":"course"},{"name":"week","column":"week_id","type":"LONG","length":0,"required":true,"remote":"eppWeek"},{"name":"term","column":"term_id","type":"LONG","length":0,"required":true,"remote":"term"},{"name":"weekType","column":"weektype_id","type":"LONG","length":0,"required":true,"remote":"eppWeekType"}]},
		{"name":"eppEducationOrgUnitEduPlanVersion","abstract":false,"parent":null,"table":"epp_eduou_epv_rel_t","interfaces":[],"properties":[{"name":"id","column":"id","type":"LONG","length":255,"required":true,"remote":null},{"name":"class","column":"discriminator","type":"SHORT","length":255,"required":true,"remote":null},{"name":"educationOrgUnit","column":"educationorgunit_id","type":"LONG","length":0,"required":true,"remote":"educationOrgUnit"},{"name":"eduPlanVersion","column":"eduplanversion_id","type":"LONG","length":0,"required":true,"remote":"eppEduPlanVersion"},{"name":"modificationDate","column":"modificationdate_p","type":"DATE","length":255,"required":true,"remote":null},{"name":"applyOnlyForFirstCourse","column":"applyonlyforfirstcourse_p","type":"BOOLEAN","length":255,"required":true,"remote":null}]},
		{"name":"eppEpvRegRowProfessionalTask","abstract":false,"parent":null,"table":"epp_epvregrow_prof_task_t","interfaces":[],"properties":[{"name":"id","column":"id","type":"LONG","length":255,"required":true,"remote":null},{"name":"class","column":"discriminator","type":"SHORT","length":255,"required":true,"remote":null},{"name":"epvRegistryRow","column":"epvregistryrow_id","type":"LONG","length":0,"required":true,"remote":"eppEpvRegistryRow"},{"name":"professionalTask","column":"professionaltask_id","type":"LONG","length":0,"required":true,"remote":"eppProfessionalTask"}]},
		{"name":"eppEpvRegRowSkill","abstract":false,"parent":null,"table":"epp_epvregrow_skill_t","interfaces":[],"properties":[{"name":"id","column":"id","type":"LONG","length":255,"required":true,"remote":null},{"name":"class","column":"discriminator","type":"SHORT","length":255,"required":true,"remote":null},{"name":"epvRegistryRow","column":"epvregistryrow_id","type":"LONG","length":0,"required":true,"remote":"eppEpvRegistryRow"},{"name":"skill","column":"skill_id","type":"LONG","length":0,"required":true,"remote":"eppSkill"},{"name":"skillDevelopLevel","column":"skilldeveloplevel_id","type":"LONG","length":0,"required":false,"remote":"eppSkillDevelopLevel"}]},
		{"name":"eppEpvRow","abstract":true,"parent":null,"table":"epp_epvrow_base_t","interfaces":[],"properties":[{"name":"id","column":"id","type":"LONG","length":255,"required":true,"remote":null},{"name":"class","column":"discriminator","type":"SHORT","length":255,"required":true,"remote":null},{"name":"owner","column":"owner_id","type":"LONG","length":0,"required":true,"remote":"eppEduPlanVersionBlock"},{"name":"storedIndex","column":"storedindex_p","type":"TRIMMEDSTRING","length":255,"required":true,"remote":null},{"name":"userIndex","column":"userindex_p","type":"TRIMMEDSTRING","length":255,"required":false,"remote":null},{"name":"excludedFromLoad","column":"excludedfromload_p","type":"BOOLEAN","length":255,"required":true,"remote":null},{"name":"excludedFromActions","column":"excludedfromactions_p","type":"BOOLEAN","length":255,"required":true,"remote":null}]},
		{"name":"eppEpvHierarchyRow","abstract":true,"parent":"eppEpvRow","table":"epp_epvrow_hierarchy_t","interfaces":[],"properties":[]},
		{"name":"eppEpvGroupReRow","abstract":false,"parent":"eppEpvHierarchyRow","table":"epp_epvrow_group_re_t","interfaces":[],"properties":[{"name":"parent","column":"parent_id","type":"LONG","length":0,"required":false,"remote":"eppEpvHierarchyRow"},{"name":"number","column":"number_p","type":"STRING","length":255,"required":true,"remote":null},{"name":"title","column":"title_p","type":"TRIMMEDSTRING","length":255,"required":true,"remote":null}]},
		{"name":"eppEpvStructureRow","abstract":false,"parent":"eppEpvHierarchyRow","table":"epp_epvrow_structure_t","interfaces":[],"properties":[{"name":"parent","column":"parent_id","type":"LONG","length":0,"required":false,"remote":"eppEpvStructureRow"},{"name":"value","column":"value_id","type":"LONG","length":0,"required":true,"remote":"eppPlanStructure"}]},
		{"name":"eppEpvTermDistributedRow","abstract":true,"parent":"eppEpvRow","table":"epp_epvrow_distr_t","interfaces":[],"properties":[{"name":"parent","column":"parent_id","type":"LONG","length":0,"required":false,"remote":"eppEpvRow"},{"name":"number","column":"number_p","type":"STRING","length":255,"required":true,"remote":null},{"name":"title","column":"title_p","type":"TRIMMEDSTRING","length":255,"required":true,"remote":null},{"name":"totalLabor","column":"totallabor_p","type":"LONG","length":255,"required":true,"remote":null},{"name":"hoursTotal","column":"hourstotal_p","type":"LONG","length":255,"required":true,"remote":null},{"name":"hoursAudit","column":"hoursaudit_p","type":"LONG","length":255,"required":true,"remote":null},{"name":"hoursSelfwork","column":"hoursselfwork_p","type":"LONG","length":255,"required":true,"remote":null},{"name":"hoursControl","column":"hourscontrol_p","type":"LONG","length":255,"required":true,"remote":null},{"name":"hoursControlE","column":"hourscontrole_p","type":"LONG","length":255,"required":true,"remote":null}]},
		{"name":"eppEpvGroupImRow","abstract":false,"parent":"eppEpvTermDistributedRow","table":"epp_epvrow_group_im_t","interfaces":[],"properties":[{"name":"size","column":"size_p","type":"INTEGER","length":255,"required":true,"remote":null}]},
		{"name":"eppEpvRegistryRow","abstract":false,"parent":"eppEpvTermDistributedRow","table":"epp_epvrow_regel_t","interfaces":[],"properties":[{"name":"registryElementType","column":"registryelementtype_id","type":"LONG","length":0,"required":true,"remote":"eppRegistryStructure"},{"name":"registryElementOwner","column":"registryelementowner_id","type":"LONG","length":0,"required":true,"remote":"orgUnit"},{"name":"registryElement","column":"registryelement_id","type":"LONG","length":0,"required":false,"remote":"eppRegistryElement"}]},
		{"name":"eppEpvRowLoad","abstract":false,"parent":null,"table":"epp_epvrow_distr_load_t","interfaces":[],"properties":[{"name":"id","column":"id","type":"LONG","length":255,"required":true,"remote":null},{"name":"class","column":"discriminator","type":"SHORT","length":255,"required":true,"remote":null},{"name":"row","column":"row_id","type":"LONG","length":0,"required":true,"remote":"eppEpvTermDistributedRow"},{"name":"loadType","column":"loadtype_id","type":"LONG","length":0,"required":true,"remote":"eppALoadType"},{"name":"hours","column":"hours_p","type":"LONG","length":255,"required":true,"remote":null},{"name":"hoursI","column":"hoursi_p","type":"LONG","length":255,"required":true,"remote":null},{"name":"hoursE","column":"hourse_p","type":"LONG","length":255,"required":true,"remote":null}]},
		{"name":"eppEpvRowTerm","abstract":false,"parent":null,"table":"epp_epvrowterm_t","interfaces":[],"properties":[{"name":"id","column":"id","type":"LONG","length":255,"required":true,"remote":null},{"name":"class","column":"discriminator","type":"SHORT","length":255,"required":true,"remote":null},{"name":"row","column":"row_id","type":"LONG","length":0,"required":true,"remote":"eppEpvTermDistributedRow"},{"name":"term","column":"term_id","type":"LONG","length":0,"required":true,"remote":"term"},{"name":"hoursTotal","column":"hourstotal_p","type":"LONG","length":255,"required":true,"remote":null},{"name":"labor","column":"labor_p","type":"LONG","length":255,"required":true,"remote":null},{"name":"weeks","column":"weeks_p","type":"LONG","length":255,"required":true,"remote":null},{"name":"hoursAudit","column":"hoursaudit_p","type":"LONG","length":255,"required":true,"remote":null},{"name":"hoursSelfwork","column":"hoursselfwork_p","type":"LONG","length":255,"required":true,"remote":null},{"name":"hoursControl","column":"hourscontrol_p","type":"LONG","length":255,"required":true,"remote":null},{"name":"hoursControlE","column":"hourscontrole_p","type":"LONG","length":255,"required":true,"remote":null}]},
		{"name":"eppEpvRowTermAction","abstract":false,"parent":null,"table":"epp_epvrowterm_caction_t","interfaces":[],"properties":[{"name":"id","column":"id","type":"LONG","length":255,"required":true,"remote":null},{"name":"class","column":"discriminator","type":"SHORT","length":255,"required":true,"remote":null},{"name":"rowTerm","column":"rowterm_id","type":"LONG","length":0,"required":true,"remote":"eppEpvRowTerm"},{"name":"controlActionType","column":"controlactiontype_id","type":"LONG","length":0,"required":true,"remote":"eppControlActionType"},{"name":"size","column":"size_p","type":"INTEGER","length":255,"required":true,"remote":null}]},
		{"name":"eppEpvRowTermLoad","abstract":false,"parent":null,"table":"epp_epvrowterm_load_t","interfaces":[],"properties":[{"name":"id","column":"id","type":"LONG","length":255,"required":true,"remote":null},{"name":"class","column":"discriminator","type":"SHORT","length":255,"required":true,"remote":null},{"name":"rowTerm","column":"rowterm_id","type":"LONG","length":0,"required":true,"remote":"eppEpvRowTerm"},{"name":"loadType","column":"loadtype_id","type":"LONG","length":0,"required":true,"remote":"eppALoadType"},{"name":"hours","column":"hours_p","type":"LONG","length":255,"required":true,"remote":null},{"name":"hoursI","column":"hoursi_p","type":"LONG","length":255,"required":true,"remote":null},{"name":"hoursE","column":"hourse_p","type":"LONG","length":255,"required":true,"remote":null}]},
		{"name":"eppFControlActionGroup","abstract":false,"parent":null,"table":"epp_c_fcactiongroup_t","interfaces":[],"properties":[{"name":"id","column":"id","type":"LONG","length":255,"required":true,"remote":null},{"name":"class","column":"discriminator","type":"SHORT","length":255,"required":true,"remote":null},{"name":"code","column":"code_p","type":"TRIMMEDSTRING","length":255,"required":true,"remote":null},{"name":"themeRequired","column":"themerequired_p","type":"BOOLEAN","length":255,"required":true,"remote":null},{"name":"title","column":"title_p","type":"TRIMMEDSTRING","length":1200,"required":false,"remote":null}]},
		{"name":"eppGradeScale","abstract":false,"parent":null,"table":"epp_c_gradescale_t","interfaces":[],"properties":[{"name":"id","column":"id","type":"LONG","length":255,"required":true,"remote":null},{"name":"class","column":"discriminator","type":"SHORT","length":255,"required":true,"remote":null},{"name":"code","column":"code_p","type":"TRIMMEDSTRING","length":255,"required":true,"remote":null},{"name":"description","column":"description_p","type":"TEXT","length":255,"required":false,"remote":null},{"name":"priority","column":"priority_p","type":"INTEGER","length":255,"required":true,"remote":null},{"name":"title","column":"title_p","type":"TRIMMEDSTRING","length":1200,"required":false,"remote":null}]},
		{"name":"eppGroupType","abstract":true,"parent":null,"table":"epp_group_type_t","interfaces":[],"properties":[{"name":"id","column":"id","type":"LONG","length":255,"required":true,"remote":null},{"name":"class","column":"discriminator","type":"SHORT","length":255,"required":true,"remote":null},{"name":"code","column":"code_p","type":"TRIMMEDSTRING","length":255,"required":true,"remote":null},{"name":"priority","column":"priority_p","type":"INTEGER","length":255,"required":true,"remote":null},{"name":"shortTitle","column":"shorttitle_p","type":"TRIMMEDSTRING","length":255,"required":false,"remote":null},{"name":"abbreviation","column":"abbreviation_p","type":"TRIMMEDSTRING","length":255,"required":false,"remote":null},{"name":"title","column":"title_p","type":"TRIMMEDSTRING","length":1200,"required":false,"remote":null}]},
		{"name":"eppGroupTypeALT","abstract":false,"parent":"eppGroupType","table":null,"interfaces":[],"properties":[]},
		{"name":"eppGroupTypeFCA","abstract":false,"parent":"eppGroupType","table":null,"interfaces":[],"properties":[]},
		{"name":"eppIndexRule","abstract":false,"parent":null,"table":"epp_c_indexrule_t","interfaces":[],"properties":[{"name":"id","column":"id","type":"LONG","length":255,"required":true,"remote":null},{"name":"class","column":"discriminator","type":"SHORT","length":255,"required":true,"remote":null},{"name":"code","column":"code_p","type":"TRIMMEDSTRING","length":255,"required":true,"remote":null},{"name":"description","column":"description_p","type":"TEXT","length":255,"required":false,"remote":null},{"name":"title","column":"title_p","type":"TRIMMEDSTRING","length":1200,"required":false,"remote":null}]},
		{"name":"eppIndexRule4SubjectIndex","abstract":false,"parent":null,"table":"epp_edulevel_gen_rel_t","interfaces":[],"properties":[{"name":"id","column":"id","type":"LONG","length":255,"required":true,"remote":null},{"name":"class","column":"discriminator","type":"SHORT","length":255,"required":true,"remote":null},{"name":"eduProgramSubjectIndex","column":"eduprogramsubjectindex_id","type":"LONG","length":0,"required":true,"remote":"eduProgramSubjectIndex"},{"name":"eppIndexRule","column":"eppindexrule_id","type":"LONG","length":0,"required":true,"remote":"eppIndexRule"}]},
		{"name":"eppLoadType","abstract":true,"parent":null,"table":"epp_c_loadtype_t","interfaces":[],"properties":[{"name":"id","column":"id","type":"LONG","length":255,"required":true,"remote":null},{"name":"class","column":"discriminator","type":"SHORT","length":255,"required":true,"remote":null},{"name":"code","column":"code_p","type":"TRIMMEDSTRING","length":255,"required":true,"remote":null},{"name":"catalogCode","column":"catalogcode_p","type":"TRIMMEDSTRING","length":255,"required":true,"remote":null},{"name":"shortTitle","column":"shorttitle_p","type":"TRIMMEDSTRING","length":255,"required":false,"remote":null},{"name":"abbreviation","column":"abbreviation_p","type":"TRIMMEDSTRING","length":255,"required":false,"remote":null},{"name":"title","column":"title_p","type":"TRIMMEDSTRING","length":1200,"required":false,"remote":null}]},
		{"name":"eppALoadType","abstract":false,"parent":"eppLoadType","table":"epp_c_loadtype_a_t","interfaces":[],"properties":[{"name":"eppGroupType","column":"eppgrouptype_id","type":"LONG","length":0,"required":true,"remote":"eppGroupTypeALT"}]},
		{"name":"eppELoadType","abstract":false,"parent":"eppLoadType","table":"epp_c_loadtype_e_t","interfaces":[],"properties":[]},
		{"name":"eppModuleStructure","abstract":false,"parent":null,"table":"epp_c_mod_struct_t","interfaces":[],"properties":[{"name":"id","column":"id","type":"LONG","length":255,"required":true,"remote":null},{"name":"class","column":"discriminator","type":"SHORT","length":255,"required":true,"remote":null},{"name":"code","column":"code_p","type":"TRIMMEDSTRING","length":255,"required":true,"remote":null},{"name":"parent","column":"parent_id","type":"LONG","length":0,"required":false,"remote":"eppModuleStructure"},{"name":"shortTitle","column":"shorttitle_p","type":"TRIMMEDSTRING","length":255,"required":false,"remote":null},{"name":"title","column":"title_p","type":"TRIMMEDSTRING","length":1200,"required":false,"remote":null}]},
		{"name":"eppPlanOrgUnit","abstract":false,"parent":null,"table":"epp_orgunit_plan_t","interfaces":[],"properties":[{"name":"id","column":"id","type":"LONG","length":255,"required":true,"remote":null},{"name":"class","column":"discriminator","type":"SHORT","length":255,"required":true,"remote":null},{"name":"orgUnit","column":"orgunit_id","type":"LONG","length":0,"required":true,"remote":"orgUnit"}]},
		{"name":"eppPlanStructure","abstract":false,"parent":null,"table":"epp_c_plan_struct_t","interfaces":[],"properties":[{"name":"id","column":"id","type":"LONG","length":255,"required":true,"remote":null},{"name":"class","column":"discriminator","type":"SHORT","length":255,"required":true,"remote":null},{"name":"code","column":"code_p","type":"TRIMMEDSTRING","length":255,"required":true,"remote":null},{"name":"parent","column":"parent_id","type":"LONG","length":0,"required":false,"remote":"eppPlanStructure"},{"name":"shortTitle","column":"shorttitle_p","type":"TRIMMEDSTRING","length":255,"required":false,"remote":null},{"name":"priority","column":"priority_p","type":"INTEGER","length":255,"required":true,"remote":null},{"name":"title","column":"title_p","type":"TRIMMEDSTRING","length":1200,"required":false,"remote":null}]},
		{"name":"eppPlanStructure4SubjectIndex","abstract":false,"parent":null,"table":"epp_regstruct_subidx_rel_t","interfaces":[],"properties":[{"name":"id","column":"id","type":"LONG","length":255,"required":true,"remote":null},{"name":"class","column":"discriminator","type":"SHORT","length":255,"required":true,"remote":null},{"name":"eppPlanStructure","column":"eppplanstructure_id","type":"LONG","length":0,"required":true,"remote":"eppPlanStructure"},{"name":"eduProgramSubjectIndex","column":"eduprogramsubjectindex_id","type":"LONG","length":0,"required":true,"remote":"eduProgramSubjectIndex"}]},
		{"name":"eppPpsCollectionItem","abstract":false,"parent":null,"table":"epp_pps_collection_t","interfaces":[],"properties":[{"name":"id","column":"id","type":"LONG","length":255,"required":true,"remote":null},{"name":"class","column":"discriminator","type":"SHORT","length":255,"required":true,"remote":null},{"name":"list","column":"list_id","type":"LONG","length":0,"required":true,"remote":"ru.tandemservice.uniepp.entity.pps.IEppPPSCollectionOwner"},{"name":"pps","column":"pps_id","type":"LONG","length":0,"required":true,"remote":"ppsEntry"}]},
		{"name":"eppProfActivityType","abstract":false,"parent":null,"table":"epp_c_prof_activity_type_t","interfaces":[],"properties":[{"name":"id","column":"id","type":"LONG","length":255,"required":true,"remote":null},{"name":"class","column":"discriminator","type":"SHORT","length":255,"required":true,"remote":null},{"name":"code","column":"code_p","type":"TRIMMEDSTRING","length":255,"required":true,"remote":null},{"name":"title","column":"title_p","type":"TRIMMEDSTRING","length":1200,"required":true,"remote":null},{"name":"programSubject","column":"programsubject_id","type":"LONG","length":0,"required":true,"remote":"eduProgramSubject"},{"name":"inDepthStudy","column":"indepthstudy_p","type":"BOOLEAN","length":255,"required":false,"remote":null},{"name":"fromIMCA","column":"fromimca_p","type":"BOOLEAN","length":255,"required":true,"remote":null},{"name":"removalDate","column":"removaldate_p","type":"DATE","length":255,"required":false,"remote":null},{"name":"priority","column":"priority_p","type":"INTEGER","length":255,"required":true,"remote":null}]},
		{"name":"eppProfessionalTask","abstract":false,"parent":null,"table":"epp_c_prof_task_t","interfaces":[],"properties":[{"name":"id","column":"id","type":"LONG","length":255,"required":true,"remote":null},{"name":"class","column":"discriminator","type":"SHORT","length":255,"required":true,"remote":null},{"name":"code","column":"code_p","type":"TRIMMEDSTRING","length":255,"required":true,"remote":null},{"name":"title","column":"title_p","type":"TRIMMEDSTRING","length":1200,"required":true,"remote":null},{"name":"shortTitle","column":"shorttitle_p","type":"TRIMMEDSTRING","length":255,"required":true,"remote":null},{"name":"profActivityType","column":"profactivitytype_id","type":"LONG","length":0,"required":true,"remote":"eppProfActivityType"},{"name":"priority","column":"priority_p","type":"INTEGER","length":255,"required":true,"remote":null}]},
		{"name":"eppRealEduGroup","abstract":true,"parent":null,"table":"epp_real_edu_group_t","interfaces":["ru.tandemservice.uniepp.entity.pps.IEppPPSCollectionOwner"],"properties":[{"name":"id","column":"id","type":"LONG","length":255,"required":true,"remote":null},{"name":"class","column":"discriminator","type":"SHORT","length":255,"required":true,"remote":null},{"name":"summary","column":"summary_id","type":"LONG","length":0,"required":true,"remote":"eppRealEduGroupSummary"},{"name":"activityPart","column":"activitypart_id","type":"LONG","length":0,"required":true,"remote":"eppRegistryElementPart"},{"name":"type","column":"type_id","type":"LONG","length":0,"required":true,"remote":"eppGroupType"},{"name":"title","column":"title_p","type":"TRIMMEDSTRING","length":255,"required":true,"remote":null},{"name":"creationDate","column":"creationdate_p","type":"TIMESTAMP","length":255,"required":true,"remote":null},{"name":"modificationDate","column":"modificationdate_p","type":"TIMESTAMP","length":255,"required":true,"remote":null},{"name":"level","column":"level_id","type":"LONG","length":0,"required":false,"remote":"eppRealEduGroupCompleteLevel"},{"name":"workPlanRow","column":"workplanrow_id","type":"LONG","length":0,"required":false,"remote":"eppWorkPlanRegistryElementRow"}]},
		{"name":"eppRealEduGroup4ActionType","abstract":false,"parent":"eppRealEduGroup","table":null,"interfaces":[],"properties":[]},
		{"name":"eppRealEduGroup4LoadType","abstract":false,"parent":"eppRealEduGroup","table":null,"interfaces":[],"properties":[]},
		{"name":"eppRealEduGroupCompleteLevel","abstract":false,"parent":null,"table":"epp_c_rgclvl_t","interfaces":[],"properties":[{"name":"id","column":"id","type":"LONG","length":255,"required":true,"remote":null},{"name":"class","column":"discriminator","type":"SHORT","length":255,"required":true,"remote":null},{"name":"code","column":"code_p","type":"TRIMMEDSTRING","length":255,"required":true,"remote":null},{"name":"parent","column":"parent_id","type":"LONG","length":0,"required":false,"remote":"eppRealEduGroupCompleteLevel"},{"name":"priority","column":"priority_p","type":"INTEGER","length":255,"required":true,"remote":null},{"name":"shortTitle","column":"shorttitle_p","type":"TRIMMEDSTRING","length":255,"required":false,"remote":null},{"name":"actionTitle","column":"actiontitle_p","type":"TRIMMEDSTRING","length":255,"required":false,"remote":null},{"name":"readyForFinalControlAction","column":"readyforfinalcontrolaction_p","type":"BOOLEAN","length":255,"required":true,"remote":null},{"name":"title","column":"title_p","type":"TRIMMEDSTRING","length":1200,"required":false,"remote":null}]},
		{"name":"eppRealEduGroupRow","abstract":true,"parent":null,"table":"epp_rgrp_row_t","interfaces":[],"properties":[{"name":"id","column":"id","type":"LONG","length":255,"required":true,"remote":null},{"name":"class","column":"discriminator","type":"SHORT","length":255,"required":true,"remote":null},{"name":"studentWpePart","column":"studentwpepart_id","type":"LONG","length":0,"required":true,"remote":"eppStudentWpePart"},{"name":"group","column":"group_id","type":"LONG","length":0,"required":true,"remote":"eppRealEduGroup"},{"name":"confirmDate","column":"confirmdate_p","type":"DATE","length":255,"required":false,"remote":null},{"name":"removalDate","column":"removaldate_p","type":"DATE","length":255,"required":false,"remote":null},{"name":"studentEducationOrgUnit","column":"studenteducationorgunit_id","type":"LONG","length":0,"required":false,"remote":"educationOrgUnit"},{"name":"studentGroupTitle","column":"studentgrouptitle_p","type":"TRIMMEDSTRING","length":255,"required":false,"remote":null}]},
		{"name":"eppRealEduGroup4ActionTypeRow","abstract":false,"parent":"eppRealEduGroupRow","table":null,"interfaces":[],"properties":[]},
		{"name":"eppRealEduGroup4LoadTypeRow","abstract":false,"parent":"eppRealEduGroupRow","table":null,"interfaces":[],"properties":[]},
		{"name":"eppRealEduGroupSummary","abstract":false,"parent":null,"table":"epp_realgroup_summary_t","interfaces":[],"properties":[{"name":"id","column":"id","type":"LONG","length":255,"required":true,"remote":null},{"name":"class","column":"discriminator","type":"SHORT","length":255,"required":true,"remote":null},{"name":"owner","column":"owner_id","type":"LONG","length":0,"required":true,"remote":"orgUnit"},{"name":"yearPart","column":"yearpart_id","type":"LONG","length":0,"required":true,"remote":"eppYearPart"},{"name":"modificationDate","column":"modificationdate_p","type":"TIMESTAMP","length":255,"required":true,"remote":null}]},
		{"name":"eppRegElementSplitByTypeEduGroupRel","abstract":false,"parent":null,"table":"epp_reg_el_split_load_type_t","interfaces":[],"properties":[{"name":"id","column":"id","type":"LONG","length":255,"required":true,"remote":null},{"name":"class","column":"discriminator","type":"SHORT","length":255,"required":true,"remote":null},{"name":"registryElement","column":"registryelement_id","type":"LONG","length":0,"required":true,"remote":"eppRegistryElement"},{"name":"groupType","column":"grouptype_id","type":"LONG","length":0,"required":true,"remote":"eppGroupType"}]},
		{"name":"eppRegistryElement","abstract":true,"parent":null,"table":"epp_reg_base_t","interfaces":["org.tandemframework.shared.commonbase.base.entity.IReorganizationObject","org.tandemframework.shared.ctr.base.entity.ICtrPriceElement","ru.tandemservice.uniepp.entity.eduelement.IEppEducationElement"],"properties":[{"name":"id","column":"id","type":"LONG","length":255,"required":true,"remote":null},{"name":"class","column":"discriminator","type":"SHORT","length":255,"required":true,"remote":null},{"name":"number","column":"number_p","type":"TRIMMEDSTRING","length":255,"required":true,"remote":null},{"name":"title","column":"title_p","type":"TRIMMEDSTRING","length":255,"required":true,"remote":null},{"name":"fullTitle","column":"fulltitle_p","type":"TRIMMEDSTRING","length":255,"required":false,"remote":null},{"name":"shortTitle","column":"shorttitle_p","type":"TRIMMEDSTRING","length":255,"required":false,"remote":null},{"name":"comment","column":"comment_p","type":"TEXT","length":255,"required":false,"remote":null},{"name":"labor","column":"labor_p","type":"LONG","length":255,"required":true,"remote":null},{"name":"size","column":"size_p","type":"LONG","length":255,"required":true,"remote":null},{"name":"owner","column":"owner_id","type":"LONG","length":0,"required":true,"remote":"orgUnit"},{"name":"parent","column":"parent_id","type":"LONG","length":0,"required":true,"remote":"eppRegistryStructure"},{"name":"state","column":"state_id","type":"LONG","length":0,"required":true,"remote":"eppState"},{"name":"eduGroupSplitVariant","column":"edugroupsplitvariant_id","type":"LONG","length":0,"required":false,"remote":"eppEduGroupSplitVariant"},{"name":"eduGroupSplitByType","column":"edugroupsplitbytype_p","type":"BOOLEAN","length":255,"required":true,"remote":null},{"name":"parts","column":"parts_p","type":"INTEGER","length":255,"required":true,"remote":null},{"name":"workProgramAnnotation","column":"workprogramannotation_p","type":"LONG","length":255,"required":false,"remote":null},{"name":"workProgramFile","column":"workprogramfile_p","type":"LONG","length":255,"required":false,"remote":null}]},
		{"name":"eppRegistryAction","abstract":true,"parent":"eppRegistryElement","table":"epp_reg_action_t","interfaces":[],"properties":[{"name":"weeks","column":"weeks_p","type":"LONG","length":255,"required":true,"remote":null}]},
		{"name":"eppRegistryAttestation","abstract":false,"parent":"eppRegistryAction","table":"epp_reg_action_attestation_t","interfaces":[],"properties":[]},
		{"name":"eppRegistryPractice","abstract":false,"parent":"eppRegistryAction","table":"epp_reg_action_practice_t","interfaces":[],"properties":[]},
		{"name":"eppRegistryDiscipline","abstract":false,"parent":"eppRegistryElement","table":"epp_reg_discipline_t","interfaces":[],"properties":[]},
		{"name":"eppRegistryElementLoad","abstract":false,"parent":null,"table":"epp_reg_base_load_t","interfaces":[],"properties":[{"name":"id","column":"id","type":"LONG","length":255,"required":true,"remote":null},{"name":"class","column":"discriminator","type":"SHORT","length":255,"required":true,"remote":null},{"name":"registryElement","column":"registryelement_id","type":"LONG","length":0,"required":true,"remote":"eppRegistryElement"},{"name":"loadType","column":"loadtype_id","type":"LONG","length":0,"required":true,"remote":"eppLoadType"},{"name":"load","column":"load_p","type":"LONG","length":255,"required":true,"remote":null}]},
		{"name":"eppRegistryElementPart","abstract":false,"parent":null,"table":"epp_reg_element_part_t","interfaces":[],"properties":[{"name":"id","column":"id","type":"LONG","length":255,"required":true,"remote":null},{"name":"class","column":"discriminator","type":"SHORT","length":255,"required":true,"remote":null},{"name":"registryElement","column":"registryelement_id","type":"LONG","length":0,"required":true,"remote":"eppRegistryElement"},{"name":"number","column":"number_p","type":"INTEGER","length":255,"required":true,"remote":null},{"name":"labor","column":"labor_p","type":"LONG","length":255,"required":true,"remote":null},{"name":"size","column":"size_p","type":"LONG","length":255,"required":true,"remote":null},{"name":"weeks","column":"weeks_p","type":"LONG","length":255,"required":true,"remote":null}]},
		{"name":"eppRegistryElementPartFControlAction","abstract":false,"parent":null,"table":"epp_reg_element_part_fca_t","interfaces":[],"properties":[{"name":"id","column":"id","type":"LONG","length":255,"required":true,"remote":null},{"name":"class","column":"discriminator","type":"SHORT","length":255,"required":true,"remote":null},{"name":"part","column":"part_id","type":"LONG","length":0,"required":true,"remote":"eppRegistryElementPart"},{"name":"controlAction","column":"controlaction_id","type":"LONG","length":0,"required":true,"remote":"eppFControlActionType"},{"name":"gradeScale","column":"gradescale_id","type":"LONG","length":0,"required":true,"remote":"eppGradeScale"}]},
		{"name":"eppRegistryElementPartModule","abstract":false,"parent":null,"table":"epp_reg_element_part_mod_t","interfaces":[],"properties":[{"name":"id","column":"id","type":"LONG","length":255,"required":true,"remote":null},{"name":"class","column":"discriminator","type":"SHORT","length":255,"required":true,"remote":null},{"name":"part","column":"part_id","type":"LONG","length":0,"required":true,"remote":"eppRegistryElementPart"},{"name":"module","column":"module_id","type":"LONG","length":0,"required":true,"remote":"eppRegistryModule"},{"name":"number","column":"number_p","type":"INTEGER","length":255,"required":true,"remote":null}]},
		{"name":"eppRegistryModule","abstract":false,"parent":null,"table":"epp_reg_module_t","interfaces":[],"properties":[{"name":"id","column":"id","type":"LONG","length":255,"required":true,"remote":null},{"name":"class","column":"discriminator","type":"SHORT","length":255,"required":true,"remote":null},{"name":"number","column":"number_p","type":"TRIMMEDSTRING","length":255,"required":true,"remote":null},{"name":"title","column":"title_p","type":"TRIMMEDSTRING","length":255,"required":true,"remote":null},{"name":"fullTitle","column":"fulltitle_p","type":"TRIMMEDSTRING","length":255,"required":false,"remote":null},{"name":"shortTitle","column":"shorttitle_p","type":"TRIMMEDSTRING","length":255,"required":false,"remote":null},{"name":"comment","column":"comment_p","type":"TEXT","length":255,"required":false,"remote":null},{"name":"shared","column":"shared_p","type":"BOOLEAN","length":255,"required":true,"remote":null},{"name":"owner","column":"owner_id","type":"LONG","length":0,"required":true,"remote":"orgUnit"},{"name":"parent","column":"parent_id","type":"LONG","length":0,"required":true,"remote":"eppModuleStructure"},{"name":"state","column":"state_id","type":"LONG","length":0,"required":true,"remote":"eppState"}]},
		{"name":"eppRegistryModuleALoad","abstract":false,"parent":null,"table":"epp_reg_module_aload_t","interfaces":[],"properties":[{"name":"id","column":"id","type":"LONG","length":255,"required":true,"remote":null},{"name":"class","column":"discriminator","type":"SHORT","length":255,"required":true,"remote":null},{"name":"module","column":"module_id","type":"LONG","length":0,"required":true,"remote":"eppRegistryModule"},{"name":"loadType","column":"loadtype_id","type":"LONG","length":0,"required":true,"remote":"eppALoadType"},{"name":"load","column":"load_p","type":"LONG","length":255,"required":true,"remote":null}]},
		{"name":"eppRegistryModuleIControlAction","abstract":false,"parent":null,"table":"epp_reg_module_ictr_t","interfaces":[],"properties":[{"name":"id","column":"id","type":"LONG","length":255,"required":true,"remote":null},{"name":"class","column":"discriminator","type":"SHORT","length":255,"required":true,"remote":null},{"name":"module","column":"module_id","type":"LONG","length":0,"required":true,"remote":"eppRegistryModule"},{"name":"controlAction","column":"controlaction_id","type":"LONG","length":0,"required":true,"remote":"eppIControlActionType"},{"name":"amount","column":"amount_p","type":"INTEGER","length":255,"required":true,"remote":null}]},
		{"name":"eppRegistryStructure","abstract":false,"parent":null,"table":"epp_c_reg_struct_t","interfaces":[],"properties":[{"name":"id","column":"id","type":"LONG","length":255,"required":true,"remote":null},{"name":"class","column":"discriminator","type":"SHORT","length":255,"required":true,"remote":null},{"name":"code","column":"code_p","type":"TRIMMEDSTRING","length":255,"required":true,"remote":null},{"name":"parent","column":"parent_id","type":"LONG","length":0,"required":false,"remote":"eppRegistryStructure"},{"name":"shortTitle","column":"shorttitle_p","type":"TRIMMEDSTRING","length":255,"required":true,"remote":null},{"name":"abbreviation","column":"abbreviation_p","type":"TRIMMEDSTRING","length":255,"required":true,"remote":null},{"name":"themeRequired","column":"themerequired_p","type":"BOOLEAN","length":255,"required":true,"remote":null},{"name":"title","column":"title_p","type":"TRIMMEDSTRING","length":1200,"required":false,"remote":null}]},
		{"name":"eppSkill","abstract":false,"parent":null,"table":"epp_c_skill_t","interfaces":[],"properties":[{"name":"id","column":"id","type":"LONG","length":255,"required":true,"remote":null},{"name":"class","column":"discriminator","type":"SHORT","length":255,"required":true,"remote":null},{"name":"code","column":"code_p","type":"TRIMMEDSTRING","length":255,"required":true,"remote":null},{"name":"title","column":"title_p","type":"TRIMMEDSTRING","length":1200,"required":true,"remote":null},{"name":"programSubject","column":"programsubject_id","type":"LONG","length":0,"required":true,"remote":"eduProgramSubject"},{"name":"skillGroup","column":"skillgroup_id","type":"LONG","length":0,"required":true,"remote":"eppSkillGroup"},{"name":"profActivityType","column":"profactivitytype_id","type":"LONG","length":0,"required":false,"remote":"eppProfActivityType"},{"name":"skillCode","column":"skillcode_p","type":"TRIMMEDSTRING","length":255,"required":false,"remote":null},{"name":"programSpecializationVal","column":"programspecializationval_id","type":"LONG","length":0,"required":false,"remote":"eduProgramSpecialization"},{"name":"programSpecialization","column":"programspecialization_p","type":"TRIMMEDSTRING","length":255,"required":false,"remote":null},{"name":"inDepthStudy","column":"indepthstudy_p","type":"BOOLEAN","length":255,"required":false,"remote":null},{"name":"fromIMCA","column":"fromimca_p","type":"BOOLEAN","length":255,"required":true,"remote":null},{"name":"removalDate","column":"removaldate_p","type":"DATE","length":255,"required":false,"remote":null},{"name":"priority","column":"priority_p","type":"INTEGER","length":255,"required":true,"remote":null}]},
		{"name":"eppSkillDevelopLevel","abstract":false,"parent":null,"table":"epp_c_skill_dev_level_t","interfaces":[],"properties":[{"name":"id","column":"id","type":"LONG","length":255,"required":true,"remote":null},{"name":"class","column":"discriminator","type":"SHORT","length":255,"required":true,"remote":null},{"name":"code","column":"code_p","type":"TRIMMEDSTRING","length":255,"required":true,"remote":null},{"name":"title","column":"title_p","type":"TRIMMEDSTRING","length":1200,"required":true,"remote":null},{"name":"shortTitle","column":"shorttitle_p","type":"TRIMMEDSTRING","length":255,"required":true,"remote":null},{"name":"description","column":"description_p","type":"TRIMMEDSTRING","length":255,"required":false,"remote":null},{"name":"priority","column":"priority_p","type":"INTEGER","length":255,"required":true,"remote":null}]},
		{"name":"eppSkillGroup","abstract":false,"parent":null,"table":"epp_c_skill_group_t","interfaces":[],"properties":[{"name":"id","column":"id","type":"LONG","length":255,"required":true,"remote":null},{"name":"class","column":"discriminator","type":"SHORT","length":255,"required":true,"remote":null},{"name":"code","column":"code_p","type":"TRIMMEDSTRING","length":255,"required":true,"remote":null},{"name":"title","column":"title_p","type":"TRIMMEDSTRING","length":1200,"required":false,"remote":null},{"name":"shortTitle","column":"shorttitle_p","type":"TRIMMEDSTRING","length":255,"required":false,"remote":null},{"name":"priority","column":"priority_p","type":"INTEGER","length":255,"required":true,"remote":null}]},
		{"name":"eppSkillType","abstract":false,"parent":null,"table":"epp_c_skill_type_t","interfaces":[],"properties":[{"name":"id","column":"id","type":"LONG","length":255,"required":true,"remote":null},{"name":"class","column":"discriminator","type":"SHORT","length":255,"required":true,"remote":null},{"name":"code","column":"code_p","type":"TRIMMEDSTRING","length":255,"required":true,"remote":null},{"name":"title","column":"title_p","type":"TRIMMEDSTRING","length":1200,"required":false,"remote":null}]},
		{"name":"eppState","abstract":false,"parent":null,"table":"epp_c_state_t","interfaces":[],"properties":[{"name":"id","column":"id","type":"LONG","length":255,"required":true,"remote":null},{"name":"class","column":"discriminator","type":"SHORT","length":255,"required":true,"remote":null},{"name":"code","column":"code_p","type":"TRIMMEDSTRING","length":255,"required":true,"remote":null},{"name":"transitionTitle","column":"transitiontitle_p","type":"TRIMMEDSTRING","length":255,"required":false,"remote":null},{"name":"initialState","column":"initialstate_p","type":"BOOLEAN","length":255,"required":true,"remote":null},{"name":"permissionSuffix","column":"permissionsuffix_p","type":"TRIMMEDSTRING","length":255,"required":true,"remote":null},{"name":"title","column":"title_p","type":"TRIMMEDSTRING","length":1200,"required":false,"remote":null}]},
		{"name":"eppStateEduStandard","abstract":false,"parent":null,"table":"epp_stateedustd_t","interfaces":[],"properties":[{"name":"id","column":"id","type":"LONG","length":255,"required":true,"remote":null},{"name":"class","column":"discriminator","type":"SHORT","length":255,"required":true,"remote":null},{"name":"programSubject","column":"programsubject_id","type":"LONG","length":0,"required":true,"remote":"eduProgramSubject"},{"name":"number","column":"number_p","type":"TRIMMEDSTRING","length":255,"required":true,"remote":null},{"name":"registrationNumber","column":"registrationnumber_p","type":"TRIMMEDSTRING","length":255,"required":true,"remote":null},{"name":"state","column":"state_id","type":"LONG","length":0,"required":true,"remote":"eppState"},{"name":"confirmDate","column":"confirmdate_p","type":"DATE","length":255,"required":false,"remote":null},{"name":"titlePostfix","column":"titlepostfix_p","type":"TRIMMEDSTRING","length":255,"required":false,"remote":null},{"name":"comment","column":"comment_p","type":"TEXT","length":255,"required":false,"remote":null},{"name":"content","column":"content_id","type":"LONG","length":0,"required":false,"remote":"databaseFile"}]},
		{"name":"eppStateEduStandardBlock","abstract":false,"parent":null,"table":"epp_stateedustd_block_t","interfaces":[],"properties":[{"name":"id","column":"id","type":"LONG","length":255,"required":true,"remote":null},{"name":"class","column":"discriminator","type":"SHORT","length":255,"required":true,"remote":null},{"name":"stateEduStandard","column":"stateedustandard_id","type":"LONG","length":0,"required":true,"remote":"eppStateEduStandard"},{"name":"programSpecialization","column":"programspecialization_id","type":"LONG","length":0,"required":false,"remote":"eduProgramSpecialization"}]},
		{"name":"eppStateEduStandardSkill","abstract":false,"parent":null,"table":"epp_stateedustd_skill_t","interfaces":[],"properties":[{"name":"id","column":"id","type":"LONG","length":255,"required":true,"remote":null},{"name":"class","column":"discriminator","type":"SHORT","length":255,"required":true,"remote":null},{"name":"parent","column":"parent_id","type":"LONG","length":0,"required":true,"remote":"eppStateEduStandard"},{"name":"code","column":"code_p","type":"TRIMMEDSTRING","length":255,"required":true,"remote":null},{"name":"skillGroup","column":"skillgroup_id","type":"LONG","length":0,"required":true,"remote":"eppSkillGroup"},{"name":"skillType","column":"skilltype_id","type":"LONG","length":0,"required":true,"remote":"eppSkillType"},{"name":"comment","column":"comment_p","type":"TEXT","length":255,"required":false,"remote":null}]},
		{"name":"eppStdDisciplineComment","abstract":false,"parent":null,"table":"epp_stddscpn_cmmnt_t","interfaces":[],"properties":[{"name":"id","column":"id","type":"LONG","length":255,"required":true,"remote":null},{"name":"class","column":"discriminator","type":"SHORT","length":255,"required":true,"remote":null},{"name":"row","column":"row_id","type":"LONG","length":0,"required":true,"remote":"eppStdDisciplineBaseRow"},{"name":"comment","column":"comment_p","type":"TEXT","length":255,"required":true,"remote":null}]},
		{"name":"eppStdRow","abstract":true,"parent":null,"table":"epp_stdrow_base_t","interfaces":[],"properties":[{"name":"id","column":"id","type":"LONG","length":255,"required":true,"remote":null},{"name":"class","column":"discriminator","type":"SHORT","length":255,"required":true,"remote":null},{"name":"owner","column":"owner_id","type":"LONG","length":0,"required":true,"remote":"eppStateEduStandardBlock"},{"name":"excludedFromLoad","column":"excludedfromload_p","type":"BOOLEAN","length":255,"required":true,"remote":null},{"name":"excludedFromActions","column":"excludedfromactions_p","type":"BOOLEAN","length":255,"required":true,"remote":null},{"name":"totalSizeMin","column":"totalsizemin_p","type":"LONG","length":255,"required":false,"remote":null},{"name":"totalSizeMax","column":"totalsizemax_p","type":"LONG","length":255,"required":false,"remote":null},{"name":"totalLaborMin","column":"totallabormin_p","type":"LONG","length":255,"required":false,"remote":null},{"name":"totalLaborMax","column":"totallabormax_p","type":"LONG","length":255,"required":false,"remote":null},{"name":"uuid","column":"uuid_p","type":"STRING","length":255,"required":false,"remote":null}]},
		{"name":"eppStdActionRow","abstract":false,"parent":"eppStdRow","table":"epp_stdrow_action_t","interfaces":[],"properties":[{"name":"parent","column":"parent_id","type":"LONG","length":0,"required":false,"remote":"eppStdHierarchyRow"},{"name":"number","column":"number_p","type":"STRING","length":255,"required":true,"remote":null},{"name":"title","column":"title_p","type":"STRING","length":255,"required":true,"remote":null},{"name":"totalWeeksMin","column":"totalweeksmin_p","type":"LONG","length":255,"required":false,"remote":null},{"name":"totalWeeksMax","column":"totalweeksmax_p","type":"LONG","length":255,"required":false,"remote":null},{"name":"type","column":"type_id","type":"LONG","length":0,"required":true,"remote":"eppRegistryStructure"}]},
		{"name":"eppStdDisciplineBaseRow","abstract":true,"parent":"eppStdRow","table":"epp_stdrow_discipline_t","interfaces":[],"properties":[{"name":"type","column":"type_id","type":"LONG","length":0,"required":true,"remote":"eppRegistryStructure"}]},
		{"name":"eppStdDisciplineNestedRow","abstract":false,"parent":"eppStdDisciplineBaseRow","table":"epp_stdrow_discipline_n_t","interfaces":[],"properties":[{"name":"parent","column":"parent_id","type":"LONG","length":0,"required":true,"remote":"eppStdDisciplineTopRow"},{"name":"number","column":"number_p","type":"STRING","length":255,"required":true,"remote":null},{"name":"title","column":"title_p","type":"STRING","length":255,"required":true,"remote":null}]},
		{"name":"eppStdDisciplineTopRow","abstract":false,"parent":"eppStdDisciplineBaseRow","table":"epp_stdrow_discipline_t_t","interfaces":[],"properties":[{"name":"parent","column":"parent_id","type":"LONG","length":0,"required":false,"remote":"eppStdHierarchyRow"},{"name":"number","column":"number_p","type":"STRING","length":255,"required":true,"remote":null},{"name":"title","column":"title_p","type":"STRING","length":255,"required":true,"remote":null}]},
		{"name":"eppStdHierarchyRow","abstract":true,"parent":"eppStdRow","table":"epp_stdrow_hierarchy_t","interfaces":[],"properties":[]},
		{"name":"eppStdGroupRow","abstract":true,"parent":"eppStdHierarchyRow","table":"epp_stdrow_group_t","interfaces":[],"properties":[{"name":"parent","column":"parent_id","type":"LONG","length":0,"required":false,"remote":"eppStdHierarchyRow"},{"name":"number","column":"number_p","type":"STRING","length":255,"required":true,"remote":null},{"name":"title","column":"title_p","type":"TRIMMEDSTRING","length":255,"required":true,"remote":null}]},
		{"name":"eppStdGroupImRow","abstract":false,"parent":"eppStdGroupRow","table":"epp_stdrow_group_im_t","interfaces":[],"properties":[{"name":"size","column":"size_p","type":"INTEGER","length":255,"required":true,"remote":null}]},
		{"name":"eppStdGroupReRow","abstract":false,"parent":"eppStdGroupRow","table":"epp_stdrow_group_re_t","interfaces":[],"properties":[]},
		{"name":"eppStdStructureRow","abstract":false,"parent":"eppStdHierarchyRow","table":"epp_stdrow_structure_t","interfaces":[],"properties":[{"name":"parent","column":"parent_id","type":"LONG","length":0,"required":false,"remote":"eppStdStructureRow"},{"name":"value","column":"value_id","type":"LONG","length":0,"required":true,"remote":"eppPlanStructure"}]},
		{"name":"eppStdRow2SkillRelation","abstract":false,"parent":null,"table":"epp_stdrow_skill_t","interfaces":[],"properties":[{"name":"id","column":"id","type":"LONG","length":255,"required":true,"remote":null},{"name":"class","column":"discriminator","type":"SHORT","length":255,"required":true,"remote":null},{"name":"row","column":"row_id","type":"LONG","length":0,"required":true,"remote":"eppStdRow"},{"name":"skill","column":"skill_id","type":"LONG","length":0,"required":true,"remote":"eppStateEduStandardSkill"}]},
		{"name":"eppStudent2EduPlanVersion","abstract":false,"parent":null,"table":"epp_student_eduplanversion_t","interfaces":[],"properties":[{"name":"id","column":"id","type":"LONG","length":255,"required":true,"remote":null},{"name":"class","column":"discriminator","type":"SHORT","length":255,"required":true,"remote":null},{"name":"student","column":"student_id","type":"LONG","length":0,"required":true,"remote":"student"},{"name":"eduPlanVersion","column":"eduplanversion_id","type":"LONG","length":0,"required":true,"remote":"eppEduPlanVersion"},{"name":"block","column":"block_id","type":"LONG","length":0,"required":false,"remote":"eppEduPlanVersionBlock"},{"name":"customEduPlan","column":"customeduplan_id","type":"LONG","length":0,"required":false,"remote":"eppCustomEduPlan"},{"name":"confirmDate","column":"confirmdate_p","type":"DATE","length":255,"required":false,"remote":null},{"name":"removalDate","column":"removaldate_p","type":"DATE","length":255,"required":false,"remote":null}]},
		{"name":"eppStudent2WorkPlan","abstract":false,"parent":null,"table":"epp_student_workplan_t","interfaces":[],"properties":[{"name":"id","column":"id","type":"LONG","length":255,"required":true,"remote":null},{"name":"class","column":"discriminator","type":"SHORT","length":255,"required":true,"remote":null},{"name":"studentEduPlanVersion","column":"studenteduplanversion_id","type":"LONG","length":0,"required":true,"remote":"eppStudent2EduPlanVersion"},{"name":"workPlan","column":"workplan_id","type":"LONG","length":0,"required":true,"remote":"eppWorkPlanBase"},{"name":"confirmDate","column":"confirmdate_p","type":"DATE","length":255,"required":false,"remote":null},{"name":"removalDate","column":"removaldate_p","type":"DATE","length":255,"required":false,"remote":null},{"name":"cachedGridTerm","column":"cachedgridterm_id","type":"LONG","length":0,"required":true,"remote":"developGridTerm"},{"name":"cachedEppYear","column":"cachedeppyear_id","type":"LONG","length":0,"required":true,"remote":"eppYearEducationProcess"}]},
		{"name":"eppStudentWorkPlanElement","abstract":false,"parent":null,"table":"epp_student_wpe_t","interfaces":[],"properties":[{"name":"id","column":"id","type":"LONG","length":255,"required":true,"remote":null},{"name":"class","column":"discriminator","type":"SHORT","length":255,"required":true,"remote":null},{"name":"student","column":"student_id","type":"LONG","length":0,"required":true,"remote":"student"},{"name":"registryElementPart","column":"registryelementpart_id","type":"LONG","length":0,"required":true,"remote":"eppRegistryElementPart"},{"name":"year","column":"year_id","type":"LONG","length":0,"required":true,"remote":"eppYearEducationProcess"},{"name":"course","column":"course_id","type":"LONG","length":0,"required":true,"remote":"course"},{"name":"term","column":"term_id","type":"LONG","length":0,"required":true,"remote":"term"},{"name":"part","column":"part_id","type":"LONG","length":0,"required":true,"remote":"yearDistributionPart"},{"name":"studentEduPlanVersion","column":"studenteduplanversion_id","type":"LONG","length":0,"required":false,"remote":"eppStudent2EduPlanVersion"},{"name":"sourceRow","column":"sourcerow_id","type":"LONG","length":0,"required":false,"remote":"eppWorkPlanRow"},{"name":"modificationDate","column":"modificationdate_p","type":"TIMESTAMP","length":255,"required":true,"remote":null},{"name":"removalDate","column":"removaldate_p","type":"TIMESTAMP","length":255,"required":false,"remote":null}]},
		{"name":"eppStudentWpePart","abstract":true,"parent":null,"table":"epp_student_wpe_part_t","interfaces":[],"properties":[{"name":"id","column":"id","type":"LONG","length":255,"required":true,"remote":null},{"name":"class","column":"discriminator","type":"SHORT","length":255,"required":true,"remote":null},{"name":"studentWpe","column":"studentwpe_id","type":"LONG","length":0,"required":true,"remote":"eppStudentWorkPlanElement"},{"name":"type","column":"type_id","type":"LONG","length":0,"required":true,"remote":"eppGroupType"},{"name":"modificationDate","column":"modificationdate_p","type":"TIMESTAMP","length":255,"required":true,"remote":null},{"name":"removalDate","column":"removaldate_p","type":"TIMESTAMP","length":255,"required":false,"remote":null}]},
		{"name":"eppStudentWpeALoad","abstract":false,"parent":"eppStudentWpePart","table":null,"interfaces":[],"properties":[]},
		{"name":"eppStudentWpeCAction","abstract":false,"parent":"eppStudentWpePart","table":null,"interfaces":[],"properties":[]},
		{"name":"eppTutorOrgUnit","abstract":false,"parent":null,"table":"epp_orgunit_tutor_t","interfaces":[],"properties":[{"name":"id","column":"id","type":"LONG","length":255,"required":true,"remote":null},{"name":"class","column":"discriminator","type":"SHORT","length":255,"required":true,"remote":null},{"name":"orgUnit","column":"orgunit_id","type":"LONG","length":0,"required":true,"remote":"orgUnit"},{"name":"codeImtsa","column":"codeimtsa_p","type":"TRIMMEDSTRING","length":255,"required":false,"remote":null}]},
		{"name":"eppViewTableDisciplines","abstract":false,"parent":null,"table":"epp_c_viewtbldisc_t","interfaces":[],"properties":[{"name":"id","column":"id","type":"LONG","length":255,"required":true,"remote":null},{"name":"class","column":"discriminator","type":"SHORT","length":255,"required":true,"remote":null},{"name":"code","column":"code_p","type":"TRIMMEDSTRING","length":255,"required":true,"remote":null},{"name":"shortTitle","column":"shorttitle_p","type":"TRIMMEDSTRING","length":255,"required":false,"remote":null},{"name":"title","column":"title_p","type":"TRIMMEDSTRING","length":1200,"required":false,"remote":null}]},
		{"name":"eppWeek","abstract":false,"parent":null,"table":"epp_c_week_t","interfaces":[],"properties":[{"name":"id","column":"id","type":"LONG","length":255,"required":true,"remote":null},{"name":"class","column":"discriminator","type":"SHORT","length":255,"required":true,"remote":null},{"name":"code","column":"code_p","type":"TRIMMEDSTRING","length":255,"required":true,"remote":null},{"name":"number","column":"number_p","type":"INTEGER","length":255,"required":true,"remote":null},{"name":"month","column":"month_p","type":"INTEGER","length":255,"required":true,"remote":null},{"name":"title","column":"title_p","type":"TRIMMEDSTRING","length":1200,"required":false,"remote":null}]},
		{"name":"eppWeekPart","abstract":false,"parent":null,"table":"epp_eduplan_weekpart_t","interfaces":[],"properties":[{"name":"id","column":"id","type":"LONG","length":255,"required":true,"remote":null},{"name":"class","column":"discriminator","type":"SHORT","length":255,"required":true,"remote":null},{"name":"week","column":"week_id","type":"LONG","length":0,"required":true,"remote":"eppEduPlanVersionWeekType"},{"name":"number","column":"number_p","type":"INTEGER","length":255,"required":true,"remote":null},{"name":"weekType","column":"weektype_id","type":"LONG","length":0,"required":true,"remote":"eppWeekType"}]},
		{"name":"eppWeekType","abstract":false,"parent":null,"table":"epp_c_weektype_t","interfaces":[],"properties":[{"name":"id","column":"id","type":"LONG","length":255,"required":true,"remote":null},{"name":"class","column":"discriminator","type":"SHORT","length":255,"required":true,"remote":null},{"name":"code","column":"code_p","type":"TRIMMEDSTRING","length":255,"required":true,"remote":null},{"name":"shortTitle","column":"shorttitle_p","type":"TRIMMEDSTRING","length":255,"required":false,"remote":null},{"name":"abbreviationView","column":"abbreviationview_p","type":"TRIMMEDSTRING","length":255,"required":false,"remote":null},{"name":"abbreviationEdit","column":"abbreviationedit_p","type":"TRIMMEDSTRING","length":255,"required":false,"remote":null},{"name":"abbreviationIMCA","column":"abbreviationimca_p","type":"TRIMMEDSTRING","length":255,"required":false,"remote":null},{"name":"color","column":"color_p","type":"LONG","length":255,"required":false,"remote":null},{"name":"priority","column":"priority_p","type":"INTEGER","length":255,"required":true,"remote":null},{"name":"title","column":"title_p","type":"TRIMMEDSTRING","length":1200,"required":false,"remote":null}]},
		{"name":"eppWorkGraph","abstract":false,"parent":null,"table":"epp_workgraph_t","interfaces":[],"properties":[{"name":"id","column":"id","type":"LONG","length":255,"required":true,"remote":null},{"name":"class","column":"discriminator","type":"SHORT","length":255,"required":true,"remote":null},{"name":"year","column":"year_id","type":"LONG","length":0,"required":true,"remote":"eppYearEducationProcess"},{"name":"developForm","column":"developform_id","type":"LONG","length":0,"required":true,"remote":"developForm"},{"name":"developTech","column":"developtech_id","type":"LONG","length":0,"required":true,"remote":"developTech"},{"name":"developCondition","column":"developcondition_id","type":"LONG","length":0,"required":true,"remote":"developCondition"},{"name":"developGrid","column":"developgrid_id","type":"LONG","length":0,"required":true,"remote":"developGrid"},{"name":"state","column":"state_id","type":"LONG","length":0,"required":true,"remote":"eppState"},{"name":"confirmDate","column":"confirmdate_p","type":"DATE","length":255,"required":false,"remote":null}]},
		{"name":"eppWorkGraphRow","abstract":false,"parent":null,"table":"epp_workgraph_row_t","interfaces":[],"properties":[{"name":"id","column":"id","type":"LONG","length":255,"required":true,"remote":null},{"name":"class","column":"discriminator","type":"SHORT","length":255,"required":true,"remote":null},{"name":"graph","column":"graph_id","type":"LONG","length":0,"required":true,"remote":"eppWorkGraph"},{"name":"course","column":"course_id","type":"LONG","length":0,"required":true,"remote":"course"}]},
		{"name":"eppWorkGraphRow2EduPlan","abstract":false,"parent":null,"table":"epp_workgraph_rowplan_t","interfaces":[],"properties":[{"name":"id","column":"id","type":"LONG","length":255,"required":true,"remote":null},{"name":"class","column":"discriminator","type":"SHORT","length":255,"required":true,"remote":null},{"name":"row","column":"row_id","type":"LONG","length":0,"required":true,"remote":"eppWorkGraphRow"},{"name":"eduPlanVersion","column":"eduplanversion_id","type":"LONG","length":0,"required":true,"remote":"eppEduPlanVersion"}]},
		{"name":"eppWorkGraphRowWeek","abstract":false,"parent":null,"table":"epp_workgraph_rowweek_t","interfaces":[],"properties":[{"name":"id","column":"id","type":"LONG","length":255,"required":true,"remote":null},{"name":"class","column":"discriminator","type":"SHORT","length":255,"required":true,"remote":null},{"name":"row","column":"row_id","type":"LONG","length":0,"required":true,"remote":"eppWorkGraphRow"},{"name":"week","column":"week_p","type":"INTEGER","length":255,"required":true,"remote":null},{"name":"type","column":"type_id","type":"LONG","length":0,"required":true,"remote":"eppWeekType"},{"name":"term","column":"term_id","type":"LONG","length":0,"required":true,"remote":"term"}]},
		{"name":"eppWorkGraphWeekPart","abstract":false,"parent":null,"table":"epp_workgraph_weekpart_t","interfaces":[],"properties":[{"name":"id","column":"id","type":"LONG","length":255,"required":true,"remote":null},{"name":"class","column":"discriminator","type":"SHORT","length":255,"required":true,"remote":null},{"name":"week","column":"week_id","type":"LONG","length":0,"required":true,"remote":"eppWorkGraphRowWeek"},{"name":"number","column":"number_p","type":"INTEGER","length":255,"required":true,"remote":null},{"name":"weekType","column":"weektype_id","type":"LONG","length":0,"required":true,"remote":"eppWeekType"}]},
		{"name":"eppWorkPlanBase","abstract":true,"parent":null,"table":"epp_workplan_base_t","interfaces":[],"properties":[{"name":"id","column":"id","type":"LONG","length":255,"required":true,"remote":null},{"name":"class","column":"discriminator","type":"SHORT","length":255,"required":true,"remote":null},{"name":"registrationNumber","column":"registrationnumber_p","type":"TRIMMEDSTRING","length":255,"required":true,"remote":null},{"name":"state","column":"state_id","type":"LONG","length":0,"required":true,"remote":"eppState"},{"name":"confirmDate","column":"confirmdate_p","type":"DATE","length":255,"required":false,"remote":null},{"name":"titlePostfix","column":"titlepostfix_p","type":"TRIMMEDSTRING","length":255,"required":false,"remote":null},{"name":"comment","column":"comment_p","type":"TEXT","length":255,"required":false,"remote":null}]},
		{"name":"eppWorkPlan","abstract":false,"parent":"eppWorkPlanBase","table":"epp_workplan_t","interfaces":[],"properties":[{"name":"parent","column":"parent_id","type":"LONG","length":0,"required":true,"remote":"eppEduPlanVersionBlock"},{"name":"year","column":"year_id","type":"LONG","length":0,"required":true,"remote":"eppYearEducationProcess"},{"name":"term","column":"term_id","type":"LONG","length":0,"required":true,"remote":"term"},{"name":"number","column":"number_p","type":"TRIMMEDSTRING","length":255,"required":true,"remote":null},{"name":"customEduPlan","column":"customeduplan_id","type":"LONG","length":0,"required":false,"remote":"eppCustomEduPlan"},{"name":"cachedGridTerm","column":"cachedgridterm_id","type":"LONG","length":0,"required":true,"remote":"developGridTerm"}]},
		{"name":"eppWorkPlanVersion","abstract":false,"parent":"eppWorkPlanBase","table":"epp_workplan_version_t","interfaces":[],"properties":[{"name":"parent","column":"parent_id","type":"LONG","length":0,"required":true,"remote":"eppWorkPlan"},{"name":"number","column":"number_p","type":"TRIMMEDSTRING","length":255,"required":true,"remote":null}]},
		{"name":"eppWorkPlanPart","abstract":false,"parent":null,"table":"epp_wppart_t","interfaces":[],"properties":[{"name":"id","column":"id","type":"LONG","length":255,"required":true,"remote":null},{"name":"class","column":"discriminator","type":"SHORT","length":255,"required":true,"remote":null},{"name":"workPlan","column":"workplan_id","type":"LONG","length":0,"required":true,"remote":"eppWorkPlan"},{"name":"number","column":"number_p","type":"INTEGER","length":255,"required":true,"remote":null},{"name":"totalWeeks","column":"totalweeks_p","type":"INTEGER","length":255,"required":true,"remote":null},{"name":"auditWeeks","column":"auditweeks_p","type":"INTEGER","length":255,"required":true,"remote":null},{"name":"selfworkWeeks","column":"selfworkweeks_p","type":"INTEGER","length":255,"required":true,"remote":null}]},
		{"name":"eppWorkPlanRow","abstract":true,"parent":null,"table":"epp_wprow_t","interfaces":[],"properties":[{"name":"id","column":"id","type":"LONG","length":255,"required":true,"remote":null},{"name":"class","column":"discriminator","type":"SHORT","length":255,"required":true,"remote":null},{"name":"workPlan","column":"workplan_id","type":"LONG","length":0,"required":true,"remote":"eppWorkPlanBase"},{"name":"kind","column":"kind_id","type":"LONG","length":0,"required":true,"remote":"eppWorkPlanRowKind"},{"name":"number","column":"number_p","type":"TRIMMEDSTRING","length":255,"required":false,"remote":null},{"name":"title","column":"title_p","type":"TRIMMEDSTRING","length":255,"required":true,"remote":null},{"name":"titleAppendix","column":"titleappendix_p","type":"TRIMMEDSTRING","length":255,"required":false,"remote":null},{"name":"comment","column":"comment_p","type":"TRIMMEDSTRING","length":255,"required":false,"remote":null},{"name":"beginDate","column":"begindate_p","type":"DATE","length":255,"required":false,"remote":null},{"name":"endDate","column":"enddate_p","type":"DATE","length":255,"required":false,"remote":null},{"name":"needRetake","column":"needretake_p","type":"BOOLEAN","length":255,"required":false,"remote":null}]},
		{"name":"eppWorkPlanRegistryElementRow","abstract":false,"parent":"eppWorkPlanRow","table":"epp_wprow_regel_t","interfaces":[],"properties":[{"name":"registryElementPart","column":"registryelementpart_id","type":"LONG","length":0,"required":true,"remote":"eppRegistryElementPart"}]},
		{"name":"eppWorkPlanTemplateRow","abstract":false,"parent":"eppWorkPlanRow","table":"epp_wprow_tmpl_t","interfaces":[],"properties":[{"name":"type","column":"type_id","type":"LONG","length":0,"required":true,"remote":"eppRegistryStructure"},{"name":"part","column":"part_p","type":"INTEGER","length":255,"required":true,"remote":null},{"name":"eduplanTermCount","column":"eduplantermcount_p","type":"INTEGER","length":255,"required":false,"remote":null},{"name":"eduplanTotalSize","column":"eduplantotalsize_p","type":"LONG","length":255,"required":false,"remote":null},{"name":"eduplanTotalLabor","column":"eduplantotallabor_p","type":"LONG","length":255,"required":false,"remote":null},{"name":"eduplanTotalWeeks","column":"eduplantotalweeks_p","type":"LONG","length":255,"required":false,"remote":null}]},
		{"name":"eppWorkPlanRowKind","abstract":false,"parent":null,"table":"epp_c_wp_row_kind_t","interfaces":[],"properties":[{"name":"id","column":"id","type":"LONG","length":255,"required":true,"remote":null},{"name":"class","column":"discriminator","type":"SHORT","length":255,"required":true,"remote":null},{"name":"code","column":"code_p","type":"TRIMMEDSTRING","length":255,"required":true,"remote":null},{"name":"shortTitle","column":"shorttitle_p","type":"TRIMMEDSTRING","length":255,"required":true,"remote":null},{"name":"title","column":"title_p","type":"TRIMMEDSTRING","length":1200,"required":false,"remote":null}]},
		{"name":"eppWorkPlanRowPartLoad","abstract":false,"parent":null,"table":"epp_wprow_part_load_t","interfaces":[],"properties":[{"name":"id","column":"id","type":"LONG","length":255,"required":true,"remote":null},{"name":"class","column":"discriminator","type":"SHORT","length":255,"required":true,"remote":null},{"name":"row","column":"row_id","type":"LONG","length":0,"required":true,"remote":"eppWorkPlanRow"},{"name":"loadType","column":"loadtype_id","type":"LONG","length":0,"required":true,"remote":"eppLoadType"},{"name":"part","column":"part_p","type":"INTEGER","length":255,"required":true,"remote":null},{"name":"load","column":"load_p","type":"LONG","length":255,"required":true,"remote":null},{"name":"days","column":"days_p","type":"LONG","length":255,"required":false,"remote":null},{"name":"studyPeriodStartDate","column":"studyperiodstartdate_p","type":"DATE","length":255,"required":false,"remote":null},{"name":"studyPeriodFinishDate","column":"studyperiodfinishdate_p","type":"DATE","length":255,"required":false,"remote":null}]},
		{"name":"eppYearEducationProcess","abstract":false,"parent":null,"table":"epp_year_epp_t","interfaces":[],"properties":[{"name":"id","column":"id","type":"LONG","length":255,"required":true,"remote":null},{"name":"class","column":"discriminator","type":"SHORT","length":255,"required":true,"remote":null},{"name":"educationYear","column":"educationyear_id","type":"LONG","length":0,"required":true,"remote":"educationYear"},{"name":"title","column":"title_p","type":"TRIMMEDSTRING","length":255,"required":true,"remote":null},{"name":"startEducationDate","column":"starteducationdate_p","type":"DATE","length":255,"required":true,"remote":null}]},
		{"name":"eppYearEducationWeek","abstract":false,"parent":null,"table":"epp_year_week_t","interfaces":[],"properties":[{"name":"id","column":"id","type":"LONG","length":255,"required":true,"remote":null},{"name":"class","column":"discriminator","type":"SHORT","length":255,"required":true,"remote":null},{"name":"year","column":"year_id","type":"LONG","length":0,"required":true,"remote":"eppYearEducationProcess"},{"name":"number","column":"number_p","type":"INTEGER","length":255,"required":true,"remote":null},{"name":"date","column":"date_p","type":"DATE","length":255,"required":true,"remote":null},{"name":"title","column":"title_p","type":"TRIMMEDSTRING","length":255,"required":true,"remote":null}]},
		{"name":"eppYearPart","abstract":false,"parent":null,"table":"epp_year_part_t","interfaces":[],"properties":[{"name":"id","column":"id","type":"LONG","length":255,"required":true,"remote":null},{"name":"class","column":"discriminator","type":"SHORT","length":255,"required":true,"remote":null},{"name":"year","column":"year_id","type":"LONG","length":0,"required":true,"remote":"eppYearEducationProcess"},{"name":"part","column":"part_id","type":"LONG","length":0,"required":true,"remote":"yearDistributionPart"}]},
		{"name":"eppCtrContractVersionTemplateData","abstract":true,"parent":"ctrContractVersionTemplateData","table":"epp_ctr_ctmpldt_t","interfaces":["ru.tandemservice.unieductr.base.entity.IEducationContractVersionTemplateData"],"properties":[{"name":"educationYear","column":"educationyear_id","type":"LONG","length":0,"required":false,"remote":"educationYear"}]},
		{"name":"eppCtrEducationPromice","abstract":false,"parent":"ctrContractPromice","table":"epp_ctr_pr_edu_t","interfaces":[],"properties":[{"name":"studentCategory","column":"studentcategory_id","type":"LONG","length":0,"required":true,"remote":"studentCategory"},{"name":"eduPlanVersion","column":"eduplanversion_id","type":"LONG","length":0,"required":true,"remote":"eppEduPlanVersion"},{"name":"educationOrgUnit","column":"educationorgunit_id","type":"LONG","length":0,"required":true,"remote":"educationOrgUnit"}]},
		{"name":"eppCtrEducationResult","abstract":false,"parent":"ctrContractResult","table":"epp_ctr_re_student_t","interfaces":["ru.tandemservice.unieductr.base.entity.IEduContractRelation","ru.tandemservice.unieductr.student.entity.IEduStudentContract"],"properties":[{"name":"target","column":"target_id","type":"LONG","length":0,"required":true,"remote":"eppStudent2EduPlanVersion"},{"name":"student","column":null,"type":"LONG","length":0,"required":true,"remote":"student"},{"name":"contractObject","column":null,"type":"LONG","length":0,"required":true,"remote":"ctrContractObject"}]},
		{"name":"eppScriptItem","abstract":false,"parent":"scriptItem","table":"epp_script_t","interfaces":[],"properties":[{"name":"printPdf","column":"printpdf_p","type":"BOOLEAN","length":255,"required":true,"remote":null},{"name":"printableToPdf","column":"printabletopdf_p","type":"BOOLEAN","length":255,"required":true,"remote":null}]}],
 "dependencies":["unictr","unieductr"]}