{"name":"uniepprmc",
 "interfaces":[],
 "entities":[
		{"name":"paymentsImportedFile","abstract":false,"parent":null,"table":"paymentsimportedfile_t","interfaces":[],"properties":[{"name":"id","column":"id","type":"LONG","length":255,"required":true,"remote":null},{"name":"class","column":"discriminator","type":"SHORT","length":255,"required":true,"remote":null},{"name":"user","column":"user_p","type":"TRIMMEDSTRING","length":255,"required":false,"remote":null},{"name":"importDate","column":"importdate_p","type":"TIMESTAMP","length":255,"required":true,"remote":null},{"name":"importType","column":"importtype_p","type":"TRIMMEDSTRING","length":255,"required":true,"remote":null},{"name":"fileName","column":"filename_p","type":"TRIMMEDSTRING","length":255,"required":true,"remote":null},{"name":"importedFile","column":"importedfile_id","type":"LONG","length":0,"required":true,"remote":"databaseFile"},{"name":"resultFile","column":"resultfile_id","type":"LONG","length":0,"required":true,"remote":"databaseFile"}]}],
 "dependencies":["uniepp"]}