{"name":"uniplaces",
 "interfaces":[],
 "entities":[
		{"name":"uniplacesAssignedDocument","abstract":false,"parent":null,"table":"places_assigned_document","interfaces":[],"properties":[{"name":"id","column":"id","type":"LONG","length":255,"required":true,"remote":null},{"name":"class","column":"discriminator","type":"SHORT","length":255,"required":true,"remote":null},{"name":"registryRecord","column":"registryrecord_id","type":"LONG","length":0,"required":true,"remote":"uniplacesRegistryRecord"},{"name":"document","column":"document_id","type":"LONG","length":0,"required":true,"remote":"uniplacesDocument"},{"name":"purpose","column":"purpose_id","type":"LONG","length":0,"required":true,"remote":"uniplacesDocumentPurpose"}]},
		{"name":"uniplacesBuildingPurpose","abstract":false,"parent":null,"table":"places_building_purpose","interfaces":[],"properties":[{"name":"id","column":"id","type":"LONG","length":255,"required":true,"remote":null},{"name":"class","column":"discriminator","type":"SHORT","length":255,"required":true,"remote":null},{"name":"code","column":"code_p","type":"TRIMMEDSTRING","length":255,"required":true,"remote":null},{"name":"shortTitle","column":"shorttitle_p","type":"TRIMMEDSTRING","length":255,"required":true,"remote":null},{"name":"title","column":"title_p","type":"TRIMMEDSTRING","length":1200,"required":false,"remote":null}]},
		{"name":"uniplacesClassroomType","abstract":false,"parent":null,"table":"places_classroom_type","interfaces":[],"properties":[{"name":"id","column":"id","type":"LONG","length":255,"required":true,"remote":null},{"name":"class","column":"discriminator","type":"SHORT","length":255,"required":true,"remote":null},{"name":"code","column":"code_p","type":"TRIMMEDSTRING","length":255,"required":true,"remote":null},{"name":"shortTitle","column":"shorttitle_p","type":"TRIMMEDSTRING","length":255,"required":true,"remote":null},{"name":"title","column":"title_p","type":"TRIMMEDSTRING","length":1200,"required":false,"remote":null}]},
		{"name":"uniplacesDisposalRight","abstract":false,"parent":null,"table":"places_disposal_right","interfaces":[],"properties":[{"name":"id","column":"id","type":"LONG","length":255,"required":true,"remote":null},{"name":"class","column":"discriminator","type":"SHORT","length":255,"required":true,"remote":null},{"name":"code","column":"code_p","type":"TRIMMEDSTRING","length":255,"required":true,"remote":null},{"name":"shortTitle","column":"shorttitle_p","type":"TRIMMEDSTRING","length":255,"required":true,"remote":null},{"name":"title","column":"title_p","type":"TRIMMEDSTRING","length":1200,"required":false,"remote":null}]},
		{"name":"uniplacesDocument","abstract":true,"parent":null,"table":"places_document","interfaces":[],"properties":[{"name":"id","column":"id","type":"LONG","length":255,"required":true,"remote":null},{"name":"class","column":"discriminator","type":"SHORT","length":255,"required":true,"remote":null},{"name":"kind","column":"kind_id","type":"LONG","length":0,"required":true,"remote":"uniplacesDocumentKind"},{"name":"number","column":"number_p","type":"TRIMMEDSTRING","length":255,"required":false,"remote":null},{"name":"issuanceDate","column":"issuancedate_p","type":"DATE","length":255,"required":false,"remote":null},{"name":"expiryDate","column":"expirydate_p","type":"DATE","length":255,"required":false,"remote":null}]},
		{"name":"uniplacesDocumentAct","abstract":false,"parent":"uniplacesDocument","table":"places_document_act","interfaces":[],"properties":[]},
		{"name":"uniplacesDocumentPlan","abstract":false,"parent":"uniplacesDocument","table":"places_document_plan","interfaces":[],"properties":[]},
		{"name":"uniplacesDocumentRight","abstract":false,"parent":"uniplacesDocument","table":"places_document_right","interfaces":[],"properties":[]},
		{"name":"uniplacesDocumentKind","abstract":false,"parent":null,"table":"places_document_kind","interfaces":[],"properties":[{"name":"id","column":"id","type":"LONG","length":255,"required":true,"remote":null},{"name":"class","column":"discriminator","type":"SHORT","length":255,"required":true,"remote":null},{"name":"code","column":"code_p","type":"TRIMMEDSTRING","length":255,"required":true,"remote":null},{"name":"parent","column":"parent_id","type":"LONG","length":0,"required":false,"remote":"uniplacesDocumentKind"},{"name":"shortTitle","column":"shorttitle_p","type":"TRIMMEDSTRING","length":255,"required":true,"remote":null},{"name":"documentClassName","column":"documentclassname_p","type":"TRIMMEDSTRING","length":255,"required":false,"remote":null},{"name":"title","column":"title_p","type":"TRIMMEDSTRING","length":1200,"required":false,"remote":null}]},
		{"name":"uniplacesDocumentPurpose","abstract":false,"parent":null,"table":"places_document_purpose","interfaces":[],"properties":[{"name":"id","column":"id","type":"LONG","length":255,"required":true,"remote":null},{"name":"class","column":"discriminator","type":"SHORT","length":255,"required":true,"remote":null},{"name":"code","column":"code_p","type":"TRIMMEDSTRING","length":255,"required":true,"remote":null},{"name":"documentKind","column":"documentkind_id","type":"LONG","length":0,"required":true,"remote":"uniplacesDocumentKind"},{"name":"title","column":"title_p","type":"TRIMMEDSTRING","length":1200,"required":false,"remote":null}]},
		{"name":"uniplacesHabitablePlace","abstract":false,"parent":null,"table":"place_habitable_place","interfaces":[],"properties":[{"name":"id","column":"id","type":"LONG","length":255,"required":true,"remote":null},{"name":"class","column":"discriminator","type":"SHORT","length":255,"required":true,"remote":null},{"name":"place","column":"place_id","type":"LONG","length":0,"required":true,"remote":"uniplacesPlace"},{"name":"bedNumber","column":"bednumber_p","type":"INTEGER","length":255,"required":true,"remote":null}]},
		{"name":"uniplacesObjectToDocumentRelation","abstract":false,"parent":null,"table":"nplcsobjcttdcmntrltn_t","interfaces":[],"properties":[{"name":"id","column":"id","type":"LONG","length":255,"required":true,"remote":null},{"name":"class","column":"discriminator","type":"SHORT","length":255,"required":true,"remote":null},{"name":"object","column":"object_id","type":"LONG","length":0,"required":true,"remote":"uniplacesRegistryRecord"},{"name":"document","column":"document_p","type":"LONG","length":255,"required":false,"remote":null},{"name":"title","column":"title_p","type":"TRIMMEDSTRING","length":255,"required":true,"remote":null},{"name":"startDate","column":"startdate_p","type":"DATE","length":255,"required":false,"remote":null},{"name":"endDate","column":"enddate_p","type":"DATE","length":255,"required":false,"remote":null},{"name":"comment","column":"comment_p","type":"TRIMMEDSTRING","length":255,"required":false,"remote":null},{"name":"active","column":"active_p","type":"BOOLEAN","length":255,"required":true,"remote":null}]},
		{"name":"uniplacesPlaceCondition","abstract":false,"parent":null,"table":"places_place_condition","interfaces":[],"properties":[{"name":"id","column":"id","type":"LONG","length":255,"required":true,"remote":null},{"name":"class","column":"discriminator","type":"SHORT","length":255,"required":true,"remote":null},{"name":"code","column":"code_p","type":"TRIMMEDSTRING","length":255,"required":true,"remote":null},{"name":"shortTitle","column":"shorttitle_p","type":"TRIMMEDSTRING","length":255,"required":true,"remote":null},{"name":"title","column":"title_p","type":"TRIMMEDSTRING","length":1200,"required":false,"remote":null}]},
		{"name":"uniplacesPlaceNumberingType","abstract":false,"parent":null,"table":"places_place_numbering_type","interfaces":[],"properties":[{"name":"id","column":"id","type":"LONG","length":255,"required":true,"remote":null},{"name":"class","column":"discriminator","type":"SHORT","length":255,"required":true,"remote":null},{"name":"code","column":"code_p","type":"TRIMMEDSTRING","length":255,"required":true,"remote":null},{"name":"shortTitle","column":"shorttitle_p","type":"TRIMMEDSTRING","length":255,"required":true,"remote":null},{"name":"title","column":"title_p","type":"TRIMMEDSTRING","length":1200,"required":false,"remote":null}]},
		{"name":"uniplacesPlacePurpose","abstract":false,"parent":null,"table":"places_place_purpose","interfaces":[],"properties":[{"name":"id","column":"id","type":"LONG","length":255,"required":true,"remote":null},{"name":"class","column":"discriminator","type":"SHORT","length":255,"required":true,"remote":null},{"name":"code","column":"code_p","type":"TRIMMEDSTRING","length":255,"required":true,"remote":null},{"name":"parent","column":"parent_id","type":"LONG","length":0,"required":false,"remote":"uniplacesPlacePurpose"},{"name":"shortTitle","column":"shorttitle_p","type":"TRIMMEDSTRING","length":255,"required":true,"remote":null},{"name":"childsAllowed","column":"childsallowed_p","type":"BOOLEAN","length":255,"required":true,"remote":null},{"name":"countBedNumber","column":"countbednumber_p","type":"BOOLEAN","length":255,"required":true,"remote":null},{"name":"sex","column":"sex_id","type":"LONG","length":0,"required":false,"remote":"sex"},{"name":"title","column":"title_p","type":"TRIMMEDSTRING","length":1200,"required":false,"remote":null}]},
		{"name":"uniplacesRegistryRecord","abstract":true,"parent":null,"table":"places_registry_record","interfaces":[],"properties":[{"name":"id","column":"id","type":"LONG","length":255,"required":true,"remote":null},{"name":"class","column":"discriminator","type":"SHORT","length":255,"required":true,"remote":null},{"name":"responsibleOrgUnit","column":"responsibleorgunit_id","type":"LONG","length":0,"required":false,"remote":"orgUnit"},{"name":"comment","column":"comment_p","type":"TRIMMEDSTRING","length":500,"required":false,"remote":null},{"name":"cadastreRecordNumber","column":"cadastrerecordnumber_p","type":"TRIMMEDSTRING","length":255,"required":false,"remote":null}]},
		{"name":"uniplacesBuilding","abstract":false,"parent":"uniplacesRegistryRecord","table":"places_building","interfaces":[],"properties":[{"name":"disposalRight","column":"disposalright_id","type":"LONG","length":0,"required":true,"remote":"uniplacesDisposalRight"},{"name":"ground","column":"ground_id","type":"LONG","length":0,"required":false,"remote":"uniplacesGround"},{"name":"purpose","column":"purpose_id","type":"LONG","length":0,"required":true,"remote":"uniplacesBuildingPurpose"},{"name":"address","column":"address_id","type":"LONG","length":0,"required":true,"remote":"addressDetailed"},{"name":"identifier","column":"identifier_p","type":"TRIMMEDSTRING","length":255,"required":false,"remote":null},{"name":"unit","column":"unit_p","type":"TRIMMEDSTRING","length":255,"required":false,"remote":null},{"name":"fullNumber","column":"fullnumber_p","type":"TRIMMEDSTRING","length":255,"required":true,"remote":null},{"name":"number","column":"number_p","type":"INTEGER","length":255,"required":true,"remote":null},{"name":"title","column":"title_p","type":"TRIMMEDSTRING","length":255,"required":true,"remote":null},{"name":"shortTitle","column":"shorttitle_p","type":"TRIMMEDSTRING","length":255,"required":true,"remote":null},{"name":"area","column":"area_p","type":"LONG","length":255,"required":false,"remote":null},{"name":"rightStartDate","column":"rightstartdate_p","type":"DATE","length":255,"required":false,"remote":null}]},
		{"name":"uniplacesFloor","abstract":false,"parent":"uniplacesRegistryRecord","table":"places_floor","interfaces":[],"properties":[{"name":"unit","column":"unit_id","type":"LONG","length":0,"required":true,"remote":"uniplacesUnit"},{"name":"title","column":"title_p","type":"TRIMMEDSTRING","length":255,"required":true,"remote":null},{"name":"number","column":"number_p","type":"INTEGER","length":255,"required":true,"remote":null}]},
		{"name":"uniplacesGround","abstract":false,"parent":"uniplacesRegistryRecord","table":"places_ground","interfaces":[],"properties":[{"name":"disposalRight","column":"disposalright_id","type":"LONG","length":0,"required":true,"remote":"uniplacesDisposalRight"},{"name":"number","column":"number_p","type":"INTEGER","length":255,"required":true,"remote":null},{"name":"location","column":"location_p","type":"TRIMMEDSTRING","length":255,"required":true,"remote":null},{"name":"area","column":"area_p","type":"LONG","length":255,"required":false,"remote":null},{"name":"balanceValue","column":"balancevalue_p","type":"LONG","length":255,"required":false,"remote":null},{"name":"rightStartDate","column":"rightstartdate_p","type":"DATE","length":255,"required":false,"remote":null},{"name":"rightEndDate","column":"rightenddate_p","type":"DATE","length":255,"required":false,"remote":null}]},
		{"name":"uniplacesPlace","abstract":false,"parent":"uniplacesRegistryRecord","table":"places_place","interfaces":[],"properties":[{"name":"floor","column":"floor_id","type":"LONG","length":0,"required":true,"remote":"uniplacesFloor"},{"name":"purpose","column":"purpose_id","type":"LONG","length":0,"required":false,"remote":"uniplacesPlacePurpose"},{"name":"condition","column":"condition_id","type":"LONG","length":0,"required":false,"remote":"uniplacesPlaceCondition"},{"name":"classroomType","column":"classroomtype_id","type":"LONG","length":0,"required":false,"remote":"uniplacesClassroomType"},{"name":"number","column":"number_p","type":"TRIMMEDSTRING","length":255,"required":true,"remote":null},{"name":"title","column":"title_p","type":"TRIMMEDSTRING","length":255,"required":false,"remote":null},{"name":"windowNumber","column":"windownumber_p","type":"INTEGER","length":255,"required":false,"remote":null},{"name":"area","column":"area_p","type":"LONG","length":255,"required":false,"remote":null},{"name":"capacity","column":"capacity_p","type":"INTEGER","length":255,"required":false,"remote":null},{"name":"height","column":"height_p","type":"LONG","length":255,"required":true,"remote":null},{"name":"length","column":"length_p","type":"LONG","length":255,"required":true,"remote":null},{"name":"width","column":"width_p","type":"LONG","length":255,"required":true,"remote":null}]},
		{"name":"uniplacesUnit","abstract":false,"parent":"uniplacesRegistryRecord","table":"places_unit","interfaces":[],"properties":[{"name":"building","column":"building_id","type":"LONG","length":0,"required":true,"remote":"uniplacesBuilding"},{"name":"purpose","column":"purpose_id","type":"LONG","length":0,"required":true,"remote":"uniplacesBuildingPurpose"},{"name":"placeNumberingType","column":"placenumberingtype_id","type":"LONG","length":0,"required":true,"remote":"uniplacesPlaceNumberingType"},{"name":"title","column":"title_p","type":"TRIMMEDSTRING","length":255,"required":true,"remote":null},{"name":"identifier","column":"identifier_p","type":"TRIMMEDSTRING","length":255,"required":false,"remote":null},{"name":"floorNumber","column":"floornumber_p","type":"INTEGER","length":255,"required":false,"remote":null},{"name":"area","column":"area_p","type":"LONG","length":255,"required":false,"remote":null}]}],
 "dependencies":["uni"]}