{"name":"uniedu",
 "interfaces":[
		{"name":"ru.tandemservice.uniedu.entity.IPersistentAccreditationOwner","view":"prsstntaccrdttnownr_v"}],
 "entities":[
		{"name":"eduAccreditation","abstract":false,"parent":null,"table":"edu_accreditation_t","interfaces":[],"properties":[{"name":"id","column":"id","type":"LONG","length":255,"required":true,"remote":null},{"name":"class","column":"discriminator","type":"SHORT","length":255,"required":true,"remote":null},{"name":"owner","column":"owner_id","type":"LONG","length":0,"required":true,"remote":"ru.tandemservice.uniedu.entity.IPersistentAccreditationOwner"},{"name":"institutionOrgUnit","column":"institutionorgunit_id","type":"LONG","length":0,"required":true,"remote":"eduInstitutionOrgUnit"},{"name":"programSubjectIndex","column":"programsubjectindex_id","type":"LONG","length":0,"required":true,"remote":"eduProgramSubjectIndex"},{"name":"stateAccreditation","column":"stateaccreditation_p","type":"ENUM","length":255,"required":true,"remote":null}]},
		{"name":"eduInstitutionOrgUnit","abstract":false,"parent":null,"table":"edu_ourole__inst_t","interfaces":[],"properties":[{"name":"id","column":"id","type":"LONG","length":255,"required":true,"remote":null},{"name":"class","column":"discriminator","type":"SHORT","length":255,"required":true,"remote":null},{"name":"orgUnit","column":"orgunit_id","type":"LONG","length":0,"required":true,"remote":"orgUnit"},{"name":"code","column":"code_p","type":"TRIMMEDSTRING","length":255,"required":false,"remote":null}]},
		{"name":"eduOwnerOrgUnit","abstract":false,"parent":null,"table":"edu_ourole__owner_t","interfaces":[],"properties":[{"name":"id","column":"id","type":"LONG","length":255,"required":true,"remote":null},{"name":"class","column":"discriminator","type":"SHORT","length":255,"required":true,"remote":null},{"name":"orgUnit","column":"orgunit_id","type":"LONG","length":0,"required":true,"remote":"orgUnit"}]},
		{"name":"eduProgram","abstract":true,"parent":null,"table":"edu_program_t","interfaces":[],"properties":[{"name":"id","column":"id","type":"LONG","length":255,"required":true,"remote":null},{"name":"class","column":"discriminator","type":"SHORT","length":255,"required":true,"remote":null},{"name":"programUniqueKey","column":"programuniquekey_p","type":"TRIMMEDSTRING","length":255,"required":true,"remote":null},{"name":"title","column":"title_p","type":"TRIMMEDSTRING","length":255,"required":true,"remote":null},{"name":"shortTitle","column":"shorttitle_p","type":"TRIMMEDSTRING","length":255,"required":true,"remote":null},{"name":"kind","column":"kind_id","type":"LONG","length":0,"required":true,"remote":"eduProgramKind"},{"name":"year","column":"year_id","type":"LONG","length":0,"required":true,"remote":"educationYear"},{"name":"institutionOrgUnit","column":"institutionorgunit_id","type":"LONG","length":0,"required":true,"remote":"eduInstitutionOrgUnit"},{"name":"ownerOrgUnit","column":"ownerorgunit_id","type":"LONG","length":0,"required":true,"remote":"eduOwnerOrgUnit"},{"name":"form","column":"form_id","type":"LONG","length":0,"required":true,"remote":"eduProgramForm"},{"name":"duration","column":"duration_id","type":"LONG","length":0,"required":true,"remote":"eduProgramDuration"},{"name":"eduProgramTrait","column":"eduprogramtrait_id","type":"LONG","length":0,"required":false,"remote":"eduProgramTrait"}]},
		{"name":"eduProgramAdditional","abstract":true,"parent":"eduProgram","table":null,"interfaces":[],"properties":[]},
		{"name":"eduProgramAdditionalProf","abstract":false,"parent":"eduProgramAdditional","table":"edu_program_additional_prof_t","interfaces":[],"properties":[]},
		{"name":"eduProgramPrimary","abstract":true,"parent":"eduProgram","table":null,"interfaces":[],"properties":[]},
		{"name":"eduProgramBasic","abstract":false,"parent":"eduProgramPrimary","table":"edu_program_basic_t","interfaces":[],"properties":[]},
		{"name":"eduProgramProf","abstract":true,"parent":"eduProgramPrimary","table":"edu_program_prof_t","interfaces":[],"properties":[{"name":"baseLevel","column":"baselevel_id","type":"LONG","length":0,"required":true,"remote":"eduLevel"},{"name":"programSubject","column":"programsubject_id","type":"LONG","length":0,"required":true,"remote":"eduProgramSubject"},{"name":"programQualification","column":"programqualification_id","type":"LONG","length":0,"required":true,"remote":"eduProgramQualification"},{"name":"subjectQualification","column":"subjectqualification_id","type":"LONG","length":0,"required":true,"remote":"eduProgramSubjectQualification"}]},
		{"name":"eduProgramHigherProf","abstract":false,"parent":"eduProgramProf","table":"edu_program_prof_higher_t","interfaces":[],"properties":[{"name":"programSpecialization","column":"programspecialization_id","type":"LONG","length":0,"required":true,"remote":"eduProgramSpecialization"},{"name":"programOrientation","column":"programorientation_id","type":"LONG","length":0,"required":false,"remote":"eduProgramOrientation"}]},
		{"name":"eduProgramSecondaryProf","abstract":false,"parent":"eduProgramProf","table":"edu_program_prof_secondary_t","interfaces":[],"properties":[{"name":"inDepthStudy","column":"indepthstudy_p","type":"BOOLEAN","length":255,"required":true,"remote":null}]},
		{"name":"eduProgramVocational","abstract":false,"parent":"eduProgramPrimary","table":null,"interfaces":[],"properties":[]},
		{"name":"eduProgramDuration","abstract":false,"parent":null,"table":"edu_c_rp_duration_t","interfaces":[],"properties":[{"name":"id","column":"id","type":"LONG","length":255,"required":true,"remote":null},{"name":"class","column":"discriminator","type":"SHORT","length":255,"required":true,"remote":null},{"name":"code","column":"code_p","type":"TRIMMEDSTRING","length":255,"required":true,"remote":null},{"name":"numberOfYears","column":"numberofyears_p","type":"INTEGER","length":255,"required":true,"remote":null},{"name":"numberOfMonths","column":"numberofmonths_p","type":"INTEGER","length":255,"required":true,"remote":null},{"name":"numberOfHours","column":"numberofhours_p","type":"INTEGER","length":255,"required":true,"remote":null},{"name":"title","column":"title_p","type":"TRIMMEDSTRING","length":1200,"required":false,"remote":null}]},
		{"name":"eduProgramForm","abstract":false,"parent":null,"table":"edu_c_pr_form_t","interfaces":[],"properties":[{"name":"id","column":"id","type":"LONG","length":255,"required":true,"remote":null},{"name":"class","column":"discriminator","type":"SHORT","length":255,"required":true,"remote":null},{"name":"code","column":"code_p","type":"TRIMMEDSTRING","length":255,"required":true,"remote":null},{"name":"shortTitle","column":"shorttitle_p","type":"TRIMMEDSTRING","length":255,"required":true,"remote":null},{"name":"title","column":"title_p","type":"TRIMMEDSTRING","length":1200,"required":false,"remote":null}]},
		{"name":"eduProgramKind","abstract":false,"parent":null,"table":"edu_c_program_kind_t","interfaces":["org.tandemframework.shared.commonbase.base.entity.IDeclinable"],"properties":[{"name":"id","column":"id","type":"LONG","length":255,"required":true,"remote":null},{"name":"class","column":"discriminator","type":"SHORT","length":255,"required":true,"remote":null},{"name":"code","column":"code_p","type":"TRIMMEDSTRING","length":255,"required":true,"remote":null},{"name":"eduLevel","column":"edulevel_id","type":"LONG","length":0,"required":true,"remote":"eduLevel"},{"name":"shortTitle","column":"shorttitle_p","type":"TRIMMEDSTRING","length":255,"required":true,"remote":null},{"name":"eduProgramSubjectKind","column":"eduprogramsubjectkind_p","type":"TRIMMEDSTRING","length":255,"required":true,"remote":null},{"name":"priority","column":"priority_p","type":"INTEGER","length":255,"required":true,"remote":null},{"name":"programBasic","column":null,"type":"BOOLEAN","length":255,"required":true,"remote":null},{"name":"programProf","column":null,"type":"BOOLEAN","length":255,"required":true,"remote":null},{"name":"programSecondaryProf","column":null,"type":"BOOLEAN","length":255,"required":true,"remote":null},{"name":"programHigherProf","column":null,"type":"BOOLEAN","length":255,"required":true,"remote":null},{"name":"programHigherQual","column":null,"type":"BOOLEAN","length":255,"required":true,"remote":null},{"name":"programAdditionalProf","column":null,"type":"BOOLEAN","length":255,"required":true,"remote":null},{"name":"programBachelorDegree","column":null,"type":"BOOLEAN","length":255,"required":true,"remote":null},{"name":"programSpecialistDegree","column":null,"type":"BOOLEAN","length":255,"required":true,"remote":null},{"name":"programMasterDegree","column":null,"type":"BOOLEAN","length":255,"required":true,"remote":null},{"name":"programPostgraduate","column":null,"type":"BOOLEAN","length":255,"required":true,"remote":null},{"name":"programTraineeship","column":null,"type":"BOOLEAN","length":255,"required":true,"remote":null},{"name":"programInternship","column":null,"type":"BOOLEAN","length":255,"required":true,"remote":null},{"name":"title","column":"title_p","type":"TRIMMEDSTRING","length":1200,"required":false,"remote":null}]},
		{"name":"eduProgramOrientation","abstract":false,"parent":null,"table":"eduprogramorientation_t","interfaces":[],"properties":[{"name":"id","column":"id","type":"LONG","length":255,"required":true,"remote":null},{"name":"class","column":"discriminator","type":"SHORT","length":255,"required":true,"remote":null},{"name":"code","column":"code_p","type":"TRIMMEDSTRING","length":255,"required":true,"remote":null},{"name":"shortTitle","column":"shorttitle_p","type":"TRIMMEDSTRING","length":255,"required":true,"remote":null},{"name":"abbreviation","column":"abbreviation_p","type":"TRIMMEDSTRING","length":255,"required":true,"remote":null},{"name":"printTitle","column":"printtitle_p","type":"TRIMMEDSTRING","length":255,"required":true,"remote":null},{"name":"subjectIndex","column":"subjectindex_id","type":"LONG","length":0,"required":true,"remote":"eduProgramSubjectIndex"},{"name":"title","column":"title_p","type":"TRIMMEDSTRING","length":1200,"required":false,"remote":null}]},
		{"name":"eduProgramQualification","abstract":false,"parent":null,"table":"edu_c_pr_qual_t","interfaces":[],"properties":[{"name":"id","column":"id","type":"LONG","length":255,"required":true,"remote":null},{"name":"class","column":"discriminator","type":"SHORT","length":255,"required":true,"remote":null},{"name":"code","column":"code_p","type":"TRIMMEDSTRING","length":255,"required":true,"remote":null},{"name":"qualificationLevelCode","column":"qualificationlevelcode_p","type":"TRIMMEDSTRING","length":255,"required":false,"remote":null},{"name":"subjectIndex","column":"subjectindex_id","type":"LONG","length":0,"required":true,"remote":"eduProgramSubjectIndex"},{"name":"title","column":"title_p","type":"TRIMMEDSTRING","length":1200,"required":false,"remote":null}]},
		{"name":"eduProgramSpecialization","abstract":true,"parent":null,"table":"edu_specialization_base_t","interfaces":[],"properties":[{"name":"id","column":"id","type":"LONG","length":255,"required":true,"remote":null},{"name":"class","column":"discriminator","type":"SHORT","length":255,"required":true,"remote":null},{"name":"code","column":"code_p","type":"TRIMMEDSTRING","length":255,"required":true,"remote":null},{"name":"shortTitle","column":"shorttitle_p","type":"TRIMMEDSTRING","length":255,"required":true,"remote":null},{"name":"programSubject","column":"programsubject_id","type":"LONG","length":0,"required":true,"remote":"eduProgramSubject"},{"name":"title","column":"title_p","type":"TRIMMEDSTRING","length":1200,"required":false,"remote":null}]},
		{"name":"eduProgramSpecializationChild","abstract":false,"parent":"eduProgramSpecialization","table":"edu_specialization_child_t","interfaces":[],"properties":[]},
		{"name":"eduProgramSpecializationRoot","abstract":false,"parent":"eduProgramSpecialization","table":"edu_specialization_root_t","interfaces":[],"properties":[]},
		{"name":"eduProgramSubject","abstract":true,"parent":null,"table":"edu_c_pr_subject_t","interfaces":[],"properties":[{"name":"id","column":"id","type":"LONG","length":255,"required":true,"remote":null},{"name":"class","column":"discriminator","type":"SHORT","length":255,"required":true,"remote":null},{"name":"code","column":"code_p","type":"TRIMMEDSTRING","length":255,"required":true,"remote":null},{"name":"subjectIndex","column":"subjectindex_id","type":"LONG","length":0,"required":true,"remote":"eduProgramSubjectIndex"},{"name":"subjectCode","column":"subjectcode_p","type":"TRIMMEDSTRING","length":255,"required":false,"remote":null},{"name":"shortTitle","column":"shorttitle_p","type":"TRIMMEDSTRING","length":255,"required":false,"remote":null},{"name":"outOfSyncDate","column":"outofsyncdate_p","type":"TIMESTAMP","length":255,"required":false,"remote":null},{"name":"title","column":"title_p","type":"TRIMMEDSTRING","length":1200,"required":false,"remote":null}]},
		{"name":"eduProgramSubject2009","abstract":false,"parent":"eduProgramSubject","table":"edu_c_pr_subject__2009_t","interfaces":[],"properties":[{"name":"group","column":"group_id","type":"LONG","length":0,"required":true,"remote":"eduProgramSubjectOksoGroup"},{"name":"assignSpecialDegree","column":"assignspecialdegree_p","type":"BOOLEAN","length":255,"required":true,"remote":null}]},
		{"name":"eduProgramSubject2013","abstract":false,"parent":"eduProgramSubject","table":"edu_c_pr_subject__2013_t","interfaces":[],"properties":[{"name":"group","column":"group_id","type":"LONG","length":0,"required":true,"remote":"eduProgramSubject2013Group"}]},
		{"name":"eduProgramSubjectOkso","abstract":false,"parent":"eduProgramSubject","table":"edu_c_pr_subject__okso_t","interfaces":[],"properties":[{"name":"item","column":"item_id","type":"LONG","length":0,"required":true,"remote":"eduProgramSubjectOksoItem"}]},
		{"name":"eduProgramSubject2013Field","abstract":false,"parent":null,"table":"edu_c_pr_subject__2013_field_t","interfaces":[],"properties":[{"name":"id","column":"id","type":"LONG","length":255,"required":true,"remote":null},{"name":"class","column":"discriminator","type":"SHORT","length":255,"required":true,"remote":null},{"name":"code","column":"code_p","type":"TRIMMEDSTRING","length":255,"required":true,"remote":null},{"name":"title","column":"title_p","type":"TRIMMEDSTRING","length":1200,"required":false,"remote":null}]},
		{"name":"eduProgramSubject2013Group","abstract":false,"parent":null,"table":"edu_c_pr_subject__2013_group_t","interfaces":["ru.tandemservice.uniedu.entity.IPersistentAccreditationOwner"],"properties":[{"name":"id","column":"id","type":"LONG","length":255,"required":true,"remote":null},{"name":"class","column":"discriminator","type":"SHORT","length":255,"required":true,"remote":null},{"name":"code","column":"code_p","type":"TRIMMEDSTRING","length":255,"required":true,"remote":null},{"name":"field","column":"field_id","type":"LONG","length":0,"required":true,"remote":"eduProgramSubject2013Field"},{"name":"title","column":"title_p","type":"TRIMMEDSTRING","length":1200,"required":false,"remote":null}]},
		{"name":"eduProgramSubjectComparison","abstract":false,"parent":null,"table":"edu_pr_subject_compare_t","interfaces":[],"properties":[{"name":"id","column":"id","type":"LONG","length":255,"required":true,"remote":null},{"name":"class","column":"discriminator","type":"SHORT","length":255,"required":true,"remote":null},{"name":"oldProgramSubject","column":"oldprogramsubject_id","type":"LONG","length":0,"required":true,"remote":"eduProgramSubject"},{"name":"newProgramSubject","column":"newprogramsubject_id","type":"LONG","length":0,"required":true,"remote":"eduProgramSubject2013"}]},
		{"name":"eduProgramSubjectIndex","abstract":false,"parent":null,"table":"edu_c_pr_subject_index_t","interfaces":[],"properties":[{"name":"id","column":"id","type":"LONG","length":255,"required":true,"remote":null},{"name":"class","column":"discriminator","type":"SHORT","length":255,"required":true,"remote":null},{"name":"code","column":"code_p","type":"TRIMMEDSTRING","length":255,"required":true,"remote":null},{"name":"shortTitle","column":"shorttitle_p","type":"TRIMMEDSTRING","length":255,"required":true,"remote":null},{"name":"eduLevelAndIndexNotation","column":"edulevelandindexnotation_p","type":"TRIMMEDSTRING","length":255,"required":true,"remote":null},{"name":"eduProgramSubjectType","column":"eduprogramsubjecttype_p","type":"TRIMMEDSTRING","length":255,"required":true,"remote":null},{"name":"generation","column":"generation_id","type":"LONG","length":0,"required":true,"remote":"eduProgramSubjectIndexGeneration"},{"name":"programKind","column":"programkind_id","type":"LONG","length":0,"required":true,"remote":"eduProgramKind"},{"name":"priority","column":"priority_p","type":"INT","length":255,"required":true,"remote":null},{"name":"prefix","column":"prefix_p","type":"TRIMMEDSTRING","length":255,"required":false,"remote":null},{"name":"title","column":"title_p","type":"TRIMMEDSTRING","length":1200,"required":false,"remote":null}]},
		{"name":"eduProgramSubjectIndexGeneration","abstract":false,"parent":null,"table":"edu_c_pr_subject_index_gen_t","interfaces":[],"properties":[{"name":"id","column":"id","type":"LONG","length":255,"required":true,"remote":null},{"name":"class","column":"discriminator","type":"SHORT","length":255,"required":true,"remote":null},{"name":"code","column":"code_p","type":"TRIMMEDSTRING","length":255,"required":true,"remote":null},{"name":"priority","column":"priority_p","type":"INT","length":255,"required":true,"remote":null},{"name":"title","column":"title_p","type":"TRIMMEDSTRING","length":1200,"required":false,"remote":null}]},
		{"name":"eduProgramSubjectOksoGroup","abstract":false,"parent":null,"table":"edu_c_pr_subject__okso_group_t","interfaces":["ru.tandemservice.uniedu.entity.IPersistentAccreditationOwner"],"properties":[{"name":"id","column":"id","type":"LONG","length":255,"required":true,"remote":null},{"name":"class","column":"discriminator","type":"SHORT","length":255,"required":true,"remote":null},{"name":"code","column":"code_p","type":"TRIMMEDSTRING","length":255,"required":true,"remote":null},{"name":"title","column":"title_p","type":"TRIMMEDSTRING","length":1200,"required":false,"remote":null}]},
		{"name":"eduProgramSubjectOksoItem","abstract":false,"parent":null,"table":"edu_c_pr_subject__okso_item_t","interfaces":[],"properties":[{"name":"id","column":"id","type":"LONG","length":255,"required":true,"remote":null},{"name":"class","column":"discriminator","type":"SHORT","length":255,"required":true,"remote":null},{"name":"code","column":"code_p","type":"TRIMMEDSTRING","length":255,"required":true,"remote":null},{"name":"itemCode","column":"itemcode_p","type":"TRIMMEDSTRING","length":255,"required":true,"remote":null},{"name":"parent","column":"parent_id","type":"LONG","length":0,"required":false,"remote":"eduProgramSubjectOksoItem"},{"name":"group","column":"group_id","type":"LONG","length":0,"required":true,"remote":"eduProgramSubjectOksoGroup"},{"name":"title","column":"title_p","type":"TRIMMEDSTRING","length":1200,"required":false,"remote":null}]},
		{"name":"eduProgramSubjectQualification","abstract":false,"parent":null,"table":"edu_c_pr_subject_qual_t","interfaces":[],"properties":[{"name":"id","column":"id","type":"LONG","length":255,"required":true,"remote":null},{"name":"class","column":"discriminator","type":"SHORT","length":255,"required":true,"remote":null},{"name":"programSubject","column":"programsubject_id","type":"LONG","length":0,"required":true,"remote":"eduProgramSubject"},{"name":"programQualification","column":"programqualification_id","type":"LONG","length":0,"required":true,"remote":"eduProgramQualification"}]},
		{"name":"eduProgramTrait","abstract":false,"parent":null,"table":"eduprogramtrait_t","interfaces":[],"properties":[{"name":"id","column":"id","type":"LONG","length":255,"required":true,"remote":null},{"name":"class","column":"discriminator","type":"SHORT","length":255,"required":true,"remote":null},{"name":"code","column":"code_p","type":"TRIMMEDSTRING","length":255,"required":true,"remote":null},{"name":"shortTitle","column":"shorttitle_p","type":"TRIMMEDSTRING","length":255,"required":true,"remote":null},{"name":"defaultTitle","column":"defaulttitle_p","type":"TRIMMEDSTRING","length":255,"required":true,"remote":null},{"name":"title","column":"title_p","type":"TRIMMEDSTRING","length":1200,"required":false,"remote":null}]},
		{"name":"educationYear","abstract":false,"parent":null,"table":"educationyear_t","interfaces":[],"properties":[{"name":"id","column":"id","type":"LONG","length":255,"required":true,"remote":null},{"name":"class","column":"discriminator","type":"SHORT","length":255,"required":true,"remote":null},{"name":"code","column":"code_p","type":"TRIMMEDSTRING","length":255,"required":true,"remote":null},{"name":"current","column":"current_p","type":"BOOLEAN","length":255,"required":false,"remote":null},{"name":"intValue","column":"intvalue_p","type":"INTEGER","length":255,"required":true,"remote":null},{"name":"title","column":"title_p","type":"TRIMMEDSTRING","length":1200,"required":false,"remote":null}]},
		{"name":"licenseInOrgUnit","abstract":false,"parent":null,"table":"edu_license_org_unit_t","interfaces":[],"properties":[{"name":"id","column":"id","type":"LONG","length":255,"required":true,"remote":null},{"name":"class","column":"discriminator","type":"SHORT","length":255,"required":true,"remote":null},{"name":"programSubject","column":"programsubject_id","type":"LONG","length":0,"required":true,"remote":"eduProgramSubject"},{"name":"institutionOrgUnit","column":"institutionorgunit_id","type":"LONG","length":0,"required":true,"remote":"eduInstitutionOrgUnit"}]}],
 "dependencies":["unibase"]}