{"name":"unitjsakai",
 "interfaces":[],
 "entities":[
		{"name":"sakaiCourse","abstract":false,"parent":null,"table":"sakaicourse_t","interfaces":[],"properties":[{"name":"id","column":"id","type":"LONG","length":255,"required":true,"remote":null},{"name":"class","column":"discriminator","type":"SHORT","length":255,"required":true,"remote":null},{"name":"sakaiCourseId","column":"sakaicourseid_p","type":"TRIMMEDSTRING","length":255,"required":true,"remote":null},{"name":"title","column":"title_p","type":"TRIMMEDSTRING","length":255,"required":true,"remote":null},{"name":"internal","column":"internal_p","type":"BOOLEAN","length":255,"required":true,"remote":null},{"name":"userInGroup","column":"useringroup_p","type":"BOOLEAN","length":255,"required":true,"remote":null}]},
		{"name":"sakaiCourse2PpsEntryRel","abstract":false,"parent":null,"table":"sakaicourse2ppsentryrel_t","interfaces":[],"properties":[{"name":"id","column":"id","type":"LONG","length":255,"required":true,"remote":null},{"name":"class","column":"discriminator","type":"SHORT","length":255,"required":true,"remote":null},{"name":"sakaiCourse","column":"sakaicourse_id","type":"LONG","length":0,"required":true,"remote":"sakaiCourse"},{"name":"ppsEntry","column":"ppsentry_id","type":"LONG","length":0,"required":true,"remote":"ppsEntry"},{"name":"trJournal","column":"trjournal_id","type":"LONG","length":0,"required":true,"remote":"trJournal"}]},
		{"name":"sakaiCourseStudent","abstract":false,"parent":null,"table":"sakaicoursestudent_t","interfaces":[],"properties":[{"name":"id","column":"id","type":"LONG","length":255,"required":true,"remote":null},{"name":"class","column":"discriminator","type":"SHORT","length":255,"required":true,"remote":null},{"name":"sakaiCourse","column":"sakaicourse_id","type":"LONG","length":0,"required":true,"remote":"sakaiCourse"},{"name":"student","column":"student_id","type":"LONG","length":0,"required":true,"remote":"student"}]},
		{"name":"sakaiTrJournalEventRel","abstract":false,"parent":null,"table":"sakaitrjournaleventrel_t","interfaces":[],"properties":[{"name":"id","column":"id","type":"LONG","length":255,"required":true,"remote":null},{"name":"class","column":"discriminator","type":"SHORT","length":255,"required":true,"remote":null},{"name":"event","column":"event_id","type":"LONG","length":0,"required":true,"remote":"trJournalEvent"},{"name":"courseRelation","column":"courserelation_id","type":"LONG","length":0,"required":true,"remote":"sakaiCourse2PpsEntryRel"},{"name":"sakaiEventId","column":"sakaieventid_p","type":"TRIMMEDSTRING","length":255,"required":true,"remote":null},{"name":"sakaiEventName","column":"sakaieventname_p","type":"TRIMMEDSTRING","length":255,"required":true,"remote":null}]}],
 "dependencies":["unitraining","movestudent"]}