{"name":"unidip",
 "interfaces":[],
 "entities":[
		{"name":"dipAddInfoEduForm","abstract":false,"parent":null,"table":"dip_add_info_edu_form_t","interfaces":[],"properties":[{"name":"id","column":"id","type":"LONG","length":255,"required":true,"remote":null},{"name":"class","column":"discriminator","type":"SHORT","length":255,"required":true,"remote":null},{"name":"dipAdditionalInformation","column":"dipadditionalinformation_id","type":"LONG","length":0,"required":true,"remote":"dipAdditionalInformation"},{"name":"eduProgramForm","column":"eduprogramform_id","type":"LONG","length":0,"required":false,"remote":"eduProgramForm"}]},
		{"name":"dipAdditionalInformation","abstract":false,"parent":null,"table":"dip_additional_information_t","interfaces":[],"properties":[{"name":"id","column":"id","type":"LONG","length":255,"required":true,"remote":null},{"name":"class","column":"discriminator","type":"SHORT","length":255,"required":true,"remote":null},{"name":"diplomaObject","column":"diplomaobject_id","type":"LONG","length":0,"required":true,"remote":"diplomaObject"},{"name":"showAdditionalDiscipline","column":"showadditionaldiscipline_p","type":"BOOLEAN","length":255,"required":true,"remote":null},{"name":"showSelfEduForm","column":"showselfeduform_p","type":"BOOLEAN","length":255,"required":true,"remote":null},{"name":"showProgramSpecialization","column":"showprogramspecialization_p","type":"BOOLEAN","length":255,"required":true,"remote":null},{"name":"specialization","column":"specialization_p","type":"TRIMMEDSTRING","length":255,"required":false,"remote":null},{"name":"passIntenssiveTraining","column":"passintenssivetraining_p","type":"BOOLEAN","length":255,"required":true,"remote":null},{"name":"demand","column":"demand_p","type":"BOOLEAN","length":255,"required":true,"remote":null}]},
		{"name":"dipAggregationMethod","abstract":false,"parent":null,"table":"dip_c_aggregation_t","interfaces":[],"properties":[{"name":"id","column":"id","type":"LONG","length":255,"required":true,"remote":null},{"name":"class","column":"discriminator","type":"SHORT","length":255,"required":true,"remote":null},{"name":"code","column":"code_p","type":"TRIMMEDSTRING","length":255,"required":true,"remote":null},{"name":"businessObjectName","column":"businessobjectname_p","type":"TRIMMEDSTRING","length":255,"required":true,"remote":null},{"name":"title","column":"title_p","type":"TRIMMEDSTRING","length":1200,"required":false,"remote":null}]},
		{"name":"dipAssistantManager","abstract":false,"parent":null,"table":"dip_assistant_manager_t","interfaces":[],"properties":[{"name":"id","column":"id","type":"LONG","length":255,"required":true,"remote":null},{"name":"class","column":"discriminator","type":"SHORT","length":255,"required":true,"remote":null},{"name":"employeePost","column":"employeepost_id","type":"LONG","length":0,"required":true,"remote":"employeePost"}]},
		{"name":"dipBlankDisposalReason","abstract":false,"parent":null,"table":"dip_c_blank_disposal_reason_t","interfaces":[],"properties":[{"name":"id","column":"id","type":"LONG","length":255,"required":true,"remote":null},{"name":"class","column":"discriminator","type":"SHORT","length":255,"required":true,"remote":null},{"name":"code","column":"code_p","type":"TRIMMEDSTRING","length":255,"required":true,"remote":null},{"name":"shortTitle","column":"shorttitle_p","type":"TRIMMEDSTRING","length":255,"required":true,"remote":null},{"name":"massDisposition","column":"massdisposition_p","type":"BOOLEAN","length":255,"required":true,"remote":null},{"name":"title","column":"title_p","type":"TRIMMEDSTRING","length":1200,"required":false,"remote":null}]},
		{"name":"dipBlankState","abstract":false,"parent":null,"table":"dip_c_blank_state_t","interfaces":[],"properties":[{"name":"id","column":"id","type":"LONG","length":255,"required":true,"remote":null},{"name":"class","column":"discriminator","type":"SHORT","length":255,"required":true,"remote":null},{"name":"code","column":"code_p","type":"TRIMMEDSTRING","length":255,"required":true,"remote":null},{"name":"description","column":"description_p","type":"TEXT","length":255,"required":false,"remote":null},{"name":"title","column":"title_p","type":"TRIMMEDSTRING","length":1200,"required":false,"remote":null}]},
		{"name":"dipBlankType","abstract":false,"parent":null,"table":"dip_c_blank_type_t","interfaces":[],"properties":[{"name":"id","column":"id","type":"LONG","length":255,"required":true,"remote":null},{"name":"class","column":"discriminator","type":"SHORT","length":255,"required":true,"remote":null},{"name":"code","column":"code_p","type":"TRIMMEDSTRING","length":255,"required":true,"remote":null},{"name":"shortTitle","column":"shorttitle_p","type":"TRIMMEDSTRING","length":255,"required":true,"remote":null},{"name":"title","column":"title_p","type":"TRIMMEDSTRING","length":1200,"required":false,"remote":null}]},
		{"name":"dipContentIssuanceToDipExtractRelation","abstract":false,"parent":null,"table":"dip_iss_cont_to_extract_rel_t","interfaces":[],"properties":[{"name":"id","column":"id","type":"LONG","length":255,"required":true,"remote":null},{"name":"class","column":"discriminator","type":"SHORT","length":255,"required":true,"remote":null},{"name":"extract","column":"extract_id","type":"LONG","length":0,"required":true,"remote":"dipStuExcludeExtract"},{"name":"contentIssuance","column":"contentissuance_id","type":"LONG","length":0,"required":true,"remote":"diplomaContentIssuance"}]},
		{"name":"dipDiplomaBlank","abstract":false,"parent":null,"table":"dip_diploma_blank_t","interfaces":[],"properties":[{"name":"id","column":"id","type":"LONG","length":255,"required":true,"remote":null},{"name":"class","column":"discriminator","type":"SHORT","length":255,"required":true,"remote":null},{"name":"blankType","column":"blanktype_id","type":"LONG","length":0,"required":true,"remote":"dipBlankType"},{"name":"blankState","column":"blankstate_id","type":"LONG","length":0,"required":true,"remote":"dipBlankState"},{"name":"seria","column":"seria_p","type":"TRIMMEDSTRING","length":255,"required":true,"remote":null},{"name":"number","column":"number_p","type":"TRIMMEDSTRING","length":255,"required":true,"remote":null},{"name":"storageLocation","column":"storagelocation_id","type":"LONG","length":0,"required":false,"remote":"orgUnit"},{"name":"disposalReason","column":"disposalreason_id","type":"LONG","length":0,"required":false,"remote":"dipBlankDisposalReason"},{"name":"disposalDate","column":"disposaldate_p","type":"DATE","length":255,"required":false,"remote":null},{"name":"printingOffice","column":"printingoffice_p","type":"TRIMMEDSTRING","length":255,"required":false,"remote":null},{"name":"invoice","column":"invoice_p","type":"TRIMMEDSTRING","length":255,"required":false,"remote":null},{"name":"reservationPurpose","column":"reservationpurpose_p","type":"TRIMMEDSTRING","length":255,"required":false,"remote":null}]},
		{"name":"dipDiplomaBlankReport","abstract":false,"parent":null,"table":"dip_diploma_blank_report_t","interfaces":[],"properties":[{"name":"id","column":"id","type":"LONG","length":255,"required":true,"remote":null},{"name":"class","column":"discriminator","type":"SHORT","length":255,"required":true,"remote":null},{"name":"content","column":"content_id","type":"LONG","length":0,"required":true,"remote":"databaseFile"},{"name":"formingDate","column":"formingdate_p","type":"TIMESTAMP","length":255,"required":true,"remote":null},{"name":"formBy","column":"formby_p","type":"LONG","length":255,"required":false,"remote":null},{"name":"blankType","column":"blanktype_p","type":"TEXT","length":255,"required":false,"remote":null},{"name":"storageLocation","column":"storagelocation_p","type":"TEXT","length":255,"required":false,"remote":null}]},
		{"name":"dipDocumentType","abstract":false,"parent":null,"table":"dip_c_type_t","interfaces":[],"properties":[{"name":"id","column":"id","type":"LONG","length":255,"required":true,"remote":null},{"name":"class","column":"discriminator","type":"SHORT","length":255,"required":true,"remote":null},{"name":"code","column":"code_p","type":"TRIMMEDSTRING","length":255,"required":true,"remote":null},{"name":"parent","column":"parent_id","type":"LONG","length":0,"required":false,"remote":"dipDocumentType"},{"name":"shortTitle","column":"shorttitle_p","type":"TRIMMEDSTRING","length":255,"required":true,"remote":null},{"name":"stateDocType","column":"statedoctype_p","type":"BOOLEAN","length":255,"required":true,"remote":null},{"name":"childAllowed","column":"childallowed_p","type":"BOOLEAN","length":255,"required":true,"remote":null},{"name":"formingDocAllowed","column":"formingdocallowed_p","type":"BOOLEAN","length":255,"required":true,"remote":null},{"name":"title","column":"title_p","type":"TRIMMEDSTRING","length":1200,"required":false,"remote":null}]},
		{"name":"dipEduInOtherOrganization","abstract":false,"parent":null,"table":"dip_edu_other_organization_t","interfaces":[],"properties":[{"name":"id","column":"id","type":"LONG","length":255,"required":true,"remote":null},{"name":"class","column":"discriminator","type":"SHORT","length":255,"required":true,"remote":null},{"name":"dipAdditionalInformation","column":"dipadditionalinformation_id","type":"LONG","length":0,"required":true,"remote":"dipAdditionalInformation"},{"name":"totalCreditsAsLong","column":"totalcreditsaslong_p","type":"LONG","length":255,"required":false,"remote":null},{"name":"totalWeeksAsLong","column":"totalweeksaslong_p","type":"LONG","length":255,"required":false,"remote":null},{"name":"row","column":"row_p","type":"STRING","length":255,"required":true,"remote":null}]},
		{"name":"dipFormingRegNumberAlgorithm","abstract":false,"parent":null,"table":"dip_form_reg_number_alg_t","interfaces":[],"properties":[{"name":"id","column":"id","type":"LONG","length":255,"required":true,"remote":null},{"name":"class","column":"discriminator","type":"SHORT","length":255,"required":true,"remote":null},{"name":"code","column":"code_p","type":"TRIMMEDSTRING","length":255,"required":true,"remote":null},{"name":"description","column":"description_p","type":"TRIMMEDSTRING","length":1200,"required":true,"remote":null},{"name":"current","column":"current_p","type":"BOOLEAN","length":255,"required":true,"remote":null},{"name":"title","column":"title_p","type":"TRIMMEDSTRING","length":1200,"required":false,"remote":null}]},
		{"name":"dipFormingRowAlgorithm","abstract":false,"parent":null,"table":"dip_form_row_algorithm_t","interfaces":[],"properties":[{"name":"id","column":"id","type":"LONG","length":255,"required":true,"remote":null},{"name":"class","column":"discriminator","type":"SHORT","length":255,"required":true,"remote":null},{"name":"code","column":"code_p","type":"TRIMMEDSTRING","length":255,"required":true,"remote":null},{"name":"description","column":"description_p","type":"TRIMMEDSTRING","length":1200,"required":true,"remote":null},{"name":"currentAlg","column":"currentalg_p","type":"BOOLEAN","length":255,"required":true,"remote":null},{"name":"title","column":"title_p","type":"TRIMMEDSTRING","length":1200,"required":false,"remote":null}]},
		{"name":"dipFormingRowAlgorithmOrgUnit","abstract":false,"parent":null,"table":"dip_form_row_algorithm_ou_t","interfaces":[],"properties":[{"name":"id","column":"id","type":"LONG","length":255,"required":true,"remote":null},{"name":"class","column":"discriminator","type":"SHORT","length":255,"required":true,"remote":null},{"name":"ownerOrgUnit","column":"ownerorgunit_id","type":"LONG","length":0,"required":true,"remote":"eduOwnerOrgUnit"},{"name":"dipFormingRowAlgorithm","column":"dipformingrowalgorithm_id","type":"LONG","length":0,"required":false,"remote":"dipFormingRowAlgorithm"}]},
		{"name":"diplomaAcademyRenameData","abstract":false,"parent":null,"table":"dip_academy_rename_data_t","interfaces":[],"properties":[{"name":"id","column":"id","type":"LONG","length":255,"required":true,"remote":null},{"name":"class","column":"discriminator","type":"SHORT","length":255,"required":true,"remote":null},{"name":"academyRename","column":"academyrename_id","type":"LONG","length":0,"required":true,"remote":"academyRename"},{"name":"diplomaContent","column":"diplomacontent_id","type":"LONG","length":0,"required":true,"remote":"diplomaContent"}]},
		{"name":"diplomaContent","abstract":false,"parent":null,"table":"dip_content_t","interfaces":[],"properties":[{"name":"id","column":"id","type":"LONG","length":255,"required":true,"remote":null},{"name":"class","column":"discriminator","type":"SHORT","length":255,"required":true,"remote":null},{"name":"type","column":"type_id","type":"LONG","length":0,"required":true,"remote":"dipDocumentType"},{"name":"weeksAsLong","column":"weeksaslong_p","type":"LONG","length":255,"required":false,"remote":null},{"name":"laborAsLong","column":"laboraslong_p","type":"LONG","length":255,"required":false,"remote":null},{"name":"programSubject","column":"programsubject_id","type":"LONG","length":0,"required":false,"remote":"eduProgramSubject"},{"name":"programSpecialization","column":"programspecialization_id","type":"LONG","length":0,"required":false,"remote":"eduProgramSpecialization"},{"name":"programQualification","column":"programqualification_id","type":"LONG","length":0,"required":false,"remote":"eduProgramQualification"},{"name":"educationElementTitle","column":"educationelementtitle_p","type":"TRIMMEDSTRING","length":255,"required":false,"remote":null},{"name":"withSuccess","column":"withsuccess_p","type":"BOOLEAN","length":255,"required":true,"remote":null}]},
		{"name":"diplomaContentIssuance","abstract":false,"parent":null,"table":"dip_content_issuance_t","interfaces":[],"properties":[{"name":"id","column":"id","type":"LONG","length":255,"required":true,"remote":null},{"name":"class","column":"discriminator","type":"SHORT","length":255,"required":true,"remote":null},{"name":"diplomaIssuance","column":"diplomaissuance_id","type":"LONG","length":0,"required":true,"remote":"diplomaIssuance"},{"name":"contentListNumber","column":"contentlistnumber_p","type":"INTEGER","length":255,"required":true,"remote":null},{"name":"blank","column":"blank_id","type":"LONG","length":0,"required":false,"remote":"dipDiplomaBlank"},{"name":"blankSeria","column":"blankseria_p","type":"TRIMMEDSTRING","length":255,"required":true,"remote":null},{"name":"blankNumber","column":"blanknumber_p","type":"TRIMMEDSTRING","length":255,"required":true,"remote":null},{"name":"duplicate","column":"duplicate_p","type":"BOOLEAN","length":255,"required":true,"remote":null},{"name":"duplicateRegustrationNumber","column":"duplicateregustrationnumber_p","type":"TRIMMEDSTRING","length":255,"required":false,"remote":null},{"name":"duplicateIssuanceDate","column":"duplicateissuancedate_p","type":"DATE","length":255,"required":false,"remote":null}]},
		{"name":"diplomaContentRegElPartFControlAction","abstract":false,"parent":null,"table":"dip_row_rfca_t","interfaces":[],"properties":[{"name":"id","column":"id","type":"LONG","length":255,"required":true,"remote":null},{"name":"class","column":"discriminator","type":"SHORT","length":255,"required":true,"remote":null},{"name":"owner","column":"owner_id","type":"LONG","length":0,"required":true,"remote":"diplomaContent"},{"name":"registryElementPartFControlAction","column":"rgstryelmntprtfcntrlactn_id","type":"LONG","length":0,"required":true,"remote":"eppRegistryElementPartFControlAction"},{"name":"row","column":"row_id","type":"LONG","length":0,"required":true,"remote":"diplomaContentRow"}]},
		{"name":"diplomaContentRow","abstract":true,"parent":null,"table":"dip_row_t","interfaces":[],"properties":[{"name":"id","column":"id","type":"LONG","length":255,"required":true,"remote":null},{"name":"class","column":"discriminator","type":"SHORT","length":255,"required":true,"remote":null},{"name":"owner","column":"owner_id","type":"LONG","length":0,"required":true,"remote":"diplomaContent"},{"name":"title","column":"title_p","type":"TRIMMEDSTRING","length":255,"required":true,"remote":null},{"name":"term","column":"term_p","type":"INTEGER","length":255,"required":true,"remote":null},{"name":"sourceAggregation","column":"sourceaggregation_id","type":"LONG","length":0,"required":false,"remote":"dipAggregationMethod"},{"name":"number","column":"number_p","type":"INTEGER","length":255,"required":true,"remote":null},{"name":"rowContentUpdateDate","column":"rowcontentupdatedate_p","type":"DATE","length":255,"required":true,"remote":null},{"name":"rowValueUpdateDate","column":"rowvalueupdatedate_p","type":"DATE","length":255,"required":true,"remote":null},{"name":"loadAsLong","column":"loadaslong_p","type":"LONG","length":255,"required":false,"remote":null},{"name":"audLoadAsLong","column":"audloadaslong_p","type":"LONG","length":255,"required":false,"remote":null},{"name":"weeksAsLong","column":"weeksaslong_p","type":"LONG","length":255,"required":false,"remote":null},{"name":"laborAsLong","column":"laboraslong_p","type":"LONG","length":255,"required":false,"remote":null},{"name":"mark","column":"mark_p","type":"TRIMMEDSTRING","length":255,"required":false,"remote":null},{"name":"education","column":"education_p","type":"TRIMMEDSTRING","length":255,"required":false,"remote":null},{"name":"comment","column":"comment_p","type":"TEXT","length":255,"required":false,"remote":null},{"name":"theme","column":"theme_p","type":"TEXT","length":1024,"required":false,"remote":null},{"name":"tutor","column":"tutor_p","type":"TEXT","length":255,"required":false,"remote":null},{"name":"contentListNumber","column":"contentlistnumber_p","type":"INTEGER","length":255,"required":true,"remote":null},{"name":"epvRegistryRow","column":"epvregistryrow_id","type":"LONG","length":0,"required":false,"remote":"eppEpvRegistryRow"}]},
		{"name":"diplomaCourseWorkRow","abstract":false,"parent":"diplomaContentRow","table":null,"interfaces":[],"properties":[]},
		{"name":"diplomaDisciplineRow","abstract":false,"parent":"diplomaContentRow","table":null,"interfaces":[],"properties":[]},
		{"name":"diplomaOptDisciplineRow","abstract":false,"parent":"diplomaContentRow","table":null,"interfaces":[],"properties":[]},
		{"name":"diplomaPracticeRow","abstract":false,"parent":"diplomaContentRow","table":null,"interfaces":[],"properties":[]},
		{"name":"diplomaQualifWorkRow","abstract":false,"parent":"diplomaContentRow","table":null,"interfaces":[],"properties":[]},
		{"name":"diplomaStateExamRow","abstract":false,"parent":"diplomaContentRow","table":null,"interfaces":[],"properties":[]},
		{"name":"diplomaEpvTemplateDefaultRel","abstract":false,"parent":null,"table":"dip_template_epv_def_t","interfaces":[],"properties":[{"name":"id","column":"id","type":"LONG","length":255,"required":true,"remote":null},{"name":"class","column":"discriminator","type":"SHORT","length":255,"required":true,"remote":null},{"name":"eduPlanVersion","column":"eduplanversion_id","type":"LONG","length":0,"required":true,"remote":"eppEduPlanVersion"},{"name":"diplomaTemplate","column":"diplomatemplate_id","type":"LONG","length":0,"required":true,"remote":"diplomaTemplate"}]},
		{"name":"diplomaIssuance","abstract":false,"parent":null,"table":"dip_issuance_t","interfaces":[],"properties":[{"name":"id","column":"id","type":"LONG","length":255,"required":true,"remote":null},{"name":"class","column":"discriminator","type":"SHORT","length":255,"required":true,"remote":null},{"name":"diplomaObject","column":"diplomaobject_id","type":"LONG","length":0,"required":true,"remote":"diplomaObject"},{"name":"registrationNumber","column":"registrationnumber_p","type":"TRIMMEDSTRING","length":255,"required":true,"remote":null},{"name":"issuanceDate","column":"issuancedate_p","type":"DATE","length":255,"required":true,"remote":null},{"name":"blank","column":"blank_id","type":"LONG","length":0,"required":false,"remote":"dipDiplomaBlank"},{"name":"blankSeria","column":"blankseria_p","type":"TRIMMEDSTRING","length":255,"required":false,"remote":null},{"name":"blankNumber","column":"blanknumber_p","type":"TRIMMEDSTRING","length":255,"required":false,"remote":null},{"name":"replacedIssuance","column":"replacedissuance_id","type":"LONG","length":0,"required":false,"remote":"diplomaIssuance"},{"name":"scanCopy","column":"scancopy_id","type":"LONG","length":0,"required":false,"remote":"databaseFile"}]},
		{"name":"diplomaObject","abstract":false,"parent":null,"table":"dip_object_t","interfaces":[],"properties":[{"name":"id","column":"id","type":"LONG","length":255,"required":true,"remote":null},{"name":"class","column":"discriminator","type":"SHORT","length":255,"required":true,"remote":null},{"name":"studentEpv","column":"studentepv_id","type":"LONG","length":0,"required":false,"remote":"eppStudent2EduPlanVersion"},{"name":"student","column":"student_id","type":"LONG","length":0,"required":true,"remote":"student"},{"name":"content","column":"content_id","type":"LONG","length":0,"required":true,"remote":"diplomaContent"},{"name":"stateCommissionChairFio","column":"statecommissionchairfio_p","type":"TRIMMEDSTRING","length":255,"required":false,"remote":null},{"name":"stateCommissionProtocolNumber","column":"sttcmmssnprtclnmbr_p","type":"TRIMMEDSTRING","length":255,"required":false,"remote":null},{"name":"stateCommissionDate","column":"statecommissiondate_p","type":"DATE","length":255,"required":false,"remote":null},{"name":"comment","column":"comment_p","type":"TEXT","length":255,"required":false,"remote":null}]},
		{"name":"diplomaTemplate","abstract":false,"parent":null,"table":"dip_template_t","interfaces":[],"properties":[{"name":"id","column":"id","type":"LONG","length":255,"required":true,"remote":null},{"name":"class","column":"discriminator","type":"SHORT","length":255,"required":true,"remote":null},{"name":"eduPlanVersion","column":"eduplanversion_id","type":"LONG","length":0,"required":true,"remote":"eppEduPlanVersion"},{"name":"content","column":"content_id","type":"LONG","length":0,"required":true,"remote":"diplomaContent"},{"name":"comment","column":"comment_p","type":"TEXT","length":255,"required":false,"remote":null}]},
		{"name":"dipDiplomaSendFisFrdoReport","abstract":false,"parent":"storableReport","table":"dip_diploma_fis_frdo_report_t","interfaces":[],"properties":[{"name":"documentType","column":"documenttype_id","type":"LONG","length":0,"required":false,"remote":"dipDocumentType"},{"name":"eduLevel","column":"edulevel_p","type":"TRIMMEDSTRING","length":255,"required":false,"remote":null},{"name":"issuanceDateTo","column":"issuancedateto_p","type":"DATE","length":255,"required":false,"remote":null},{"name":"issuanceDateFrom","column":"issuancedatefrom_p","type":"DATE","length":255,"required":false,"remote":null},{"name":"duplicateDiplomaObject","column":"duplicatediplomaobject_p","type":"BOOLEAN","length":255,"required":true,"remote":null}]},
		{"name":"dipDocTemplateCatalog","abstract":false,"parent":"scriptItem","table":"dip_c_doc_template_t","interfaces":[],"properties":[{"name":"withSuccess","column":"withsuccess_p","type":"BOOLEAN","length":255,"required":true,"remote":null},{"name":"dipDocumentType","column":"dipdocumenttype_id","type":"LONG","length":0,"required":false,"remote":"dipDocumentType"},{"name":"application","column":"application_p","type":"BOOLEAN","length":255,"required":true,"remote":null},{"name":"active","column":"active_p","type":"BOOLEAN","length":255,"required":true,"remote":null}]},
		{"name":"dipScriptItem","abstract":false,"parent":"scriptItem","table":null,"interfaces":[],"properties":[]},
		{"name":"dipStuExcludeExtract","abstract":false,"parent":"listStudentExtract","table":"dip_stu_exclude_extract_t","interfaces":[],"properties":[{"name":"excludeDate","column":"excludedate_p","type":"DATE","length":255,"required":true,"remote":null},{"name":"statusOld","column":"statusold_id","type":"LONG","length":0,"required":true,"remote":"studentStatus"},{"name":"statusNew","column":"statusnew_id","type":"LONG","length":0,"required":true,"remote":"studentStatus"},{"name":"diploma","column":"diploma_id","type":"LONG","length":0,"required":false,"remote":"diplomaObject"},{"name":"issuance","column":"issuance_id","type":"LONG","length":0,"required":false,"remote":"diplomaIssuance"},{"name":"finishedYear","column":"finishedyear_p","type":"INTEGER","length":255,"required":false,"remote":null}]}],
 "dependencies":["unisession","movestudent"]}