{"name":"unimirea",
 "interfaces":[],
 "entities":[
		{"name":"mireaEduEnrAsTransferStuExtractExt","abstract":false,"parent":null,"table":"mredenrastrnsfrstextrctext_t","interfaces":[],"properties":[{"name":"id","column":"id","type":"LONG","length":255,"required":true,"remote":null},{"name":"class","column":"discriminator","type":"SHORT","length":255,"required":true,"remote":null},{"name":"eduEnrAsTransferStuExtract","column":"eduenrastransferstuextract_id","type":"LONG","length":0,"required":true,"remote":"eduEnrAsTransferStuExtract"},{"name":"protocolNumber","column":"protocolnumber_p","type":"STRING","length":255,"required":true,"remote":null},{"name":"protocolDate","column":"protocoldate_p","type":"DATE","length":255,"required":true,"remote":null},{"name":"applicationDate","column":"applicationdate_p","type":"DATE","length":255,"required":true,"remote":null},{"name":"applicationNumber","column":"applicationnumber_p","type":"STRING","length":255,"required":true,"remote":null},{"name":"contractDate","column":"contractdate_p","type":"DATE","length":255,"required":false,"remote":null},{"name":"contractNumber","column":"contractnumber_p","type":"STRING","length":255,"required":false,"remote":null}]},
		{"name":"mireaPlaceRentToDocumentRelation","abstract":false,"parent":null,"table":"mrplcrnttdcmntrltn_t","interfaces":[],"properties":[{"name":"id","column":"id","type":"LONG","length":255,"required":true,"remote":null},{"name":"class","column":"discriminator","type":"SHORT","length":255,"required":true,"remote":null},{"name":"object","column":"object_id","type":"LONG","length":0,"required":true,"remote":"mireaPlacesRent"},{"name":"document","column":"document_p","type":"LONG","length":255,"required":false,"remote":null},{"name":"title","column":"title_p","type":"TRIMMEDSTRING","length":255,"required":true,"remote":null},{"name":"startDate","column":"startdate_p","type":"DATE","length":255,"required":false,"remote":null},{"name":"endDate","column":"enddate_p","type":"DATE","length":255,"required":false,"remote":null},{"name":"comment","column":"comment_p","type":"TRIMMEDSTRING","length":255,"required":false,"remote":null},{"name":"active","column":"active_p","type":"BOOLEAN","length":255,"required":true,"remote":null},{"name":"rentContract","column":"rentcontract_p","type":"BOOLEAN","length":255,"required":true,"remote":null}]},
		{"name":"mireaPlacesRent","abstract":false,"parent":null,"table":"mireaplacesrent_t","interfaces":[],"properties":[{"name":"id","column":"id","type":"LONG","length":255,"required":true,"remote":null},{"name":"class","column":"discriminator","type":"SHORT","length":255,"required":true,"remote":null},{"name":"title","column":null,"type":"TRIMMEDSTRING","length":255,"required":true,"remote":null},{"name":"place","column":"place_id","type":"LONG","length":0,"required":true,"remote":"uniplacesPlace"},{"name":"contractor","column":"contractor_id","type":"LONG","length":0,"required":true,"remote":"externalOrgUnit"},{"name":"contractorType","column":"contractortype_id","type":"LONG","length":0,"required":false,"remote":"organizationType"},{"name":"contactorPerson","column":"contactorperson_id","type":"LONG","length":0,"required":false,"remote":"contactorPerson"},{"name":"startDate","column":"startdate_p","type":"DATE","length":255,"required":false,"remote":null},{"name":"endDate","column":"enddate_p","type":"DATE","length":255,"required":false,"remote":null}]},
		{"name":"mireaPrincipalToIPRelation","abstract":false,"parent":null,"table":"mireaprincipaltoiprelation_t","interfaces":[],"properties":[{"name":"id","column":"id","type":"LONG","length":255,"required":true,"remote":null},{"name":"class","column":"discriminator","type":"SHORT","length":255,"required":true,"remote":null},{"name":"principal","column":"principal_id","type":"LONG","length":0,"required":true,"remote":"principal"},{"name":"ipAddress","column":"ipaddress_p","type":"TRIMMEDSTRING","length":255,"required":true,"remote":null}]},
		{"name":"mireaRestorationStuExtractExt","abstract":false,"parent":null,"table":"mrrstrtnstextrctext_t","interfaces":[],"properties":[{"name":"id","column":"id","type":"LONG","length":255,"required":true,"remote":null},{"name":"class","column":"discriminator","type":"SHORT","length":255,"required":true,"remote":null},{"name":"restorationStuExtractExt","column":"restorationstuextractext_id","type":"LONG","length":0,"required":true,"remote":"restorationStuExtractExt"},{"name":"protocolNumber","column":"protocolnumber_p","type":"STRING","length":255,"required":true,"remote":null},{"name":"protocolDate","column":"protocoldate_p","type":"DATE","length":255,"required":true,"remote":null},{"name":"applicationDate","column":"applicationdate_p","type":"DATE","length":255,"required":true,"remote":null},{"name":"applicationNumber","column":"applicationnumber_p","type":"STRING","length":255,"required":true,"remote":null},{"name":"contractDate","column":"contractdate_p","type":"DATE","length":255,"required":false,"remote":null},{"name":"contractNumber","column":"contractnumber_p","type":"STRING","length":255,"required":false,"remote":null}]},
		{"name":"mireaSecondDisposalRight","abstract":false,"parent":null,"table":"mireaseconddisposalright_t","interfaces":[],"properties":[{"name":"id","column":"id","type":"LONG","length":255,"required":true,"remote":null},{"name":"class","column":"discriminator","type":"SHORT","length":255,"required":true,"remote":null},{"name":"registryRecord","column":"registryrecord_id","type":"LONG","length":0,"required":true,"remote":"uniplacesRegistryRecord"},{"name":"disposalRight","column":"disposalright_id","type":"LONG","length":0,"required":true,"remote":"uniplacesDisposalRight"},{"name":"rightStartDate","column":"rightstartdate_p","type":"DATE","length":255,"required":false,"remote":null},{"name":"area","column":"area_p","type":"LONG","length":255,"required":false,"remote":null},{"name":"document","column":"document_id","type":"LONG","length":0,"required":false,"remote":"uniplacesDocument"}]},
		{"name":"mireaStudentPaymentsOrderExt","abstract":false,"parent":null,"table":"mireastudentpaymentsorderext_t","interfaces":[],"properties":[{"name":"id","column":"id","type":"LONG","length":255,"required":true,"remote":null},{"name":"class","column":"discriminator","type":"SHORT","length":255,"required":true,"remote":null},{"name":"studentPaymentsOrder","column":"studentpaymentsorder_id","type":"LONG","length":0,"required":true,"remote":"studentPaymentsOrder"},{"name":"protocolNumber","column":"protocolnumber_p","type":"STRING","length":255,"required":false,"remote":null},{"name":"protocolDate","column":"protocoldate_p","type":"DATE","length":255,"required":false,"remote":null}]},
		{"name":"orgUnitCodeForStudentNumber","abstract":false,"parent":null,"table":"mirea_ou_code_stud_number_t","interfaces":[],"properties":[{"name":"id","column":"id","type":"LONG","length":255,"required":true,"remote":null},{"name":"class","column":"discriminator","type":"SHORT","length":255,"required":true,"remote":null},{"name":"orgUnit","column":"orgunit_id","type":"LONG","length":0,"required":true,"remote":"orgUnit"},{"name":"code","column":"code_p","type":"TRIMMEDSTRING","length":255,"required":true,"remote":null}]},
		{"name":"uniPlacesPlaceExt","abstract":false,"parent":null,"table":"uniplacesplaceext_t","interfaces":[],"properties":[{"name":"id","column":"id","type":"LONG","length":255,"required":true,"remote":null},{"name":"class","column":"discriminator","type":"SHORT","length":255,"required":true,"remote":null},{"name":"place","column":"place_id","type":"LONG","length":0,"required":true,"remote":"uniplacesPlace"},{"name":"responsiblePerson","column":"responsibleperson_id","type":"LONG","length":0,"required":false,"remote":"employeePost"},{"name":"placeMirea","column":"placemirea_id","type":"LONG","length":0,"required":true,"remote":"uniMireaPlace"},{"name":"mayRented","column":"mayrented_p","type":"BOOLEAN","length":255,"required":true,"remote":null}]},
		{"name":"mireaExcludeStuListExtract","abstract":false,"parent":"listStudentExtract","table":"mireaexcludestulistextract_t","interfaces":[],"properties":[{"name":"statusOld","column":"statusold_id","type":"LONG","length":0,"required":true,"remote":"studentStatus"},{"name":"excludeDate","column":"excludedate_p","type":"TIMESTAMP","length":255,"required":true,"remote":null},{"name":"prevGraduateOrderDate","column":"prevgraduateorderdate_p","type":"DATE","length":255,"required":false,"remote":null},{"name":"prevGraduateOrderNumber","column":"prevgraduateordernumber_p","type":"TRIMMEDSTRING","length":255,"required":false,"remote":null},{"name":"prevExcludeOrderDate","column":"prevexcludeorderdate_p","type":"DATE","length":255,"required":false,"remote":null},{"name":"prevExcludeOrderNumber","column":"prevexcludeordernumber_p","type":"TRIMMEDSTRING","length":255,"required":false,"remote":null},{"name":"finishedYear","column":"finishedyear_p","type":"INTEGER","length":255,"required":false,"remote":null},{"name":"holidayFrom","column":"holidayfrom_p","type":"TIMESTAMP","length":255,"required":false,"remote":null},{"name":"holidayTo","column":"holidayto_p","type":"TIMESTAMP","length":255,"required":false,"remote":null},{"name":"orderText","column":"ordertext_p","type":"TRIMMEDSTRING","length":255,"required":false,"remote":null}]},
		{"name":"mireaExcludeSuccessStuListExtract","abstract":false,"parent":"listStudentExtract","table":"mrexcldsccssstlstextrct_t","interfaces":[],"properties":[{"name":"statusOld","column":"statusold_id","type":"LONG","length":0,"required":true,"remote":"studentStatus"},{"name":"excludeDate","column":"excludedate_p","type":"TIMESTAMP","length":255,"required":true,"remote":null},{"name":"prevGraduateSuccessOrderDate","column":"prevgraduatesuccessorderdate_p","type":"DATE","length":255,"required":false,"remote":null},{"name":"prevGraduateSuccessOrderNumber","column":"prvgrdtsccssordrnmbr_p","type":"TRIMMEDSTRING","length":255,"required":false,"remote":null},{"name":"prevExcludeOrderDate","column":"prevexcludeorderdate_p","type":"DATE","length":255,"required":false,"remote":null},{"name":"prevExcludeOrderNumber","column":"prevexcludeordernumber_p","type":"TRIMMEDSTRING","length":255,"required":false,"remote":null},{"name":"finishedYear","column":"finishedyear_p","type":"INTEGER","length":255,"required":false,"remote":null},{"name":"holidayFrom","column":"holidayfrom_p","type":"TIMESTAMP","length":255,"required":false,"remote":null},{"name":"holidayTo","column":"holidayto_p","type":"TIMESTAMP","length":255,"required":false,"remote":null},{"name":"orderText","column":"ordertext_p","type":"TRIMMEDSTRING","length":255,"required":false,"remote":null}]},
		{"name":"uniMireaPlace","abstract":false,"parent":"uniplacesRegistryRecord","table":"unimireaplace_t","interfaces":[],"properties":[{"name":"title","column":"title_p","type":"TRIMMEDSTRING","length":255,"required":true,"remote":null},{"name":"number","column":"number_p","type":"STRING","length":255,"required":false,"remote":null},{"name":"floor","column":"floor_id","type":"LONG","length":0,"required":true,"remote":"uniplacesFloor"}]}],
 "dependencies":["unienr14_fis","unidip","unisp","uniepp_load","nsiunieductr","nsiunienr14_ctr","lksunispp","lksunitraining","nsimovestudent"]}