{"name":"unimv",
 "interfaces":[
		{"name":"ru.tandemservice.unimv.IAbstractDocument","view":"iabstractdocument_v"},
		{"name":"ru.tandemservice.unimv.IPossibleVisa","view":"ipossiblevisa_v"}],
 "entities":[
		{"name":"employeePostPossibleVisa","abstract":false,"parent":null,"table":"employeepostpossiblevisa_t","interfaces":["ru.tandemservice.unimv.IPossibleVisa"],"properties":[{"name":"id","column":"id","type":"LONG","length":255,"required":true,"remote":null},{"name":"class","column":"discriminator","type":"SHORT","length":255,"required":true,"remote":null},{"name":"title","column":"title_p","type":"TRIMMEDSTRING","length":255,"required":true,"remote":null},{"name":"entity","column":"entity_id","type":"LONG","length":0,"required":true,"remote":"employeePost"},{"name":"active","column":null,"type":"BOOLEAN","length":255,"required":true,"remote":null}]},
		{"name":"groupsMemberVising","abstract":false,"parent":null,"table":"groupsmembervising_t","interfaces":[],"properties":[{"name":"id","column":"id","type":"LONG","length":255,"required":true,"remote":null},{"name":"class","column":"discriminator","type":"SHORT","length":255,"required":true,"remote":null},{"name":"code","column":"code_p","type":"TRIMMEDSTRING","length":255,"required":true,"remote":null},{"name":"title","column":"title_p","type":"TRIMMEDSTRING","length":255,"required":true,"remote":null},{"name":"printTitle","column":"printtitle_p","type":"TRIMMEDSTRING","length":255,"required":false,"remote":null},{"name":"defaultUse","column":"defaultuse_p","type":"BOOLEAN","length":255,"required":true,"remote":null},{"name":"printLabel","column":"printlabel_p","type":"TRIMMEDSTRING","length":255,"required":true,"remote":null},{"name":"index","column":"index_p","type":"INTEGER","length":255,"required":true,"remote":null},{"name":"printLabelTitle","column":"printlabeltitle_p","type":"TRIMMEDSTRING","length":255,"required":true,"remote":null}]},
		{"name":"studentPossibleVisa","abstract":false,"parent":null,"table":"studentpossiblevisa_t","interfaces":["ru.tandemservice.unimv.IPossibleVisa"],"properties":[{"name":"id","column":"id","type":"LONG","length":255,"required":true,"remote":null},{"name":"class","column":"discriminator","type":"SHORT","length":255,"required":true,"remote":null},{"name":"title","column":"title_p","type":"TRIMMEDSTRING","length":255,"required":true,"remote":null},{"name":"entity","column":"entity_id","type":"LONG","length":0,"required":true,"remote":"student"},{"name":"active","column":null,"type":"BOOLEAN","length":255,"required":true,"remote":null}]},
		{"name":"visa","abstract":false,"parent":null,"table":"visa_t","interfaces":[],"properties":[{"name":"id","column":"id","type":"LONG","length":255,"required":true,"remote":null},{"name":"class","column":"discriminator","type":"SHORT","length":255,"required":true,"remote":null},{"name":"possibleVisa","column":"possiblevisa_id","type":"LONG","length":0,"required":true,"remote":"ru.tandemservice.unimv.IPossibleVisa"},{"name":"document","column":"document_id","type":"LONG","length":0,"required":true,"remote":"ru.tandemservice.unimv.IAbstractDocument"},{"name":"mandatory","column":"mandatory_p","type":"BOOLEAN","length":255,"required":true,"remote":null},{"name":"index","column":"index_p","type":"INTEGER","length":255,"required":true,"remote":null},{"name":"groupMemberVising","column":"groupmembervising_id","type":"LONG","length":0,"required":true,"remote":"groupsMemberVising"}]},
		{"name":"visaHistoryItem","abstract":false,"parent":null,"table":"visahistoryitem_t","interfaces":[],"properties":[{"name":"id","column":"id","type":"LONG","length":255,"required":true,"remote":null},{"name":"class","column":"discriminator","type":"SHORT","length":255,"required":true,"remote":null},{"name":"creationDate","column":"creationdate_p","type":"TIMESTAMP","length":255,"required":true,"remote":null},{"name":"comment","column":"comment_p","type":"TEXT","length":255,"required":false,"remote":null},{"name":"author","column":"author_id","type":"LONG","length":0,"required":true,"remote":"org.tandemframework.common.base.entity.IPersistentPersonable"},{"name":"document","column":"document_id","type":"LONG","length":0,"required":true,"remote":"ru.tandemservice.unimv.IAbstractDocument"},{"name":"visaTask","column":"visatask_id","type":"LONG","length":0,"required":true,"remote":"visaTask"}]},
		{"name":"visaTask","abstract":false,"parent":null,"table":"visatask_t","interfaces":[],"properties":[{"name":"id","column":"id","type":"LONG","length":255,"required":true,"remote":null},{"name":"class","column":"discriminator","type":"SHORT","length":255,"required":true,"remote":null},{"name":"creationDate","column":"creationdate_p","type":"TIMESTAMP","length":255,"required":true,"remote":null},{"name":"visa","column":"visa_id","type":"LONG","length":0,"required":false,"remote":"visa"},{"name":"initiator","column":"initiator_id","type":"LONG","length":0,"required":false,"remote":"org.tandemframework.common.base.entity.IPersistentPersonable"}]}],
 "dependencies":["uni"]}