{"name":"unienr14_ctr",
 "interfaces":[],
 "entities":[
		{"name":"enrEntrantContract","abstract":false,"parent":null,"table":"enr14_entrant_contract_t","interfaces":["ru.tandemservice.unieductr.base.entity.IEduContractRelation"],"properties":[{"name":"id","column":"id","type":"LONG","length":255,"required":true,"remote":null},{"name":"class","column":"discriminator","type":"SHORT","length":255,"required":true,"remote":null},{"name":"contractObject","column":"contractobject_id","type":"LONG","length":0,"required":true,"remote":"ctrContractObject"},{"name":"requestedCompetition","column":"requestedcompetition_id","type":"LONG","length":0,"required":true,"remote":"enrRequestedCompetition"},{"name":"paymentResultExists","column":"paymentresultexists_p","type":"BOOLEAN","length":255,"required":true,"remote":null},{"name":"paymentDate","column":"paymentdate_p","type":"DATE","length":255,"required":false,"remote":null},{"name":"paymentExists","column":null,"type":"BOOLEAN","length":255,"required":true,"remote":null}]},
		{"name":"ctrEntrContractReport","abstract":false,"parent":"storableReport","table":"enr14_ctr_entr_contr_rep","interfaces":[],"properties":[{"name":"enrollmentCampaign","column":"enrollmentcampaign_id","type":"LONG","length":0,"required":true,"remote":"enrEnrollmentCampaign"},{"name":"requestType","column":"requesttype_p","type":"TRIMMEDSTRING","length":255,"required":false,"remote":null},{"name":"compensationType","column":"compensationtype_p","type":"TRIMMEDSTRING","length":255,"required":false,"remote":null},{"name":"programForm","column":"programform_p","type":"TRIMMEDSTRING","length":255,"required":false,"remote":null},{"name":"competitionType","column":"competitiontype_p","type":"TRIMMEDSTRING","length":255,"required":false,"remote":null},{"name":"enrOrgUnit","column":"enrorgunit_p","type":"TRIMMEDSTRING","length":255,"required":false,"remote":null},{"name":"formativeOrgUnit","column":"formativeorgunit_p","type":"TRIMMEDSTRING","length":255,"required":false,"remote":null},{"name":"programSubject","column":"programsubject_p","type":"TRIMMEDSTRING","length":255,"required":false,"remote":null},{"name":"eduProgram","column":"eduprogram_p","type":"TRIMMEDSTRING","length":255,"required":false,"remote":null},{"name":"programSet","column":"programset_p","type":"TRIMMEDSTRING","length":255,"required":false,"remote":null},{"name":"orgUnit","column":"orgunit_id","type":"LONG","length":0,"required":false,"remote":"orgUnit"}]},
		{"name":"ctrReportEntrantsPlanPoints","abstract":false,"parent":"storableReport","table":"enr14_ctr_rep_ent_plan_pts_t","interfaces":[],"properties":[{"name":"enrollmentCampaign","column":"enrollmentcampaign_id","type":"LONG","length":0,"required":true,"remote":"enrEnrollmentCampaign"},{"name":"dateFrom","column":"datefrom_p","type":"TIMESTAMP","length":255,"required":true,"remote":null},{"name":"dateTo","column":"dateto_p","type":"TIMESTAMP","length":255,"required":true,"remote":null},{"name":"stage","column":"stage_p","type":"TEXT","length":255,"required":true,"remote":null},{"name":"requestType","column":"requesttype_p","type":"TRIMMEDSTRING","length":255,"required":true,"remote":null},{"name":"programForm","column":"programform_p","type":"TEXT","length":255,"required":false,"remote":null}]},
		{"name":"ctrScriptItem","abstract":false,"parent":"scriptItem","table":"enr14_ctr_c_script_t","interfaces":[],"properties":[]},
		{"name":"enrContractSpoTemplateDataSimple","abstract":false,"parent":"enrContractTemplateData","table":"enr14_ctmpldt_spo_t","interfaces":[],"properties":[]},
		{"name":"enrContractTemplateData","abstract":true,"parent":"eduCtrContractVersionTemplateData","table":"enr14_ctmpldt_t","interfaces":[],"properties":[{"name":"requestedCompetition","column":"requestedcompetition_id","type":"LONG","length":0,"required":true,"remote":"enrRequestedCompetition"}]},
		{"name":"enrContractTemplateDataSimple","abstract":false,"parent":"enrContractTemplateData","table":"enr14_ctmpldt_simple_t","interfaces":[],"properties":[]}],
 "dependencies":["unienr14","unieductr"]}