{"name":"unitraining",
 "interfaces":[
		{"name":"ru.tandemservice.unitraining.brs.entity.brs.IBrsSettingsOwner","view":"ibrssettingsowner_v"}],
 "entities":[
		{"name":"trAbsenceReason","abstract":false,"parent":null,"table":"tr_c_absence_reason","interfaces":[],"properties":[{"name":"id","column":"id","type":"LONG","length":255,"required":true,"remote":null},{"name":"class","column":"discriminator","type":"SHORT","length":255,"required":true,"remote":null},{"name":"code","column":"code_p","type":"TRIMMEDSTRING","length":255,"required":true,"remote":null},{"name":"valid","column":"valid_p","type":"BOOLEAN","length":255,"required":true,"remote":null},{"name":"title","column":"title_p","type":"TRIMMEDSTRING","length":1200,"required":false,"remote":null}]},
		{"name":"trAddonType","abstract":false,"parent":null,"table":"tr_c_addon_type","interfaces":[],"properties":[{"name":"id","column":"id","type":"LONG","length":255,"required":true,"remote":null},{"name":"class","column":"discriminator","type":"SHORT","length":255,"required":true,"remote":null},{"name":"code","column":"code_p","type":"TRIMMEDSTRING","length":255,"required":true,"remote":null},{"name":"abbreviation","column":"abbreviation_p","type":"TRIMMEDSTRING","length":255,"required":true,"remote":null},{"name":"userCode","column":"usercode_p","type":"TRIMMEDSTRING","length":255,"required":true,"remote":null},{"name":"title","column":"title_p","type":"TRIMMEDSTRING","length":1200,"required":false,"remote":null}]},
		{"name":"trBrsCoefficientDef","abstract":false,"parent":null,"table":"tr_c_coef_def","interfaces":[],"properties":[{"name":"id","column":"id","type":"LONG","length":255,"required":true,"remote":null},{"name":"class","column":"discriminator","type":"SHORT","length":255,"required":true,"remote":null},{"name":"code","column":"code_p","type":"TRIMMEDSTRING","length":255,"required":true,"remote":null},{"name":"shortTitle","column":"shorttitle_p","type":"TRIMMEDSTRING","length":255,"required":true,"remote":null},{"name":"userCode","column":"usercode_p","type":"TRIMMEDSTRING","length":255,"required":true,"remote":null},{"name":"ownerType","column":"ownertype_id","type":"LONG","length":0,"required":true,"remote":"trBrsCoefficientOwnerType"},{"name":"boolValueType","column":"boolvaluetype_p","type":"BOOLEAN","length":255,"required":true,"remote":null},{"name":"required","column":"required_p","type":"BOOLEAN","length":255,"required":true,"remote":null},{"name":"comment","column":"comment_p","type":"TRIMMEDSTRING","length":1024,"required":false,"remote":null},{"name":"title","column":"title_p","type":"TRIMMEDSTRING","length":1200,"required":false,"remote":null}]},
		{"name":"trBrsCoefficientOwnerType","abstract":false,"parent":null,"table":"tr_c_coef_owner_type","interfaces":[],"properties":[{"name":"id","column":"id","type":"LONG","length":255,"required":true,"remote":null},{"name":"class","column":"discriminator","type":"SHORT","length":255,"required":true,"remote":null},{"name":"code","column":"code_p","type":"TRIMMEDSTRING","length":255,"required":true,"remote":null},{"name":"title","column":"title_p","type":"TRIMMEDSTRING","length":1200,"required":false,"remote":null}]},
		{"name":"trBrsCoefficientValue","abstract":false,"parent":null,"table":"tr_brs_coef_val","interfaces":[],"properties":[{"name":"id","column":"id","type":"LONG","length":255,"required":true,"remote":null},{"name":"class","column":"discriminator","type":"SHORT","length":255,"required":true,"remote":null},{"name":"owner","column":"owner_id","type":"LONG","length":0,"required":true,"remote":"ru.tandemservice.unitraining.brs.entity.brs.IBrsSettingsOwner"},{"name":"definition","column":"definition_id","type":"LONG","length":0,"required":true,"remote":"trBrsCoefficientDef"},{"name":"valueAsLong","column":"valueaslong_p","type":"LONG","length":255,"required":true,"remote":null}]},
		{"name":"trEduGroupEvent","abstract":false,"parent":null,"table":"tr_edugrp_event","interfaces":[],"properties":[{"name":"id","column":"id","type":"LONG","length":255,"required":true,"remote":null},{"name":"class","column":"discriminator","type":"SHORT","length":255,"required":true,"remote":null},{"name":"journalEvent","column":"journalevent_id","type":"LONG","length":0,"required":true,"remote":"trJournalEvent"},{"name":"group","column":"group_id","type":"LONG","length":0,"required":true,"remote":"eppRealEduGroup"},{"name":"deadlineDate","column":"deadlinedate_p","type":"DATE","length":255,"required":false,"remote":null},{"name":"scheduleEvent","column":"scheduleevent_id","type":"LONG","length":0,"required":false,"remote":"scheduleEvent"},{"name":"bellScheduleEntry","column":"bellscheduleentry_id","type":"LONG","length":0,"required":false,"remote":"scheduleBellEntry"}]},
		{"name":"trEduGroupEventStudent","abstract":false,"parent":null,"table":"tr_edugrp_event_student","interfaces":[],"properties":[{"name":"id","column":"id","type":"LONG","length":255,"required":true,"remote":null},{"name":"class","column":"discriminator","type":"SHORT","length":255,"required":true,"remote":null},{"name":"event","column":"event_id","type":"LONG","length":0,"required":true,"remote":"trEduGroupEvent"},{"name":"studentWpe","column":"studentwpe_id","type":"LONG","length":0,"required":true,"remote":"eppStudentWorkPlanElement"},{"name":"absent","column":"absent_p","type":"BOOLEAN","length":255,"required":false,"remote":null},{"name":"absenceReason","column":"absencereason_id","type":"LONG","length":0,"required":false,"remote":"trAbsenceReason"},{"name":"gradeAsLong","column":"gradeaslong_p","type":"LONG","length":255,"required":false,"remote":null},{"name":"comment","column":"comment_p","type":"TEXT","length":255,"required":false,"remote":null},{"name":"transferDate","column":"transferdate_p","type":"TIMESTAMP","length":255,"required":false,"remote":null},{"name":"markedBy","column":"markedby_id","type":"LONG","length":0,"required":false,"remote":"org.tandemframework.core.sec.IPrincipalContext"}]},
		{"name":"trJournal","abstract":false,"parent":null,"table":"tr_journal","interfaces":["ru.tandemservice.unitraining.brs.entity.brs.IBrsSettingsOwner"],"properties":[{"name":"id","column":"id","type":"LONG","length":255,"required":true,"remote":null},{"name":"class","column":"discriminator","type":"SHORT","length":255,"required":true,"remote":null},{"name":"registryElementPart","column":"registryelementpart_id","type":"LONG","length":0,"required":true,"remote":"eppRegistryElementPart"},{"name":"yearPart","column":"yearpart_id","type":"LONG","length":0,"required":true,"remote":"eppYearPart"},{"name":"title","column":"title_p","type":"TRIMMEDSTRING","length":255,"required":true,"remote":null},{"name":"number","column":"number_p","type":"TRIMMEDSTRING","length":255,"required":true,"remote":null},{"name":"durationBeginDate","column":"durationbegindate_p","type":"DATE","length":255,"required":false,"remote":null},{"name":"durationEndDate","column":"durationenddate_p","type":"DATE","length":255,"required":false,"remote":null},{"name":"state","column":"state_id","type":"LONG","length":0,"required":true,"remote":"eppState"},{"name":"comment","column":"comment_p","type":"TEXT","length":255,"required":false,"remote":null},{"name":"fcaGroup","column":"fcagroup_id","type":"LONG","length":0,"required":false,"remote":"eppFControlActionGroup"},{"name":"gradeScale","column":"gradescale_id","type":"LONG","length":0,"required":false,"remote":"eppGradeScale"},{"name":"responsible","column":"responsible_id","type":"LONG","length":0,"required":false,"remote":"ppsEntry"},{"name":"controlOnlyMode","column":"controlonlymode_p","type":"BOOLEAN","length":255,"required":true,"remote":null},{"name":"hideAttendanceForControlEvents","column":"hdattndncfrcntrlevnts_p","type":"BOOLEAN","length":255,"required":true,"remote":null}]},
		{"name":"trJournalEvent","abstract":true,"parent":null,"table":"tr_journal_event","interfaces":["ru.tandemservice.unitraining.brs.entity.brs.IBrsSettingsOwner"],"properties":[{"name":"id","column":"id","type":"LONG","length":255,"required":true,"remote":null},{"name":"class","column":"discriminator","type":"SHORT","length":255,"required":true,"remote":null},{"name":"journalModule","column":"journalmodule_id","type":"LONG","length":0,"required":true,"remote":"trJournalModule"},{"name":"number","column":"number_p","type":"INT","length":255,"required":true,"remote":null},{"name":"type","column":"type_id","type":"LONG","length":0,"required":true,"remote":"eppGroupType"},{"name":"theme","column":"theme_p","type":"TEXT","length":255,"required":false,"remote":null},{"name":"comment","column":"comment_p","type":"TEXT","length":255,"required":false,"remote":null},{"name":"hasMarks","column":"hasmarks_p","type":"BOOLEAN","length":255,"required":true,"remote":null}]},
		{"name":"trEventAction","abstract":false,"parent":"trJournalEvent","table":"tr_journal_event_action","interfaces":[],"properties":[{"name":"actionType","column":"actiontype_id","type":"LONG","length":0,"required":true,"remote":"eppIControlActionType"}]},
		{"name":"trEventAddon","abstract":false,"parent":"trJournalEvent","table":"tr_journal_event_addon","interfaces":[],"properties":[{"name":"addonType","column":"addontype_id","type":"LONG","length":0,"required":true,"remote":"trAddonType"}]},
		{"name":"trEventLoad","abstract":false,"parent":"trJournalEvent","table":"tr_journal_event_load","interfaces":[],"properties":[]},
		{"name":"trJournalGroup","abstract":false,"parent":null,"table":"tr_journal_group","interfaces":[],"properties":[{"name":"id","column":"id","type":"LONG","length":255,"required":true,"remote":null},{"name":"class","column":"discriminator","type":"SHORT","length":255,"required":true,"remote":null},{"name":"journal","column":"journal_id","type":"LONG","length":0,"required":true,"remote":"trJournal"},{"name":"group","column":"group_id","type":"LONG","length":0,"required":true,"remote":"eppRealEduGroup"}]},
		{"name":"trJournalGroupStudent","abstract":false,"parent":null,"table":"tr_journal_group_student","interfaces":[],"properties":[{"name":"id","column":"id","type":"LONG","length":255,"required":true,"remote":null},{"name":"class","column":"discriminator","type":"SHORT","length":255,"required":true,"remote":null},{"name":"group","column":"group_id","type":"LONG","length":0,"required":true,"remote":"trJournalGroup"},{"name":"studentWpe","column":"studentwpe_id","type":"LONG","length":0,"required":true,"remote":"eppStudentWorkPlanElement"},{"name":"transferDate","column":"transferdate_p","type":"TIMESTAMP","length":255,"required":false,"remote":null}]},
		{"name":"trJournalModule","abstract":false,"parent":null,"table":"tr_journal_module","interfaces":["ru.tandemservice.unitraining.brs.entity.brs.IBrsSettingsOwner"],"properties":[{"name":"id","column":"id","type":"LONG","length":255,"required":true,"remote":null},{"name":"class","column":"discriminator","type":"SHORT","length":255,"required":true,"remote":null},{"name":"journal","column":"journal_id","type":"LONG","length":0,"required":true,"remote":"trJournal"},{"name":"module","column":"module_id","type":"LONG","length":0,"required":true,"remote":"eppRegistryElementPartModule"},{"name":"moduleBeginDate","column":"modulebegindate_p","type":"DATE","length":255,"required":false,"remote":null},{"name":"moduleEndDate","column":"moduleenddate_p","type":"DATE","length":255,"required":false,"remote":null}]},
		{"name":"trOrgUnitSettings","abstract":false,"parent":null,"table":"tr_ou_settings","interfaces":["ru.tandemservice.unitraining.brs.entity.brs.IBrsSettingsOwner"],"properties":[{"name":"id","column":"id","type":"LONG","length":255,"required":true,"remote":null},{"name":"class","column":"discriminator","type":"SHORT","length":255,"required":true,"remote":null},{"name":"orgUnit","column":"orgunit_id","type":"LONG","length":0,"required":true,"remote":"orgUnit"},{"name":"eduYearPart","column":"eduyearpart_id","type":"LONG","length":0,"required":true,"remote":"eppYearPart"},{"name":"useCurrentRatingInSession","column":"usecurrentratinginsession_p","type":"BOOLEAN","length":255,"required":true,"remote":null},{"name":"useCurrentRatingInAttestation","column":"scrrntrtnginattsttn_p","type":"BOOLEAN","length":255,"required":true,"remote":null},{"name":"userScript","column":"userscript_p","type":"TEXT","length":255,"required":false,"remote":null}]}],
 "dependencies":["unischedule","unisession"]}