{"name":"unipgups",
 "interfaces":[],
 "entities":[
		{"name":"nsiUniEduProgramDisciplineStatistics","abstract":false,"parent":null,"table":"nsunedprgrmdscplnsttstcs_t","interfaces":[],"properties":[{"name":"id","column":"id","type":"LONG","length":255,"required":true,"remote":null},{"name":"class","column":"discriminator","type":"SHORT","length":255,"required":true,"remote":null},{"name":"amount","column":"amount_p","type":"INTEGER","length":255,"required":true,"remote":null},{"name":"developForm","column":"developform_id","type":"LONG","length":0,"required":true,"remote":"developForm"},{"name":"course","column":"course_id","type":"LONG","length":0,"required":true,"remote":"course"},{"name":"term","column":"term_id","type":"LONG","length":0,"required":false,"remote":"term"},{"name":"qualification","column":"qualification_id","type":"LONG","length":0,"required":false,"remote":"eduProgramQualification"},{"name":"educationLevels","column":"educationlevels_id","type":"LONG","length":0,"required":false,"remote":"educationLevels"},{"name":"formativeOrgUnit","column":"formativeorgunit_id","type":"LONG","length":0,"required":true,"remote":"orgUnit"},{"name":"territorialOrgUnit","column":"territorialorgunit_id","type":"LONG","length":0,"required":true,"remote":"orgUnit"}]},
		{"name":"pgupsEmployeeMission","abstract":false,"parent":null,"table":"pgupsemployeemission_t","interfaces":[],"properties":[{"name":"id","column":"id","type":"LONG","length":255,"required":true,"remote":null},{"name":"class","column":"discriminator","type":"SHORT","length":255,"required":true,"remote":null},{"name":"employeePost","column":"employeepost_id","type":"LONG","length":0,"required":true,"remote":"employeePost"},{"name":"externalOrgUnit","column":"externalorgunit_id","type":"LONG","length":0,"required":true,"remote":"externalOrgUnit"},{"name":"financingSourceOU","column":"financingsourceou_id","type":"LONG","length":0,"required":false,"remote":"externalOrgUnit"},{"name":"internalFinancingSource","column":"internalfinancingsource_p","type":"BOOLEAN","length":255,"required":true,"remote":null},{"name":"beginDate","column":"begindate_p","type":"DATE","length":255,"required":true,"remote":null},{"name":"endDate","column":"enddate_p","type":"DATE","length":255,"required":true,"remote":null},{"name":"pgupsServiceTask","column":"pgupsservicetask_id","type":"LONG","length":0,"required":true,"remote":"pgupsServiceTask"},{"name":"warrantNumber","column":"warrantnumber_p","type":"TRIMMEDSTRING","length":255,"required":false,"remote":null},{"name":"warrantDate","column":"warrantdate_p","type":"DATE","length":255,"required":false,"remote":null}]},
		{"name":"pgupsEmployeePostExt","abstract":false,"parent":null,"table":"pgupsemployeepostext_t","interfaces":[],"properties":[{"name":"id","column":"id","type":"LONG","length":255,"required":true,"remote":null},{"name":"class","column":"discriminator","type":"SHORT","length":255,"required":true,"remote":null},{"name":"employeePost","column":"employeepost_id","type":"LONG","length":0,"required":true,"remote":"employeePost"},{"name":"natureWork","column":"naturework_p","type":"TRIMMEDSTRING","length":255,"required":false,"remote":null}]},
		{"name":"pgupsEnrForeignEntrant","abstract":false,"parent":null,"table":"pgupsenrforeignentrant_t","interfaces":[],"properties":[{"name":"id","column":"id","type":"LONG","length":255,"required":true,"remote":null},{"name":"class","column":"discriminator","type":"SHORT","length":255,"required":true,"remote":null},{"name":"entrant","column":"entrant_id","type":"LONG","length":0,"required":true,"remote":"enrEntrant"},{"name":"contractNumber","column":"contractnumber_p","type":"TRIMMEDSTRING","length":255,"required":false,"remote":null},{"name":"contractDate","column":"contractdate_p","type":"DATE","length":255,"required":false,"remote":null},{"name":"externalOrgUnit","column":"externalorgunit_id","type":"LONG","length":0,"required":false,"remote":"externalOrgUnit"},{"name":"transcriptionLastName","column":"transcriptionlastname_p","type":"TRIMMEDSTRING","length":255,"required":false,"remote":null},{"name":"transcriptionFirstName","column":"transcriptionfirstname_p","type":"TRIMMEDSTRING","length":255,"required":false,"remote":null},{"name":"transcriptionMiddleName","column":"transcriptionmiddlename_p","type":"TRIMMEDSTRING","length":255,"required":false,"remote":null},{"name":"viewVisa","column":"viewvisa_id","type":"LONG","length":0,"required":false,"remote":"pgupsViewVisa"},{"name":"purposeVisit","column":"purposevisit_p","type":"TRIMMEDSTRING","length":1024,"required":false,"remote":null},{"name":"visaNumber","column":"visanumber_p","type":"TRIMMEDSTRING","length":255,"required":false,"remote":null},{"name":"authorityIssuanceVisa","column":"authorityissuancevisa_p","type":"TRIMMEDSTRING","length":255,"required":false,"remote":null},{"name":"visaDateFrom","column":"visadatefrom_p","type":"DATE","length":255,"required":false,"remote":null},{"name":"visaDateTo","column":"visadateto_p","type":"DATE","length":255,"required":false,"remote":null},{"name":"residenceCountryAddress","column":"residencecountryaddress_p","type":"TRIMMEDSTRING","length":1024,"required":false,"remote":null},{"name":"migrationRegAddress","column":"migrationregaddress_p","type":"TRIMMEDSTRING","length":1024,"required":false,"remote":null},{"name":"migrationRegDateFrom","column":"migrationregdatefrom_p","type":"DATE","length":255,"required":false,"remote":null},{"name":"migrationRegDateTo","column":"migrationregdateto_p","type":"DATE","length":255,"required":false,"remote":null},{"name":"actualAddress","column":"actualaddress_p","type":"TRIMMEDSTRING","length":1024,"required":false,"remote":null},{"name":"contactPhoneNumber","column":"contactphonenumber_p","type":"TRIMMEDSTRING","length":255,"required":false,"remote":null},{"name":"migrationCardNumber","column":"migrationcardnumber_p","type":"TRIMMEDSTRING","length":255,"required":false,"remote":null},{"name":"migrationCardDate","column":"migrationcarddate_p","type":"DATE","length":255,"required":false,"remote":null},{"name":"migrationCardBorderPoint","column":"migrationcardborderpoint_p","type":"TRIMMEDSTRING","length":255,"required":false,"remote":null},{"name":"certificateNumber","column":"certificatenumber_p","type":"TRIMMEDSTRING","length":255,"required":false,"remote":null},{"name":"certificateDate","column":"certificatedate_p","type":"DATE","length":255,"required":false,"remote":null},{"name":"authorityIssuanceCertificate","column":"authorityissuancecertificate_p","type":"TRIMMEDSTRING","length":255,"required":false,"remote":null},{"name":"certificateDateFrom","column":"certificatedatefrom_p","type":"DATE","length":255,"required":false,"remote":null},{"name":"certificateDateTo","column":"certificatedateto_p","type":"DATE","length":255,"required":false,"remote":null}]},
		{"name":"pgupsEntrantsTADataReport","abstract":false,"parent":null,"table":"pgupsentrantstadatareport_t","interfaces":[],"properties":[{"name":"id","column":"id","type":"LONG","length":255,"required":true,"remote":null},{"name":"class","column":"discriminator","type":"SHORT","length":255,"required":true,"remote":null},{"name":"formingDate","column":"formingdate_p","type":"TIMESTAMP","length":255,"required":true,"remote":null},{"name":"dateFrom","column":"datefrom_p","type":"TIMESTAMP","length":255,"required":true,"remote":null},{"name":"dateTo","column":"dateto_p","type":"TIMESTAMP","length":255,"required":true,"remote":null},{"name":"studentCategoryText","column":"studentcategorytext_p","type":"TEXT","length":255,"required":false,"remote":null},{"name":"formativeOrgUnitText","column":"formativeorgunittext_p","type":"TEXT","length":255,"required":false,"remote":null},{"name":"territorialOrgUnitText","column":"territorialorgunittext_p","type":"TEXT","length":255,"required":false,"remote":null},{"name":"developFormText","column":"developformtext_p","type":"TEXT","length":255,"required":false,"remote":null},{"name":"developConditionText","column":"developconditiontext_p","type":"TEXT","length":255,"required":false,"remote":null},{"name":"developTechText","column":"developtechtext_p","type":"TEXT","length":255,"required":false,"remote":null},{"name":"developPeriodText","column":"developperiodtext_p","type":"TEXT","length":255,"required":false,"remote":null},{"name":"allEnrollmentDirections","column":"allenrollmentdirections_p","type":"BOOLEAN","length":255,"required":true,"remote":null},{"name":"enrollmentCampaign","column":"enrollmentcampaign_id","type":"LONG","length":0,"required":true,"remote":"enrollmentCampaign"},{"name":"compensationType","column":"compensationtype_id","type":"LONG","length":0,"required":true,"remote":"compensationType"},{"name":"enrollmentDirection","column":"enrollmentdirection_id","type":"LONG","length":0,"required":false,"remote":"enrollmentDirection"},{"name":"content","column":"content_id","type":"LONG","length":0,"required":true,"remote":"databaseFile"}]},
		{"name":"pgupsForeignEntrant","abstract":false,"parent":null,"table":"pgupsforeignentrant_t","interfaces":[],"properties":[{"name":"id","column":"id","type":"LONG","length":255,"required":true,"remote":null},{"name":"class","column":"discriminator","type":"SHORT","length":255,"required":true,"remote":null},{"name":"entrant","column":"entrant_id","type":"LONG","length":0,"required":true,"remote":"entrant"},{"name":"contractNumber","column":"contractnumber_p","type":"TRIMMEDSTRING","length":255,"required":false,"remote":null},{"name":"contractDate","column":"contractdate_p","type":"DATE","length":255,"required":false,"remote":null},{"name":"externalOrgUnit","column":"externalorgunit_id","type":"LONG","length":0,"required":false,"remote":"externalOrgUnit"},{"name":"transcriptionLastName","column":"transcriptionlastname_p","type":"TRIMMEDSTRING","length":255,"required":false,"remote":null},{"name":"transcriptionFirstName","column":"transcriptionfirstname_p","type":"TRIMMEDSTRING","length":255,"required":false,"remote":null},{"name":"transcriptionMiddleName","column":"transcriptionmiddlename_p","type":"TRIMMEDSTRING","length":255,"required":false,"remote":null},{"name":"viewVisa","column":"viewvisa_id","type":"LONG","length":0,"required":false,"remote":"pgupsViewVisa"},{"name":"purposeVisit","column":"purposevisit_p","type":"TRIMMEDSTRING","length":1024,"required":false,"remote":null},{"name":"visaNumber","column":"visanumber_p","type":"TRIMMEDSTRING","length":255,"required":false,"remote":null},{"name":"authorityIssuanceVisa","column":"authorityissuancevisa_p","type":"TRIMMEDSTRING","length":255,"required":false,"remote":null},{"name":"visaDateFrom","column":"visadatefrom_p","type":"DATE","length":255,"required":false,"remote":null},{"name":"visaDateTo","column":"visadateto_p","type":"DATE","length":255,"required":false,"remote":null},{"name":"residenceCountryAddress","column":"residencecountryaddress_p","type":"TRIMMEDSTRING","length":1024,"required":false,"remote":null},{"name":"migrationRegAddress","column":"migrationregaddress_p","type":"TRIMMEDSTRING","length":1024,"required":false,"remote":null},{"name":"migrationRegDateFrom","column":"migrationregdatefrom_p","type":"DATE","length":255,"required":false,"remote":null},{"name":"migrationRegDateTo","column":"migrationregdateto_p","type":"DATE","length":255,"required":false,"remote":null},{"name":"actualAddress","column":"actualaddress_p","type":"TRIMMEDSTRING","length":1024,"required":false,"remote":null},{"name":"contactPhoneNumber","column":"contactphonenumber_p","type":"TRIMMEDSTRING","length":255,"required":false,"remote":null},{"name":"migrationCardNumber","column":"migrationcardnumber_p","type":"TRIMMEDSTRING","length":255,"required":false,"remote":null},{"name":"migrationCardDate","column":"migrationcarddate_p","type":"DATE","length":255,"required":false,"remote":null},{"name":"migrationCardBorderPoint","column":"migrationcardborderpoint_p","type":"TRIMMEDSTRING","length":255,"required":false,"remote":null},{"name":"certificateNumber","column":"certificatenumber_p","type":"TRIMMEDSTRING","length":255,"required":false,"remote":null},{"name":"certificateDate","column":"certificatedate_p","type":"DATE","length":255,"required":false,"remote":null},{"name":"authorityIssuanceCertificate","column":"authorityissuancecertificate_p","type":"TRIMMEDSTRING","length":255,"required":false,"remote":null},{"name":"certificateDateFrom","column":"certificatedatefrom_p","type":"DATE","length":255,"required":false,"remote":null},{"name":"certificateDateTo","column":"certificatedateto_p","type":"DATE","length":255,"required":false,"remote":null}]},
		{"name":"pgupsMissionToExtractRelation","abstract":false,"parent":null,"table":"pgpsmssntextrctrltn_t","interfaces":[],"properties":[{"name":"id","column":"id","type":"LONG","length":255,"required":true,"remote":null},{"name":"class","column":"discriminator","type":"SHORT","length":255,"required":true,"remote":null},{"name":"extract","column":"extract_id","type":"LONG","length":0,"required":true,"remote":"abstractEmployeeExtract"},{"name":"mission","column":"mission_id","type":"LONG","length":0,"required":true,"remote":"pgupsEmployeeMission"}]},
		{"name":"pgupsServiceTask","abstract":false,"parent":null,"table":"pgupsservicetask_t","interfaces":[],"properties":[{"name":"id","column":"id","type":"LONG","length":255,"required":true,"remote":null},{"name":"class","column":"discriminator","type":"SHORT","length":255,"required":true,"remote":null},{"name":"number","column":"number_p","type":"TRIMMEDSTRING","length":255,"required":false,"remote":null},{"name":"taskDate","column":"taskdate_p","type":"DATE","length":255,"required":false,"remote":null},{"name":"target","column":"target_p","type":"TEXT","length":255,"required":true,"remote":null}]},
		{"name":"pgupsSummaryEnrollmentReport","abstract":false,"parent":null,"table":"pgupssummaryenrollmentreport_t","interfaces":[],"properties":[{"name":"id","column":"id","type":"LONG","length":255,"required":true,"remote":null},{"name":"class","column":"discriminator","type":"SHORT","length":255,"required":true,"remote":null},{"name":"content","column":"content_id","type":"LONG","length":0,"required":true,"remote":"databaseFile"},{"name":"enrollmentCampaign","column":"enrollmentcampaign_id","type":"LONG","length":0,"required":true,"remote":"enrollmentCampaign"},{"name":"formingDate","column":"formingdate_p","type":"TIMESTAMP","length":255,"required":true,"remote":null},{"name":"dateFrom","column":"datefrom_p","type":"DATE","length":255,"required":true,"remote":null},{"name":"dateTo","column":"dateto_p","type":"DATE","length":255,"required":true,"remote":null},{"name":"enrollmentCampaignStepStr","column":"enrollmentcampaignstepstr_p","type":"TRIMMEDSTRING","length":255,"required":true,"remote":null},{"name":"studentCategoryStr","column":"studentcategorystr_p","type":"TRIMMEDSTRING","length":255,"required":false,"remote":null},{"name":"qualificationStr","column":"qualificationstr_p","type":"TRIMMEDSTRING","length":255,"required":false,"remote":null},{"name":"compensationTypeStr","column":"compensationtypestr_p","type":"TRIMMEDSTRING","length":255,"required":false,"remote":null},{"name":"developFormStr","column":"developformstr_p","type":"TRIMMEDSTRING","length":255,"required":false,"remote":null},{"name":"developConditionStr","column":"developconditionstr_p","type":"TRIMMEDSTRING","length":255,"required":false,"remote":null},{"name":"developTechStr","column":"developtechstr_p","type":"TRIMMEDSTRING","length":255,"required":false,"remote":null},{"name":"developPeriodStr","column":"developperiodstr_p","type":"TRIMMEDSTRING","length":255,"required":false,"remote":null}]},
		{"name":"pgupsViewVisa","abstract":false,"parent":null,"table":"pgupsviewvisa_t","interfaces":[],"properties":[{"name":"id","column":"id","type":"LONG","length":255,"required":true,"remote":null},{"name":"class","column":"discriminator","type":"SHORT","length":255,"required":true,"remote":null},{"name":"code","column":"code_p","type":"TRIMMEDSTRING","length":255,"required":true,"remote":null},{"name":"title","column":"title_p","type":"TRIMMEDSTRING","length":255,"required":false,"remote":null}]},
		{"name":"staffRateToPgupsTransfDiffStaffRateExtractRelation","abstract":false,"parent":null,"table":"stffrttpgpstrnsfdffstffrtext_t","interfaces":[],"properties":[{"name":"id","column":"id","type":"LONG","length":255,"required":true,"remote":null},{"name":"class","column":"discriminator","type":"SHORT","length":255,"required":true,"remote":null},{"name":"extract","column":"extract_id","type":"LONG","length":0,"required":true,"remote":"pgupsTransferToDiffStaffRatesExtract"},{"name":"employeePostStaffRateItem","column":"employeepoststaffrateitem_id","type":"LONG","length":0,"required":false,"remote":"employeePostStaffRateItem"},{"name":"financingSource","column":"financingsource_id","type":"LONG","length":0,"required":true,"remote":"financingSource"},{"name":"financingSourceItem","column":"financingsourceitem_id","type":"LONG","length":0,"required":false,"remote":"financingSourceItem"},{"name":"staffListAllocationItem","column":"stafflistallocationitem_id","type":"LONG","length":0,"required":false,"remote":"staffListAllocationItem"},{"name":"staffRate","column":"staffrate_p","type":"DOUBLE","length":255,"required":true,"remote":null},{"name":"financingSourceOld","column":"financingsourceold_id","type":"LONG","length":0,"required":false,"remote":"financingSource"},{"name":"financingSourceItemOld","column":"financingsourceitemold_id","type":"LONG","length":0,"required":false,"remote":"financingSourceItem"},{"name":"staffRateOld","column":"staffrateold_p","type":"DOUBLE","length":255,"required":false,"remote":null}]},
		{"name":"uniPlacesPlaceExt","abstract":false,"parent":null,"table":"uniplacesplaceext_t","interfaces":[],"properties":[{"name":"id","column":"id","type":"LONG","length":255,"required":true,"remote":null},{"name":"class","column":"discriminator","type":"SHORT","length":255,"required":true,"remote":null},{"name":"place","column":"place_id","type":"LONG","length":0,"required":true,"remote":"uniplacesPlace"},{"name":"responsiblePerson","column":"responsibleperson_id","type":"LONG","length":0,"required":false,"remote":"employeePost"},{"name":"pgupsPlace","column":"pgupsplace_id","type":"LONG","length":0,"required":true,"remote":"uniPgupsPlace"},{"name":"mayRented","column":"mayrented_p","type":"BOOLEAN","length":255,"required":true,"remote":null}]},
		{"name":"additionalPaymentExtract","abstract":false,"parent":"singleEmployeeExtract","table":"additionalpaymentextract_t","interfaces":[],"properties":[{"name":"addAgreementNumber","column":"addagreementnumber_p","type":"TRIMMEDSTRING","length":255,"required":true,"remote":null},{"name":"addAgreementDate","column":"addagreementdate_p","type":"DATE","length":255,"required":true,"remote":null},{"name":"contractAgreementNew","column":"contractagreementnew_id","type":"LONG","length":0,"required":false,"remote":"contractCollateralAgreement"}]},
		{"name":"cancelCombinationPostExtract","abstract":false,"parent":"singleEmployeeExtract","table":"cancelcombinationpostextract_t","interfaces":[],"properties":[{"name":"combinationPost","column":"combinationpost_id","type":"LONG","length":0,"required":true,"remote":"combinationPost"},{"name":"removalDate","column":"removaldate_p","type":"DATE","length":255,"required":false,"remote":null},{"name":"changedStaffList","column":"changedstafflist_id","type":"LONG","length":0,"required":false,"remote":"staffList"},{"name":"changeStaffList","column":"changestafflist_p","type":"BOOLEAN","length":255,"required":false,"remote":null},{"name":"endDateOld","column":"enddateold_p","type":"DATE","length":255,"required":false,"remote":null}]},
		{"name":"changeSalaryEmployeePostExtract","abstract":false,"parent":"singleEmployeeExtract","table":"chngslryemplypstextrct_t","interfaces":[],"properties":[{"name":"newSalary","column":"newsalary_p","type":"DOUBLE","length":255,"required":true,"remote":null},{"name":"oldSalary","column":"oldsalary_p","type":"DOUBLE","length":255,"required":false,"remote":null},{"name":"startDate","column":"startdate_p","type":"TIMESTAMP","length":255,"required":true,"remote":null},{"name":"endDate","column":"enddate_p","type":"DATE","length":255,"required":false,"remote":null},{"name":"contractAddAgreementNumber","column":"contractaddagreementnumber_p","type":"TRIMMEDSTRING","length":255,"required":true,"remote":null},{"name":"contractAddAgreementDate","column":"contractaddagreementdate_p","type":"DATE","length":255,"required":true,"remote":null},{"name":"createCollateralAgreement","column":"createcollateralagreement_id","type":"LONG","length":0,"required":false,"remote":"contractCollateralAgreement"}]},
		{"name":"combinationPostExtract","abstract":false,"parent":"singleEmployeeExtract","table":"combinationpostextract_t","interfaces":[],"properties":[{"name":"combinationPostType","column":"combinationposttype_id","type":"LONG","length":0,"required":true,"remote":"combinationPostType"},{"name":"orgUnit","column":"orgunit_id","type":"LONG","length":0,"required":true,"remote":"orgUnit"},{"name":"postBoundedWithQGandQL","column":"postboundedwithqgandql_id","type":"LONG","length":0,"required":true,"remote":"postBoundedWithQGandQL"},{"name":"missingEmployeePost","column":"missingemployeepost_id","type":"LONG","length":0,"required":false,"remote":"employeePost"},{"name":"etksLevels","column":"etkslevels_id","type":"LONG","length":0,"required":false,"remote":"etksLevels"},{"name":"salary","column":"salary_p","type":"DOUBLE","length":255,"required":true,"remote":null},{"name":"contractType","column":"contracttype_id","type":"LONG","length":0,"required":true,"remote":"labourContractType"},{"name":"contractNumber","column":"contractnumber_p","type":"TRIMMEDSTRING","length":255,"required":true,"remote":null},{"name":"contractDate","column":"contractdate_p","type":"DATE","length":255,"required":true,"remote":null},{"name":"contractBeginDate","column":"contractbegindate_p","type":"DATE","length":255,"required":true,"remote":null},{"name":"contractEndDate","column":"contractenddate_p","type":"DATE","length":255,"required":false,"remote":null},{"name":"contractAddAgreementNumber","column":"contractaddagreementnumber_p","type":"TRIMMEDSTRING","length":255,"required":true,"remote":null},{"name":"contractAddAgreementDate","column":"contractaddagreementdate_p","type":"DATE","length":255,"required":true,"remote":null},{"name":"beginDate","column":"begindate_p","type":"DATE","length":255,"required":true,"remote":null},{"name":"endDate","column":"enddate_p","type":"DATE","length":255,"required":false,"remote":null},{"name":"freelance","column":"freelance_p","type":"BOOLEAN","length":255,"required":true,"remote":null},{"name":"createCombinationPost","column":"createcombinationpost_id","type":"LONG","length":0,"required":false,"remote":"combinationPost"},{"name":"createEmployeeContract","column":"createemployeecontract_id","type":"LONG","length":0,"required":false,"remote":"employeeLabourContract"},{"name":"createCollateralAgreement","column":"createcollateralagreement_id","type":"LONG","length":0,"required":false,"remote":"contractCollateralAgreement"}]},
		{"name":"pgupsEmployeeMissionExtract","abstract":false,"parent":"singleEmployeeExtract","table":"pgupsemployeemissionextract_t","interfaces":[],"properties":[{"name":"beginDate","column":"begindate_p","type":"DATE","length":255,"required":true,"remote":null},{"name":"endDate","column":"enddate_p","type":"DATE","length":255,"required":true,"remote":null},{"name":"externalOrgUnit","column":"externalorgunit_id","type":"LONG","length":0,"required":true,"remote":"externalOrgUnit"},{"name":"purposeText","column":"purposetext_p","type":"TEXT","length":255,"required":true,"remote":null},{"name":"taskNumber","column":"tasknumber_p","type":"TRIMMEDSTRING","length":255,"required":false,"remote":null},{"name":"taskDate","column":"taskdate_p","type":"DATE","length":255,"required":false,"remote":null},{"name":"financingSourceOrgUnit","column":"financingsourceorgunit_id","type":"LONG","length":0,"required":false,"remote":"externalOrgUnit"},{"name":"internalFinancingSource","column":"internalfinancingsource_p","type":"BOOLEAN","length":255,"required":true,"remote":null},{"name":"commentText","column":"commenttext_p","type":"TRIMMEDSTRING","length":255,"required":false,"remote":null},{"name":"warrantNumber","column":"warrantnumber_p","type":"TRIMMEDSTRING","length":255,"required":false,"remote":null},{"name":"warrantDate","column":"warrantdate_p","type":"DATE","length":255,"required":false,"remote":null}]},
		{"name":"pgupsTransferToDiffStaffRatesExtract","abstract":false,"parent":"singleEmployeeExtract","table":"pgpstrnsfrtdffstffrtsextrct_t","interfaces":[],"properties":[{"name":"staffRateBefore","column":"staffratebefore_p","type":"DOUBLE","length":255,"required":false,"remote":null},{"name":"staffRateAfter","column":"staffrateafter_p","type":"DOUBLE","length":255,"required":true,"remote":null},{"name":"salaryRaisingCoefficient","column":"salaryraisingcoefficient_id","type":"LONG","length":0,"required":false,"remote":"salaryRaisingCoefficient"},{"name":"etksLevels","column":"etkslevels_id","type":"LONG","length":0,"required":false,"remote":"etksLevels"},{"name":"salary","column":"salary_p","type":"DOUBLE","length":255,"required":true,"remote":null},{"name":"contractType","column":"contracttype_id","type":"LONG","length":0,"required":true,"remote":"labourContractType"},{"name":"contractNumber","column":"contractnumber_p","type":"TRIMMEDSTRING","length":255,"required":true,"remote":null},{"name":"contractDate","column":"contractdate_p","type":"DATE","length":255,"required":true,"remote":null},{"name":"contractBeginDate","column":"contractbegindate_p","type":"DATE","length":255,"required":true,"remote":null},{"name":"contractEndDate","column":"contractenddate_p","type":"DATE","length":255,"required":false,"remote":null},{"name":"contractAddAgreementNumber","column":"contractaddagreementnumber_p","type":"TRIMMEDSTRING","length":255,"required":true,"remote":null},{"name":"contractAddAgreementDate","column":"contractaddagreementdate_p","type":"DATE","length":255,"required":true,"remote":null},{"name":"beginDate","column":"begindate_p","type":"DATE","length":255,"required":true,"remote":null},{"name":"characterWork","column":"characterwork_p","type":"TRIMMEDSTRING","length":255,"required":false,"remote":null},{"name":"createEmployeeContract","column":"createemployeecontract_id","type":"LONG","length":0,"required":false,"remote":"employeeLabourContract"},{"name":"createCollateralAgreement","column":"createcollateralagreement_id","type":"LONG","length":0,"required":false,"remote":"contractCollateralAgreement"},{"name":"freelance","column":"freelance_p","type":"BOOLEAN","length":255,"required":true,"remote":null}]},
		{"name":"prolongationContractExtract","abstract":false,"parent":"singleEmployeeExtract","table":"prolongationcontractextract_t","interfaces":[],"properties":[{"name":"labourContract","column":"labourcontract_id","type":"LONG","length":0,"required":true,"remote":"employeeLabourContract"},{"name":"newEndDate","column":"newenddate_p","type":"DATE","length":255,"required":true,"remote":null},{"name":"oldEndDate","column":"oldenddate_p","type":"DATE","length":255,"required":false,"remote":null},{"name":"oldDismissalDate","column":"olddismissaldate_p","type":"DATE","length":255,"required":false,"remote":null},{"name":"contractAddAgreementNumber","column":"contractaddagreementnumber_p","type":"TRIMMEDSTRING","length":255,"required":true,"remote":null},{"name":"contractAddAgreementDate","column":"contractaddagreementdate_p","type":"DATE","length":255,"required":true,"remote":null},{"name":"createCollateralAgreement","column":"createcollateralagreement_id","type":"LONG","length":0,"required":false,"remote":"contractCollateralAgreement"}]},
		{"name":"uniPgupsPlace","abstract":false,"parent":"uniplacesRegistryRecord","table":"unipgupsplace_t","interfaces":[],"properties":[{"name":"title","column":"title_p","type":"TRIMMEDSTRING","length":255,"required":true,"remote":null},{"name":"number","column":"number_p","type":"STRING","length":255,"required":false,"remote":null},{"name":"floor","column":"floor_id","type":"LONG","length":0,"required":true,"remote":"uniplacesFloor"}]}],
 "dependencies":["uniecc","uniec_fis","unienr14_fis","unienr14_ctr","unidip","moveemployee","unisnpps","unipractice","uniepp_load","unispp","unisp","unisettle","unitjsakai","nsibpms","nsiuniepp"]}