{"name":"unifrdo",
 "interfaces":[],
 "entities":[
		{"name":"frdoDevelopForm","abstract":false,"parent":null,"table":"frdo_c_dev_form_t","interfaces":[],"properties":[{"name":"id","column":"id","type":"LONG","length":255,"required":true,"remote":null},{"name":"class","column":"discriminator","type":"SHORT","length":255,"required":true,"remote":null},{"name":"code","column":"code_p","type":"TRIMMEDSTRING","length":255,"required":true,"remote":null},{"name":"shortTitle","column":"shorttitle_p","type":"TRIMMEDSTRING","length":255,"required":true,"remote":null},{"name":"title","column":"title_p","type":"TRIMMEDSTRING","length":1200,"required":false,"remote":null}]},
		{"name":"frdoEduDocument","abstract":false,"parent":null,"table":"frdo_edu_doc_t","interfaces":[],"properties":[{"name":"id","column":"id","type":"LONG","length":255,"required":true,"remote":null},{"name":"class","column":"discriminator","type":"SHORT","length":255,"required":true,"remote":null},{"name":"blank","column":"blank_id","type":"LONG","length":0,"required":true,"remote":"frdoEduDocumentBlank"},{"name":"seriaBlank","column":"seriablank_p","type":"TRIMMEDSTRING","length":255,"required":true,"remote":null},{"name":"numberBlank","column":"numberblank_p","type":"TRIMMEDSTRING","length":255,"required":true,"remote":null},{"name":"state","column":"state_id","type":"LONG","length":0,"required":true,"remote":"frdoEduDocumentState"},{"name":"dataType","column":"datatype_id","type":"LONG","length":0,"required":true,"remote":"frdoEduDocumentDataType"},{"name":"year","column":"year_p","type":"INTEGER","length":255,"required":true,"remote":null},{"name":"regIndex","column":"regindex_p","type":"TRIMMEDSTRING","length":255,"required":false,"remote":null},{"name":"serialRegNumber","column":"serialregnumber_p","type":"TRIMMEDSTRING","length":255,"required":false,"remote":null},{"name":"lastNameOfOwner","column":"lastnameofowner_p","type":"TRIMMEDSTRING","length":255,"required":false,"remote":null},{"name":"firstNameOfOwner","column":"firstnameofowner_p","type":"TRIMMEDSTRING","length":255,"required":false,"remote":null},{"name":"middleNameOfOwner","column":"middlenameofowner_p","type":"TRIMMEDSTRING","length":255,"required":false,"remote":null},{"name":"issueDate","column":"issuedate_p","type":"DATE","length":255,"required":false,"remote":null},{"name":"issueAddress","column":"issueaddress_id","type":"LONG","length":0,"required":false,"remote":"addressItem"},{"name":"educationLevelTitle","column":"educationleveltitle_p","type":"TRIMMEDSTRING","length":255,"required":false,"remote":null},{"name":"oksoQualificationCode","column":"oksoqualificationcode_p","type":"TRIMMEDSTRING","length":255,"required":false,"remote":null},{"name":"catalogSpecialityCode","column":"catalogspecialitycode_p","type":"TRIMMEDSTRING","length":255,"required":false,"remote":null},{"name":"nameOfdegreeOrQualification","column":"nameofdegreeorqualification_p","type":"TRIMMEDSTRING","length":255,"required":false,"remote":null},{"name":"dateOfStateCertificationCommision","column":"dtofsttcrtfctncmmsn_p","type":"DATE","length":255,"required":false,"remote":null},{"name":"numberOfStateCertificationCommision","column":"nmbrofsttcrtfctncmmsn_p","type":"TRIMMEDSTRING","length":255,"required":false,"remote":null},{"name":"fioOfCommissionChairman","column":"fioofcommissionchairman_p","type":"TRIMMEDSTRING","length":255,"required":false,"remote":null},{"name":"standartEduPeriod","column":"standarteduperiod_p","type":"TRIMMEDSTRING","length":255,"required":false,"remote":null},{"name":"numberOfStudentExcludeOrder","column":"numberofstudentexcludeorder_p","type":"TRIMMEDSTRING","length":255,"required":false,"remote":null},{"name":"endDate","column":"enddate_p","type":"DATE","length":255,"required":false,"remote":null},{"name":"entranceDate","column":"entrancedate_p","type":"DATE","length":255,"required":false,"remote":null},{"name":"entranceYear","column":"entranceyear_p","type":"INTEGER","length":255,"required":false,"remote":null},{"name":"endYear","column":"endyear_p","type":"INTEGER","length":255,"required":false,"remote":null},{"name":"developForm","column":"developform_id","type":"LONG","length":0,"required":false,"remote":"frdoDevelopForm"},{"name":"birthDate","column":"birthdate_p","type":"DATE","length":255,"required":false,"remote":null},{"name":"specialization","column":"specialization_p","type":"TRIMMEDSTRING","length":255,"required":false,"remote":null},{"name":"eduInstitution","column":"eduinstitution_p","type":"TRIMMEDSTRING","length":255,"required":false,"remote":null},{"name":"lastEduInstitutionDocument","column":"lasteduinstitutiondocument_p","type":"TRIMMEDSTRING","length":255,"required":false,"remote":null},{"name":"eduDocument","column":"edudocument_id","type":"LONG","length":0,"required":false,"remote":"frdoEduDocument"},{"name":"dateOfDuplicateDocumentOrder","column":"dateofduplicatedocumentorder_p","type":"DATE","length":255,"required":false,"remote":null},{"name":"numberOfDuplicateDocumentOrder","column":"nmbrofdplctdcmntordr_p","type":"TRIMMEDSTRING","length":255,"required":false,"remote":null},{"name":"replaceDate","column":"replacedate_p","type":"DATE","length":255,"required":false,"remote":null},{"name":"corruptedDate","column":"corrupteddate_p","type":"DATE","length":255,"required":false,"remote":null},{"name":"specialRank","column":"specialrank_p","type":"TRIMMEDSTRING","length":255,"required":false,"remote":null},{"name":"fioOfOrgUnitHead","column":"fiooforgunithead_p","type":"TRIMMEDSTRING","length":255,"required":false,"remote":null},{"name":"formingDate","column":"formingdate_p","type":"TIMESTAMP","length":255,"required":true,"remote":null},{"name":"lastChangeDate","column":"lastchangedate_p","type":"TIMESTAMP","length":255,"required":true,"remote":null},{"name":"creatorName","column":"creatorname_p","type":"TRIMMEDSTRING","length":255,"required":false,"remote":null},{"name":"serialRegNumberUniqKey","column":"serialregnumberuniqkey_p","type":"TRIMMEDSTRING","length":255,"required":false,"remote":null}]},
		{"name":"frdoEduDocumentBlank","abstract":false,"parent":null,"table":"frdo_c_edu_doc_blank_t","interfaces":[],"properties":[{"name":"id","column":"id","type":"LONG","length":255,"required":true,"remote":null},{"name":"class","column":"discriminator","type":"SHORT","length":255,"required":true,"remote":null},{"name":"code","column":"code_p","type":"TRIMMEDSTRING","length":255,"required":true,"remote":null},{"name":"title","column":"title_p","type":"TRIMMEDSTRING","length":1200,"required":true,"remote":null},{"name":"eduDocumentType","column":"edudocumenttype_id","type":"LONG","length":0,"required":true,"remote":"frdoEduDocumentType"}]},
		{"name":"frdoEduDocumentBlankProperty","abstract":false,"parent":null,"table":"frdo_c_edu_doc_blank_prop_t","interfaces":[],"properties":[{"name":"id","column":"id","type":"LONG","length":255,"required":true,"remote":null},{"name":"class","column":"discriminator","type":"SHORT","length":255,"required":true,"remote":null},{"name":"code","column":"code_p","type":"TRIMMEDSTRING","length":255,"required":true,"remote":null},{"name":"priority","column":"priority_p","type":"INTEGER","length":255,"required":true,"remote":null},{"name":"name","column":"name_p","type":"TRIMMEDSTRING","length":255,"required":true,"remote":null},{"name":"title","column":"title_p","type":"TRIMMEDSTRING","length":1200,"required":false,"remote":null}]},
		{"name":"frdoEduDocumentBlankPropertySettings","abstract":false,"parent":null,"table":"frdo_c_edu_doc_blank_p_set_t","interfaces":[],"properties":[{"name":"id","column":"id","type":"LONG","length":255,"required":true,"remote":null},{"name":"class","column":"discriminator","type":"SHORT","length":255,"required":true,"remote":null},{"name":"eduDocumentBlank","column":"edudocumentblank_id","type":"LONG","length":0,"required":true,"remote":"frdoEduDocumentBlank"},{"name":"eduDocumentBlankProperty","column":"edudocumentblankproperty_id","type":"LONG","length":0,"required":true,"remote":"frdoEduDocumentBlankProperty"},{"name":"required","column":"required_p","type":"BOOLEAN","length":255,"required":true,"remote":null}]},
		{"name":"frdoEduDocumentDataType","abstract":false,"parent":null,"table":"frdo_c_edu_doc_data_type_t","interfaces":[],"properties":[{"name":"id","column":"id","type":"LONG","length":255,"required":true,"remote":null},{"name":"class","column":"discriminator","type":"SHORT","length":255,"required":true,"remote":null},{"name":"code","column":"code_p","type":"TRIMMEDSTRING","length":255,"required":true,"remote":null},{"name":"shortTitle","column":"shorttitle_p","type":"TRIMMEDSTRING","length":255,"required":true,"remote":null},{"name":"title","column":"title_p","type":"TRIMMEDSTRING","length":1200,"required":false,"remote":null}]},
		{"name":"frdoEduDocumentState","abstract":false,"parent":null,"table":"frdo_c_edu_doc_state_t","interfaces":[],"properties":[{"name":"id","column":"id","type":"LONG","length":255,"required":true,"remote":null},{"name":"class","column":"discriminator","type":"SHORT","length":255,"required":true,"remote":null},{"name":"code","column":"code_p","type":"TRIMMEDSTRING","length":255,"required":true,"remote":null},{"name":"title","column":"title_p","type":"TRIMMEDSTRING","length":1200,"required":false,"remote":null}]},
		{"name":"frdoEduDocumentType","abstract":false,"parent":null,"table":"frdo_c_edu_doc_type_t","interfaces":[],"properties":[{"name":"id","column":"id","type":"LONG","length":255,"required":true,"remote":null},{"name":"class","column":"discriminator","type":"SHORT","length":255,"required":true,"remote":null},{"name":"code","column":"code_p","type":"TRIMMEDSTRING","length":255,"required":true,"remote":null},{"name":"title","column":"title_p","type":"TRIMMEDSTRING","length":1200,"required":true,"remote":null},{"name":"educationLevel","column":"educationlevel_id","type":"LONG","length":0,"required":true,"remote":"frdoEducationLevel"}]},
		{"name":"frdoEduDocumentsPackage","abstract":false,"parent":null,"table":"frdo_edu_doc_pck_t","interfaces":[],"properties":[{"name":"id","column":"id","type":"LONG","length":255,"required":true,"remote":null},{"name":"class","column":"discriminator","type":"SHORT","length":255,"required":true,"remote":null},{"name":"title","column":"title_p","type":"TRIMMEDSTRING","length":255,"required":true,"remote":null},{"name":"issueYear","column":"issueyear_p","type":"INTEGER","length":255,"required":true,"remote":null},{"name":"educationLevel","column":"educationlevel_id","type":"LONG","length":0,"required":true,"remote":"frdoEducationLevel"},{"name":"fileVersion","column":"fileversion_p","type":"TRIMMEDSTRING","length":255,"required":true,"remote":null},{"name":"fioPersonCreated","column":"fiopersoncreated_p","type":"TRIMMEDSTRING","length":255,"required":true,"remote":null},{"name":"fioPersonApproved","column":"fiopersonapproved_p","type":"TRIMMEDSTRING","length":255,"required":true,"remote":null},{"name":"formingDate","column":"formingdate_p","type":"TIMESTAMP","length":255,"required":true,"remote":null},{"name":"fromatVersion","column":"fromatversion_p","type":"TRIMMEDSTRING","length":255,"required":true,"remote":null},{"name":"nameOrganization","column":"nameorganization_p","type":"TRIMMEDSTRING","length":255,"required":true,"remote":null},{"name":"idOrganization","column":"idorganization_p","type":"TRIMMEDSTRING","length":255,"required":true,"remote":null},{"name":"placeOrganization","column":"placeorganization_p","type":"TRIMMEDSTRING","length":255,"required":true,"remote":null},{"name":"innOrganization","column":"innorganization_p","type":"TRIMMEDSTRING","length":255,"required":true,"remote":null},{"name":"kppOrganization","column":"kpporganization_p","type":"TRIMMEDSTRING","length":255,"required":true,"remote":null},{"name":"ogrnOrganization","column":"ogrnorganization_p","type":"TRIMMEDSTRING","length":255,"required":true,"remote":null},{"name":"content","column":"content_id","type":"LONG","length":0,"required":true,"remote":"databaseFile"},{"name":"manufactureDate","column":"manufacturedate_p","type":"DATE","length":255,"required":true,"remote":null},{"name":"eduDocumentFrom","column":"edudocumentfrom_p","type":"DATE","length":255,"required":false,"remote":null},{"name":"eduDocumentTo","column":"edudocumentto_p","type":"DATE","length":255,"required":false,"remote":null}]},
		{"name":"frdoEducationLevel","abstract":false,"parent":null,"table":"frdo_c_edu_lvl_t","interfaces":[],"properties":[{"name":"id","column":"id","type":"LONG","length":255,"required":true,"remote":null},{"name":"class","column":"discriminator","type":"SHORT","length":255,"required":true,"remote":null},{"name":"code","column":"code_p","type":"TRIMMEDSTRING","length":255,"required":true,"remote":null},{"name":"shortTitle","column":"shorttitle_p","type":"TRIMMEDSTRING","length":255,"required":true,"remote":null},{"name":"title","column":"title_p","type":"TRIMMEDSTRING","length":1200,"required":false,"remote":null}]}],
 "dependencies":["uni"]}