{"name":"unirsmu",
 "interfaces":[],
 "entities":[
		{"name":"rsmuVectorIds","abstract":false,"parent":null,"table":"rsmuvectorids_t","interfaces":[],"properties":[{"name":"id","column":"id","type":"LONG","length":255,"required":true,"remote":null},{"name":"class","column":"discriminator","type":"SHORT","length":255,"required":true,"remote":null},{"name":"vectorId","column":"vectorid_p","type":"TRIMMEDSTRING","length":255,"required":true,"remote":null},{"name":"entityId","column":"entityid_p","type":"LONG","length":255,"required":true,"remote":null},{"name":"entityType","column":"entitytype_p","type":"TRIMMEDSTRING","length":255,"required":true,"remote":null},{"name":"syncTime","column":"synctime_p","type":"TIMESTAMP","length":255,"required":false,"remote":null}]},
		{"name":"rsmuEnrReportContractTransfer","abstract":false,"parent":"storableReport","table":"rsmu_enr14_ctr_transfer_t","interfaces":[],"properties":[{"name":"enrollmentCampaign","column":"enrollmentcampaign_id","type":"LONG","length":0,"required":true,"remote":"enrEnrollmentCampaign"},{"name":"enrOrder","column":"enrorder_p","type":"TRIMMEDSTRING","length":255,"required":true,"remote":null},{"name":"formativeOrgUnit","column":"formativeorgunit_p","type":"TEXT","length":255,"required":false,"remote":null},{"name":"programSubject","column":"programsubject_p","type":"TEXT","length":255,"required":false,"remote":null},{"name":"eduProgram","column":"eduprogram_p","type":"TEXT","length":255,"required":false,"remote":null},{"name":"programSet","column":"programset_p","type":"TEXT","length":255,"required":false,"remote":null}]},
		{"name":"rsmuEnrReportEntrantRegistrationJournal","abstract":false,"parent":"storableReport","table":"rsmu_enr14_rep_reg_journal_t","interfaces":[],"properties":[{"name":"enrollmentCampaign","column":"enrollmentcampaign_id","type":"LONG","length":0,"required":true,"remote":"enrEnrollmentCampaign"},{"name":"dateFrom","column":"datefrom_p","type":"TIMESTAMP","length":255,"required":true,"remote":null},{"name":"dateTo","column":"dateto_p","type":"TIMESTAMP","length":255,"required":true,"remote":null},{"name":"requestType","column":"requesttype_p","type":"TRIMMEDSTRING","length":255,"required":false,"remote":null},{"name":"compensationType","column":"compensationtype_p","type":"TRIMMEDSTRING","length":255,"required":false,"remote":null},{"name":"programForm","column":"programform_p","type":"TRIMMEDSTRING","length":255,"required":false,"remote":null},{"name":"competitionType","column":"competitiontype_p","type":"TRIMMEDSTRING","length":255,"required":false,"remote":null},{"name":"enrOrgUnit","column":"enrorgunit_p","type":"TEXT","length":255,"required":false,"remote":null},{"name":"formativeOrgUnit","column":"formativeorgunit_p","type":"TEXT","length":255,"required":false,"remote":null},{"name":"programSubject","column":"programsubject_p","type":"TEXT","length":255,"required":false,"remote":null},{"name":"eduProgram","column":"eduprogram_p","type":"TEXT","length":255,"required":false,"remote":null},{"name":"programSet","column":"programset_p","type":"TEXT","length":255,"required":false,"remote":null},{"name":"enrollmentCommission","column":"enrollmentcommission_p","type":"TEXT","length":255,"required":false,"remote":null},{"name":"groupByEnrCommission","column":"groupbyenrcommission_p","type":"TRIMMEDSTRING","length":255,"required":false,"remote":null}]},
		{"name":"rsmuEnrReportPersonalFileTransferList","abstract":false,"parent":"storableReport","table":"rsmu_enr14_rep_file_tr_list_t","interfaces":[],"properties":[{"name":"enrollmentCampaign","column":"enrollmentcampaign_id","type":"LONG","length":0,"required":true,"remote":"enrEnrollmentCampaign"},{"name":"enrOrder","column":"enrorder_p","type":"TRIMMEDSTRING","length":255,"required":true,"remote":null},{"name":"formativeOrgUnit","column":"formativeorgunit_p","type":"TEXT","length":255,"required":false,"remote":null},{"name":"programSubject","column":"programsubject_p","type":"TEXT","length":255,"required":false,"remote":null},{"name":"eduProgram","column":"eduprogram_p","type":"TEXT","length":255,"required":false,"remote":null},{"name":"programSet","column":"programset_p","type":"TEXT","length":255,"required":false,"remote":null},{"name":"competitionType","column":"competitiontype_p","type":"TRIMMEDSTRING","length":255,"required":false,"remote":null},{"name":"enrOrgUnit","column":"enrorgunit_p","type":"TEXT","length":255,"required":true,"remote":null}]},
		{"name":"rsmuEnrReportRatingList","abstract":false,"parent":"storableReport","table":"rsmu_enr14_rep_rating_list_t","interfaces":[],"properties":[{"name":"enrollmentCampaign","column":"enrollmentcampaign_id","type":"LONG","length":0,"required":true,"remote":"enrEnrollmentCampaign"},{"name":"dateFrom","column":"datefrom_p","type":"TIMESTAMP","length":255,"required":true,"remote":null},{"name":"dateTo","column":"dateto_p","type":"TIMESTAMP","length":255,"required":true,"remote":null},{"name":"requestType","column":"requesttype_p","type":"TRIMMEDSTRING","length":255,"required":false,"remote":null},{"name":"compensationType","column":"compensationtype_p","type":"TRIMMEDSTRING","length":255,"required":false,"remote":null},{"name":"programForm","column":"programform_p","type":"TRIMMEDSTRING","length":255,"required":false,"remote":null},{"name":"competitionType","column":"competitiontype_p","type":"TRIMMEDSTRING","length":255,"required":false,"remote":null},{"name":"enrOrgUnit","column":"enrorgunit_p","type":"TEXT","length":255,"required":false,"remote":null},{"name":"formativeOrgUnit","column":"formativeorgunit_p","type":"TEXT","length":255,"required":false,"remote":null},{"name":"programSubject","column":"programsubject_p","type":"TEXT","length":255,"required":false,"remote":null},{"name":"eduProgram","column":"eduprogram_p","type":"TEXT","length":255,"required":false,"remote":null},{"name":"programSet","column":"programset_p","type":"TEXT","length":255,"required":false,"remote":null},{"name":"parallel","column":"parallel_p","type":"TEXT","length":255,"required":false,"remote":null}]}],
 "dependencies":["unienr14_fis","uniepp_load","unitraining","unidip","nsibpms","nsiunienr14_ctr","nsimovestudent"]}