{"name":"aspirantrmc",
 "interfaces":[],
 "entities":[
		{"name":"aspAction","abstract":false,"parent":null,"table":"aspaction_t","interfaces":[],"properties":[{"name":"id","column":"id","type":"LONG","length":255,"required":true,"remote":null},{"name":"class","column":"discriminator","type":"SHORT","length":255,"required":true,"remote":null},{"name":"statusAction","column":"statusaction_id","type":"LONG","length":0,"required":true,"remote":"statusAction"},{"name":"typeAction","column":"typeaction_id","type":"LONG","length":0,"required":true,"remote":"typeAction"},{"name":"typeParticipation","column":"typeparticipation_id","type":"LONG","length":0,"required":true,"remote":"typeParticipation"},{"name":"student","column":"student_id","type":"LONG","length":0,"required":false,"remote":"student"},{"name":"name","column":"name_p","type":"TRIMMEDSTRING","length":255,"required":false,"remote":null},{"name":"startDate","column":"startdate_p","type":"TIMESTAMP","length":255,"required":false,"remote":null},{"name":"endDate","column":"enddate_p","type":"TIMESTAMP","length":255,"required":false,"remote":null},{"name":"originator","column":"originator_id","type":"LONG","length":0,"required":false,"remote":"aspActionOriginator"},{"name":"supervisor","column":"supervisor_id","type":"LONG","length":0,"required":false,"remote":"aspActionSupervisor"},{"name":"address","column":"address_id","type":"LONG","length":0,"required":false,"remote":"addressDetailed"}]},
		{"name":"aspActionOriginator","abstract":false,"parent":null,"table":"aspactionoriginator_t","interfaces":[],"properties":[{"name":"id","column":"id","type":"LONG","length":255,"required":true,"remote":null},{"name":"class","column":"discriminator","type":"SHORT","length":255,"required":true,"remote":null},{"name":"name","column":"name_p","type":"TRIMMEDSTRING","length":255,"required":false,"remote":null}]},
		{"name":"aspActionSupervisor","abstract":false,"parent":null,"table":"aspactionsupervisor_t","interfaces":[],"properties":[{"name":"id","column":"id","type":"LONG","length":255,"required":true,"remote":null},{"name":"class","column":"discriminator","type":"SHORT","length":255,"required":true,"remote":null},{"name":"fio","column":"fio_p","type":"TRIMMEDSTRING","length":255,"required":false,"remote":null},{"name":"post","column":"post_p","type":"TRIMMEDSTRING","length":255,"required":false,"remote":null},{"name":"phone","column":"phone_p","type":"TRIMMEDSTRING","length":255,"required":false,"remote":null},{"name":"email","column":"email_p","type":"TRIMMEDSTRING","length":255,"required":false,"remote":null},{"name":"address","column":"address_id","type":"LONG","length":0,"required":false,"remote":"addressDetailed"}]},
		{"name":"aspirantPracticeType","abstract":false,"parent":null,"table":"aspirantpracticetype_t","interfaces":[],"properties":[{"name":"id","column":"id","type":"LONG","length":255,"required":true,"remote":null},{"name":"class","column":"discriminator","type":"SHORT","length":255,"required":true,"remote":null},{"name":"code","column":"code_p","type":"TRIMMEDSTRING","length":255,"required":true,"remote":null},{"name":"parent","column":"parent_id","type":"LONG","length":0,"required":false,"remote":"aspirantPracticeType"},{"name":"title","column":"title_p","type":"TRIMMEDSTRING","length":1200,"required":false,"remote":null}]},
		{"name":"aspirantToEmployee","abstract":false,"parent":null,"table":"aspiranttoemployee_t","interfaces":[],"properties":[{"name":"id","column":"id","type":"LONG","length":255,"required":true,"remote":null},{"name":"class","column":"discriminator","type":"SHORT","length":255,"required":true,"remote":null},{"name":"aspirant","column":"aspirant_id","type":"LONG","length":0,"required":true,"remote":"student"},{"name":"employee","column":"employee_id","type":"LONG","length":0,"required":true,"remote":"employee"}]},
		{"name":"candidateExams","abstract":false,"parent":null,"table":"candidateexams_t","interfaces":[],"properties":[{"name":"id","column":"id","type":"LONG","length":255,"required":true,"remote":null},{"name":"class","column":"discriminator","type":"SHORT","length":255,"required":true,"remote":null},{"name":"aspirant","column":"aspirant_id","type":"LONG","length":0,"required":true,"remote":"student"},{"name":"entranceDisciplineType","column":"entrancedisciplinetype_id","type":"LONG","length":0,"required":true,"remote":"entranceDisciplineType"},{"name":"educationSubject","column":"educationsubject_id","type":"LONG","length":0,"required":true,"remote":"educationSubject"},{"name":"mark","column":"mark_id","type":"LONG","length":0,"required":true,"remote":"sessionMarkGradeValueCatalogItem"},{"name":"date","column":"date_p","type":"TIMESTAMP","length":255,"required":true,"remote":null},{"name":"eduInstitution","column":"eduinstitution_id","type":"LONG","length":0,"required":true,"remote":"eduInstitution"},{"name":"document","column":"document_id","type":"LONG","length":0,"required":true,"remote":"educationDocumentType"},{"name":"numberDocument","column":"numberdocument_p","type":"TRIMMEDSTRING","length":255,"required":true,"remote":null},{"name":"dateDocument","column":"datedocument_p","type":"TIMESTAMP","length":255,"required":true,"remote":null}]},
		{"name":"defenseDissertationWork","abstract":false,"parent":null,"table":"defensedissertationwork_t","interfaces":[],"properties":[{"name":"id","column":"id","type":"LONG","length":255,"required":true,"remote":null},{"name":"class","column":"discriminator","type":"SHORT","length":255,"required":true,"remote":null},{"name":"aspirant","column":"aspirant_id","type":"LONG","length":0,"required":true,"remote":"student"},{"name":"title","column":"title_p","type":"TRIMMEDSTRING","length":1024,"required":true,"remote":null},{"name":"mark","column":"mark_id","type":"LONG","length":0,"required":false,"remote":"sessionMarkGradeValueCatalogItem"},{"name":"dissertationSoviet","column":"dissertationsoviet_id","type":"LONG","length":0,"required":false,"remote":"dissertationSoviet"},{"name":"educationLevelScientific","column":"educationlevelscientific_id","type":"LONG","length":0,"required":false,"remote":"educationLevelsHighSchool"},{"name":"chairman","column":"chairman_id","type":"LONG","length":0,"required":false,"remote":"staffDissertationSoviet"},{"name":"viceChairman","column":"vicechairman_id","type":"LONG","length":0,"required":false,"remote":"staffDissertationSoviet"},{"name":"secretary","column":"secretary_id","type":"LONG","length":0,"required":false,"remote":"staffDissertationSoviet"}]},
		{"name":"dissertationSoviet","abstract":false,"parent":null,"table":"dissertationsoviet_t","interfaces":[],"properties":[{"name":"id","column":"id","type":"LONG","length":255,"required":true,"remote":null},{"name":"class","column":"discriminator","type":"SHORT","length":255,"required":true,"remote":null},{"name":"code","column":"code_p","type":"TRIMMEDSTRING","length":255,"required":true,"remote":null},{"name":"sovietCode","column":"sovietcode_p","type":"STRING","length":255,"required":true,"remote":null},{"name":"title","column":"title_p","type":"TRIMMEDSTRING","length":1024,"required":true,"remote":null},{"name":"use","column":"use_p","type":"BOOLEAN","length":255,"required":true,"remote":null}]},
		{"name":"financing","abstract":false,"parent":null,"table":"financing_t","interfaces":[],"properties":[{"name":"id","column":"id","type":"LONG","length":255,"required":true,"remote":null},{"name":"class","column":"discriminator","type":"SHORT","length":255,"required":true,"remote":null},{"name":"code","column":"code_p","type":"TRIMMEDSTRING","length":255,"required":true,"remote":null},{"name":"title","column":"title_p","type":"TRIMMEDSTRING","length":1200,"required":false,"remote":null}]},
		{"name":"leadOrganization2Research","abstract":false,"parent":null,"table":"leadorganization2research_t","interfaces":[],"properties":[{"name":"id","column":"id","type":"LONG","length":255,"required":true,"remote":null},{"name":"class","column":"discriminator","type":"SHORT","length":255,"required":true,"remote":null},{"name":"research","column":"research_id","type":"LONG","length":0,"required":false,"remote":"scientificResearch"},{"name":"externalOrgUnit","column":"externalorgunit_id","type":"LONG","length":0,"required":false,"remote":"externalOrgUnit"},{"name":"current","column":"current_p","type":"BOOLEAN","length":255,"required":true,"remote":null}]},
		{"name":"libCardNumber","abstract":false,"parent":null,"table":"libcardnumber_t","interfaces":[],"properties":[{"name":"id","column":"id","type":"LONG","length":255,"required":true,"remote":null},{"name":"class","column":"discriminator","type":"SHORT","length":255,"required":true,"remote":null},{"name":"student","column":"student_id","type":"LONG","length":0,"required":true,"remote":"student"},{"name":"number","column":"number_p","type":"TRIMMEDSTRING","length":255,"required":true,"remote":null}]},
		{"name":"postDissertationSoviet","abstract":false,"parent":null,"table":"postdissertationsoviet_t","interfaces":[],"properties":[{"name":"id","column":"id","type":"LONG","length":255,"required":true,"remote":null},{"name":"class","column":"discriminator","type":"SHORT","length":255,"required":true,"remote":null},{"name":"code","column":"code_p","type":"TRIMMEDSTRING","length":255,"required":true,"remote":null},{"name":"head","column":"head_p","type":"BOOLEAN","length":255,"required":false,"remote":null},{"name":"title","column":"title_p","type":"TRIMMEDSTRING","length":1200,"required":false,"remote":null}]},
		{"name":"practiceWork2Research","abstract":false,"parent":null,"table":"practicework2research_t","interfaces":[],"properties":[{"name":"id","column":"id","type":"LONG","length":255,"required":true,"remote":null},{"name":"class","column":"discriminator","type":"SHORT","length":255,"required":true,"remote":null},{"name":"research","column":"research_id","type":"LONG","length":0,"required":false,"remote":"scientificResearch"},{"name":"externalOrgUnit","column":"externalorgunit_id","type":"LONG","length":0,"required":false,"remote":"externalOrgUnit"},{"name":"startDate","column":"startdate_p","type":"TIMESTAMP","length":255,"required":false,"remote":null},{"name":"endDate","column":"enddate_p","type":"TIMESTAMP","length":255,"required":false,"remote":null},{"name":"type","column":"type_id","type":"LONG","length":0,"required":false,"remote":"aspirantPracticeType"},{"name":"mark","column":"mark_id","type":"LONG","length":0,"required":false,"remote":"sessionMarkGradeValueCatalogItem"},{"name":"current","column":"current_p","type":"BOOLEAN","length":255,"required":true,"remote":null}]},
		{"name":"publishingHouse","abstract":false,"parent":null,"table":"publishinghouse_t","interfaces":[],"properties":[{"name":"id","column":"id","type":"LONG","length":255,"required":true,"remote":null},{"name":"class","column":"discriminator","type":"SHORT","length":255,"required":true,"remote":null},{"name":"title","column":"title_p","type":"TRIMMEDSTRING","length":255,"required":true,"remote":null}]},
		{"name":"relDissertationSovietStaffPost","abstract":false,"parent":null,"table":"rldssrttnsvtstffpst_t","interfaces":[],"properties":[{"name":"id","column":"id","type":"LONG","length":255,"required":true,"remote":null},{"name":"class","column":"discriminator","type":"SHORT","length":255,"required":true,"remote":null},{"name":"dissertationSoviet","column":"dissertationsoviet_id","type":"LONG","length":0,"required":true,"remote":"dissertationSoviet"},{"name":"staffDissertationSoviet","column":"staffdissertationsoviet_id","type":"LONG","length":0,"required":false,"remote":"staffDissertationSoviet"},{"name":"postDissertationSoviet","column":"postdissertationsoviet_id","type":"LONG","length":0,"required":false,"remote":"postDissertationSoviet"}]},
		{"name":"relEducationLevelScientificDissertationSoviet","abstract":false,"parent":null,"table":"rledctnlvlscntfcdssrttnsvt_t","interfaces":[],"properties":[{"name":"id","column":"id","type":"LONG","length":255,"required":true,"remote":null},{"name":"class","column":"discriminator","type":"SHORT","length":255,"required":true,"remote":null},{"name":"educationLevelScientific","column":"educationlevelscientific_id","type":"LONG","length":0,"required":true,"remote":"educationLevelHigher"},{"name":"dissertationSoviet","column":"dissertationsoviet_id","type":"LONG","length":0,"required":true,"remote":"dissertationSoviet"}]},
		{"name":"scienceMission","abstract":false,"parent":null,"table":"sciencemission_t","interfaces":[],"properties":[{"name":"id","column":"id","type":"LONG","length":255,"required":true,"remote":null},{"name":"class","column":"discriminator","type":"SHORT","length":255,"required":true,"remote":null},{"name":"student","column":"student_id","type":"LONG","length":0,"required":true,"remote":"student"},{"name":"name","column":"name_p","type":"TRIMMEDSTRING","length":255,"required":true,"remote":null},{"name":"description","column":"description_p","type":"TRIMMEDSTRING","length":255,"required":false,"remote":null},{"name":"startDate","column":"startdate_p","type":"TIMESTAMP","length":255,"required":false,"remote":null},{"name":"endDate","column":"enddate_p","type":"TIMESTAMP","length":255,"required":false,"remote":null},{"name":"financing","column":"financing_id","type":"LONG","length":0,"required":false,"remote":"financing"},{"name":"statusMission","column":"statusmission_id","type":"LONG","length":0,"required":false,"remote":"statusMission"},{"name":"note","column":"note_p","type":"TRIMMEDSTRING","length":255,"required":false,"remote":null},{"name":"organization","column":"organization_p","type":"TRIMMEDSTRING","length":255,"required":false,"remote":null},{"name":"address","column":"address_id","type":"LONG","length":0,"required":false,"remote":"addressDetailed"},{"name":"fio","column":"fio_p","type":"TRIMMEDSTRING","length":255,"required":false,"remote":null},{"name":"post","column":"post_p","type":"TRIMMEDSTRING","length":255,"required":false,"remote":null},{"name":"phone","column":"phone_p","type":"TRIMMEDSTRING","length":255,"required":false,"remote":null},{"name":"email","column":"email_p","type":"TRIMMEDSTRING","length":255,"required":false,"remote":null}]},
		{"name":"scienceParticipant","abstract":false,"parent":null,"table":"scienceparticipant_t","interfaces":[],"properties":[{"name":"id","column":"id","type":"LONG","length":255,"required":true,"remote":null},{"name":"class","column":"discriminator","type":"SHORT","length":255,"required":true,"remote":null},{"name":"person","column":"person_id","type":"LONG","length":0,"required":false,"remote":"person"},{"name":"research","column":"research_id","type":"LONG","length":0,"required":false,"remote":"scientificResearch"},{"name":"participantType","column":"participanttype_id","type":"LONG","length":0,"required":false,"remote":"scientificResearchParticipantType"},{"name":"isInner","column":"isinner_p","type":"BOOLEAN","length":255,"required":false,"remote":null},{"name":"isMajor","column":"ismajor_p","type":"BOOLEAN","length":255,"required":false,"remote":null}]},
		{"name":"scientificPatent","abstract":false,"parent":null,"table":"scientificpatent_t","interfaces":[],"properties":[{"name":"id","column":"id","type":"LONG","length":255,"required":true,"remote":null},{"name":"class","column":"discriminator","type":"SHORT","length":255,"required":true,"remote":null},{"name":"author","column":"author_id","type":"LONG","length":0,"required":false,"remote":"student"},{"name":"inventionType","column":"inventiontype_id","type":"LONG","length":0,"required":false,"remote":"typeInvention"},{"name":"title","column":"title_p","type":"TRIMMEDSTRING","length":255,"required":true,"remote":null},{"name":"certificateNumber","column":"certificatenumber_p","type":"TRIMMEDSTRING","length":255,"required":false,"remote":null},{"name":"patentNumber","column":"patentnumber_p","type":"TRIMMEDSTRING","length":255,"required":false,"remote":null},{"name":"collaborators","column":"collaborators_p","type":"TRIMMEDSTRING","length":2048,"required":false,"remote":null},{"name":"imprintDate","column":"imprintdate_p","type":"INTEGER","length":255,"required":false,"remote":null},{"name":"note","column":"note_p","type":"TRIMMEDSTRING","length":255,"required":false,"remote":null}]},
		{"name":"scientificPublication","abstract":false,"parent":null,"table":"scientificpublication_t","interfaces":[],"properties":[{"name":"id","column":"id","type":"LONG","length":255,"required":true,"remote":null},{"name":"class","column":"discriminator","type":"SHORT","length":255,"required":true,"remote":null},{"name":"author","column":"author_id","type":"LONG","length":0,"required":false,"remote":"student"},{"name":"publicationType","column":"publicationtype_id","type":"LONG","length":0,"required":false,"remote":"typePublication"},{"name":"publishingHouse","column":"publishinghouse_id","type":"LONG","length":0,"required":false,"remote":"publishingHouse"},{"name":"language","column":"language_id","type":"LONG","length":0,"required":false,"remote":"foreignLanguage"},{"name":"title","column":"title_p","type":"TRIMMEDSTRING","length":255,"required":true,"remote":null},{"name":"collaborators","column":"collaborators_p","type":"TRIMMEDSTRING","length":1255,"required":false,"remote":null},{"name":"imprintDate","column":"imprintdate_p","type":"INTEGER","length":255,"required":false,"remote":null},{"name":"numbersOfPages","column":"numbersofpages_p","type":"TRIMMEDSTRING","length":255,"required":false,"remote":null}]},
		{"name":"scientificResearch","abstract":false,"parent":null,"table":"scientificresearch_t","interfaces":[],"properties":[{"name":"id","column":"id","type":"LONG","length":255,"required":true,"remote":null},{"name":"class","column":"discriminator","type":"SHORT","length":255,"required":true,"remote":null},{"name":"student","column":"student_id","type":"LONG","length":0,"required":true,"remote":"student"},{"name":"title","column":"title_p","type":"TRIMMEDSTRING","length":255,"required":false,"remote":null},{"name":"approveDate","column":"approvedate_p","type":"TIMESTAMP","length":255,"required":false,"remote":null}]},
		{"name":"scientificResearchParticipantType","abstract":false,"parent":null,"table":"scntfcrsrchprtcpnttyp_t","interfaces":[],"properties":[{"name":"id","column":"id","type":"LONG","length":255,"required":true,"remote":null},{"name":"class","column":"discriminator","type":"SHORT","length":255,"required":true,"remote":null},{"name":"code","column":"code_p","type":"TRIMMEDSTRING","length":255,"required":true,"remote":null},{"name":"title","column":"title_p","type":"TRIMMEDSTRING","length":1200,"required":false,"remote":null}]},
		{"name":"staffDissertationSoviet","abstract":false,"parent":null,"table":"staffdissertationsoviet_t","interfaces":[],"properties":[{"name":"id","column":"id","type":"LONG","length":255,"required":true,"remote":null},{"name":"class","column":"discriminator","type":"SHORT","length":255,"required":true,"remote":null},{"name":"code","column":"code_p","type":"TRIMMEDSTRING","length":255,"required":true,"remote":null},{"name":"lastName","column":"lastname_p","type":"TRIMMEDSTRING","length":255,"required":true,"remote":null},{"name":"firstName","column":"firstname_p","type":"TRIMMEDSTRING","length":255,"required":true,"remote":null},{"name":"middleName","column":"middlename_p","type":"TRIMMEDSTRING","length":255,"required":true,"remote":null},{"name":"title","column":"title_p","type":"TRIMMEDSTRING","length":1200,"required":false,"remote":null}]},
		{"name":"statusAction","abstract":false,"parent":null,"table":"statusaction_t","interfaces":[],"properties":[{"name":"id","column":"id","type":"LONG","length":255,"required":true,"remote":null},{"name":"class","column":"discriminator","type":"SHORT","length":255,"required":true,"remote":null},{"name":"code","column":"code_p","type":"TRIMMEDSTRING","length":255,"required":true,"remote":null},{"name":"title","column":"title_p","type":"TRIMMEDSTRING","length":1200,"required":false,"remote":null}]},
		{"name":"statusMission","abstract":false,"parent":null,"table":"statusmission_t","interfaces":[],"properties":[{"name":"id","column":"id","type":"LONG","length":255,"required":true,"remote":null},{"name":"class","column":"discriminator","type":"SHORT","length":255,"required":true,"remote":null},{"name":"code","column":"code_p","type":"TRIMMEDSTRING","length":255,"required":true,"remote":null},{"name":"title","column":"title_p","type":"TRIMMEDSTRING","length":1200,"required":false,"remote":null}]},
		{"name":"typeAction","abstract":false,"parent":null,"table":"typeaction_t","interfaces":[],"properties":[{"name":"id","column":"id","type":"LONG","length":255,"required":true,"remote":null},{"name":"class","column":"discriminator","type":"SHORT","length":255,"required":true,"remote":null},{"name":"code","column":"code_p","type":"TRIMMEDSTRING","length":255,"required":true,"remote":null},{"name":"title","column":"title_p","type":"TRIMMEDSTRING","length":1200,"required":false,"remote":null}]},
		{"name":"typeInvention","abstract":false,"parent":null,"table":"typeinvention_t","interfaces":[],"properties":[{"name":"id","column":"id","type":"LONG","length":255,"required":true,"remote":null},{"name":"class","column":"discriminator","type":"SHORT","length":255,"required":true,"remote":null},{"name":"code","column":"code_p","type":"TRIMMEDSTRING","length":255,"required":true,"remote":null},{"name":"title","column":"title_p","type":"TRIMMEDSTRING","length":1200,"required":false,"remote":null}]},
		{"name":"typeParticipation","abstract":false,"parent":null,"table":"typeparticipation_t","interfaces":[],"properties":[{"name":"id","column":"id","type":"LONG","length":255,"required":true,"remote":null},{"name":"class","column":"discriminator","type":"SHORT","length":255,"required":true,"remote":null},{"name":"code","column":"code_p","type":"TRIMMEDSTRING","length":255,"required":true,"remote":null},{"name":"title","column":"title_p","type":"TRIMMEDSTRING","length":1200,"required":false,"remote":null}]},
		{"name":"typePublication","abstract":false,"parent":null,"table":"typepublication_t","interfaces":[],"properties":[{"name":"id","column":"id","type":"LONG","length":255,"required":true,"remote":null},{"name":"class","column":"discriminator","type":"SHORT","length":255,"required":true,"remote":null},{"name":"code","column":"code_p","type":"TRIMMEDSTRING","length":255,"required":true,"remote":null},{"name":"title","column":"title_p","type":"TRIMMEDSTRING","length":1200,"required":false,"remote":null}]},
		{"name":"outerParticipant","abstract":false,"parent":"personRole","table":"outerparticipant_t","interfaces":[],"properties":[{"name":"address","column":"address_id","type":"LONG","length":0,"required":false,"remote":"addressDetailed"},{"name":"employeePost","column":"employeepost_p","type":"TRIMMEDSTRING","length":255,"required":false,"remote":null},{"name":"workPlace","column":"workplace_p","type":"TRIMMEDSTRING","length":255,"required":false,"remote":null}]}],
 "dependencies":["unibasermc"]}