{"name":"loadrmc",
 "interfaces":[],
 "entities":[
		{"name":"employeePostRatePartSource","abstract":false,"parent":null,"table":"employeepostratepartsource_t","interfaces":[],"properties":[{"name":"id","column":"id","type":"LONG","length":255,"required":true,"remote":null},{"name":"class","column":"discriminator","type":"SHORT","length":255,"required":true,"remote":null},{"name":"employeePost","column":"employeepost_id","type":"LONG","length":0,"required":false,"remote":"employeePost"},{"name":"employeeWageRatePart","column":"employeewageratepart_id","type":"LONG","length":0,"required":false,"remote":"employeeWageRatePart"},{"name":"globalFinancingSource","column":"globalfinancingsource_id","type":"LONG","length":0,"required":false,"remote":"globalFinancingSource"}]},
		{"name":"employeeWageRatePart","abstract":false,"parent":null,"table":"employeewageratepart_t","interfaces":[],"properties":[{"name":"id","column":"id","type":"LONG","length":255,"required":true,"remote":null},{"name":"class","column":"discriminator","type":"SHORT","length":255,"required":true,"remote":null},{"name":"code","column":"code_p","type":"TRIMMEDSTRING","length":255,"required":true,"remote":null},{"name":"value","column":"value_p","type":"DOUBLE","length":255,"required":true,"remote":null},{"name":"title","column":"title_p","type":"TRIMMEDSTRING","length":1200,"required":false,"remote":null}]}],
 "dependencies":["unioxrmc"]}