{"name":"unienr14_fis",
 "interfaces":[
		{"name":"ru.tandemservice.unienr14_fis.base.bo.EnrFisConverter.entity.IEnrFisConv4DocumentCategory","view":"ienrfisconv4documentcategory_v"}],
 "entities":[
		{"name":"enrFisCatalogItem","abstract":false,"parent":null,"table":"enr14fis_catalog_item_t","interfaces":[],"properties":[{"name":"id","column":"id","type":"LONG","length":255,"required":true,"remote":null},{"name":"class","column":"discriminator","type":"SHORT","length":255,"required":true,"remote":null},{"name":"fisCatalogCode","column":"fiscatalogcode_p","type":"STRING","length":255,"required":true,"remote":null},{"name":"fisItemCode","column":"fisitemcode_p","type":"STRING","length":255,"required":true,"remote":null},{"name":"removalDate","column":"removaldate_p","type":"TIMESTAMP","length":255,"required":false,"remote":null},{"name":"title","column":"title_p","type":"STRING","length":1023,"required":true,"remote":null}]},
		{"name":"enrFisConv4Country","abstract":false,"parent":null,"table":"enr14fis_conv_country_t","interfaces":[],"properties":[{"name":"id","column":"id","type":"LONG","length":255,"required":true,"remote":null},{"name":"class","column":"discriminator","type":"SHORT","length":255,"required":true,"remote":null},{"name":"addressCountry","column":"addresscountry_id","type":"LONG","length":0,"required":true,"remote":"addressCountry"},{"name":"value","column":"value_id","type":"LONG","length":0,"required":true,"remote":"enrFisCatalogItem"}]},
		{"name":"enrFisConv4DocumentCategoryBelongingNation","abstract":false,"parent":null,"table":"enr14fis_conv_doc_c_bn_t","interfaces":["ru.tandemservice.unienr14_fis.base.bo.EnrFisConverter.entity.IEnrFisConv4DocumentCategory"],"properties":[{"name":"id","column":"id","type":"LONG","length":255,"required":true,"remote":null},{"name":"class","column":"discriminator","type":"SHORT","length":255,"required":true,"remote":null},{"name":"docCategory","column":"doccategory_id","type":"LONG","length":0,"required":true,"remote":"personDocumentCategory"},{"name":"value","column":"value_id","type":"LONG","length":0,"required":true,"remote":"enrFisCatalogItem"}]},
		{"name":"enrFisConv4DocumentCategoryCombatVeterans","abstract":false,"parent":null,"table":"enr14fis_conv_doc_c_cv_t","interfaces":["ru.tandemservice.unienr14_fis.base.bo.EnrFisConverter.entity.IEnrFisConv4DocumentCategory"],"properties":[{"name":"id","column":"id","type":"LONG","length":255,"required":true,"remote":null},{"name":"class","column":"discriminator","type":"SHORT","length":255,"required":true,"remote":null},{"name":"docCategory","column":"doccategory_id","type":"LONG","length":0,"required":true,"remote":"personDocumentCategory"},{"name":"value","column":"value_id","type":"LONG","length":0,"required":true,"remote":"enrFisCatalogItem"}]},
		{"name":"enrFisConv4DocumentCategoryOrphan","abstract":false,"parent":null,"table":"enr14fis_conv_doc_c_orphan_t","interfaces":["ru.tandemservice.unienr14_fis.base.bo.EnrFisConverter.entity.IEnrFisConv4DocumentCategory"],"properties":[{"name":"id","column":"id","type":"LONG","length":255,"required":true,"remote":null},{"name":"class","column":"discriminator","type":"SHORT","length":255,"required":true,"remote":null},{"name":"docCategory","column":"doccategory_id","type":"LONG","length":0,"required":true,"remote":"personDocumentCategory"},{"name":"value","column":"value_id","type":"LONG","length":0,"required":true,"remote":"enrFisCatalogItem"}]},
		{"name":"enrFisConv4DocumentCategorySportsDiploma","abstract":false,"parent":null,"table":"enr14fis_conv_doc_c_sd_t","interfaces":["ru.tandemservice.unienr14_fis.base.bo.EnrFisConverter.entity.IEnrFisConv4DocumentCategory"],"properties":[{"name":"id","column":"id","type":"LONG","length":255,"required":true,"remote":null},{"name":"class","column":"discriminator","type":"SHORT","length":255,"required":true,"remote":null},{"name":"docCategory","column":"doccategory_id","type":"LONG","length":0,"required":true,"remote":"personDocumentCategory"},{"name":"value","column":"value_id","type":"LONG","length":0,"required":true,"remote":"enrFisCatalogItem"}]},
		{"name":"enrFisConv4EntrantAchievementType","abstract":false,"parent":null,"table":"enr14fis_conv_achieve_type_t","interfaces":[],"properties":[{"name":"id","column":"id","type":"LONG","length":255,"required":true,"remote":null},{"name":"class","column":"discriminator","type":"SHORT","length":255,"required":true,"remote":null},{"name":"achievementType","column":"achievementtype_id","type":"LONG","length":0,"required":true,"remote":"enrEntrantAchievementType"},{"name":"value","column":"value_id","type":"LONG","length":0,"required":true,"remote":"enrFisCatalogItem"}]},
		{"name":"enrFisConv4ExamSetElement","abstract":false,"parent":null,"table":"enr14fis_conv_examsetelement_t","interfaces":[],"properties":[{"name":"id","column":"id","type":"LONG","length":255,"required":true,"remote":null},{"name":"class","column":"discriminator","type":"SHORT","length":255,"required":true,"remote":null},{"name":"examSetElement","column":"examsetelement_id","type":"LONG","length":0,"required":true,"remote":"ru.tandemservice.unienr14.settings.entity.IEnrExamSetElementValue"},{"name":"value","column":"value_id","type":"LONG","length":0,"required":true,"remote":"enrFisCatalogItem"}]},
		{"name":"enrFisConv4Olympiad","abstract":false,"parent":null,"table":"enr14fis_conv_olympiad_t","interfaces":[],"properties":[{"name":"id","column":"id","type":"LONG","length":255,"required":true,"remote":null},{"name":"class","column":"discriminator","type":"SHORT","length":255,"required":true,"remote":null},{"name":"olympiad","column":"olympiad_id","type":"LONG","length":0,"required":true,"remote":"enrOlympiad"},{"name":"value","column":"value_id","type":"LONG","length":0,"required":true,"remote":"enrFisCatalogItem"}]},
		{"name":"enrFisConv4OlympiadProfileDiscipline","abstract":false,"parent":null,"table":"enr14fis_conv_olym_prof_disc_t","interfaces":[],"properties":[{"name":"id","column":"id","type":"LONG","length":255,"required":true,"remote":null},{"name":"class","column":"discriminator","type":"SHORT","length":255,"required":true,"remote":null},{"name":"olympiadProfileDiscipline","column":"olympiadprofilediscipline_id","type":"LONG","length":0,"required":true,"remote":"enrOlympiadProfileDiscipline"},{"name":"value","column":"value_id","type":"LONG","length":0,"required":true,"remote":"enrFisCatalogItem"}]},
		{"name":"enrFisConv4OlympiadSubject","abstract":false,"parent":null,"table":"enr14fis_conv_olym_subj_t","interfaces":[],"properties":[{"name":"id","column":"id","type":"LONG","length":255,"required":true,"remote":null},{"name":"class","column":"discriminator","type":"SHORT","length":255,"required":true,"remote":null},{"name":"olympiadSubject","column":"olympiadsubject_id","type":"LONG","length":0,"required":true,"remote":"enrOlympiadSubject"},{"name":"value","column":"value_id","type":"LONG","length":0,"required":true,"remote":"enrFisCatalogItem"}]},
		{"name":"enrFisConv4ProgramSet","abstract":false,"parent":null,"table":"enr14fis_conv_ps_t","interfaces":[],"properties":[{"name":"id","column":"id","type":"LONG","length":255,"required":true,"remote":null},{"name":"class","column":"discriminator","type":"SHORT","length":255,"required":true,"remote":null},{"name":"programSet","column":"programset_id","type":"LONG","length":0,"required":true,"remote":"enrProgramSetBase"},{"name":"value","column":"value_id","type":"LONG","length":0,"required":true,"remote":"enrFisCatalogItem"}]},
		{"name":"enrFisConv4Region","abstract":false,"parent":null,"table":"enr14fis_conv_region_t","interfaces":[],"properties":[{"name":"id","column":"id","type":"LONG","length":255,"required":true,"remote":null},{"name":"class","column":"discriminator","type":"SHORT","length":255,"required":true,"remote":null},{"name":"addressItem","column":"addressitem_id","type":"LONG","length":0,"required":true,"remote":"addressItem"},{"name":"value","column":"value_id","type":"LONG","length":0,"required":true,"remote":"enrFisCatalogItem"}]},
		{"name":"enrFisConv4StateExamSubject","abstract":false,"parent":null,"table":"enr14fis_conv_st_exam_subj_t","interfaces":[],"properties":[{"name":"id","column":"id","type":"LONG","length":255,"required":true,"remote":null},{"name":"class","column":"discriminator","type":"SHORT","length":255,"required":true,"remote":null},{"name":"stateExamSubject","column":"stateexamsubject_id","type":"LONG","length":0,"required":true,"remote":"enrStateExamSubject"},{"name":"value","column":"value_id","type":"LONG","length":0,"required":true,"remote":"enrFisCatalogItem"}]},
		{"name":"enrFisEntrantSyncData","abstract":false,"parent":null,"table":"enr14fis_entrant_data_t","interfaces":[],"properties":[{"name":"id","column":"id","type":"LONG","length":255,"required":true,"remote":null},{"name":"class","column":"discriminator","type":"SHORT","length":255,"required":true,"remote":null},{"name":"entrant","column":"entrant_id","type":"LONG","length":0,"required":true,"remote":"enrEntrant"},{"name":"uid","column":"uid_p","type":"STRING","length":255,"required":true,"remote":null},{"name":"modificationDate","column":"modificationdate_p","type":"TIMESTAMP","length":255,"required":true,"remote":null},{"name":"successfulImport","column":"successfulimport_p","type":"BOOLEAN","length":255,"required":false,"remote":null},{"name":"skipReason","column":"skipreason_p","type":"TRIMMEDSTRING","length":2000,"required":false,"remote":null},{"name":"zipXmlPackageHash","column":"zipxmlpackagehash_p","type":"INTEGER","length":255,"required":true,"remote":null},{"name":"zipXmlPackage","column":"zipxmlpackage_p","type":"BLOB","length":255,"required":true,"remote":null},{"name":"syncPackage","column":"syncpackage_id","type":"LONG","length":0,"required":false,"remote":"enrFisSyncPackage"},{"name":"syncCompleteDate","column":"synccompletedate_p","type":"TIMESTAMP","length":255,"required":false,"remote":null}]},
		{"name":"enrFisSettingsECPeriodItem","abstract":false,"parent":null,"table":"enr14fis_s_period_item_t","interfaces":[],"properties":[{"name":"id","column":"id","type":"LONG","length":255,"required":true,"remote":null},{"name":"class","column":"discriminator","type":"SHORT","length":255,"required":true,"remote":null},{"name":"key","column":"key_id","type":"LONG","length":0,"required":true,"remote":"enrFisSettingsECPeriodKey"},{"name":"stage","column":"stage_p","type":"INTEGER","length":255,"required":true,"remote":null},{"name":"dateStart","column":"datestart_p","type":"DATE","length":255,"required":false,"remote":null},{"name":"dateEnd","column":"dateend_p","type":"DATE","length":255,"required":false,"remote":null},{"name":"dateOrder","column":"dateorder_p","type":"DATE","length":255,"required":false,"remote":null}]},
		{"name":"enrFisSettingsECPeriodKey","abstract":false,"parent":null,"table":"enr14fis_s_period_key_t","interfaces":[],"properties":[{"name":"id","column":"id","type":"LONG","length":255,"required":true,"remote":null},{"name":"class","column":"discriminator","type":"SHORT","length":255,"required":true,"remote":null},{"name":"enrOrgUnit","column":"enrorgunit_id","type":"LONG","length":0,"required":true,"remote":"enrOrgUnit"},{"name":"educationLevel","column":"educationlevel_id","type":"LONG","length":0,"required":true,"remote":"enrFisCatalogItem"},{"name":"educationForm","column":"educationform_id","type":"LONG","length":0,"required":true,"remote":"enrFisCatalogItem"},{"name":"educationSource","column":"educationsource_id","type":"LONG","length":0,"required":true,"remote":"enrFisCatalogItem"},{"name":"size","column":"size_p","type":"INTEGER","length":255,"required":true,"remote":null}]},
		{"name":"enrFisSettingsStateExamMinMark","abstract":false,"parent":null,"table":"enr14fis_s_st_exam_min_mark_t","interfaces":[],"properties":[{"name":"id","column":"id","type":"LONG","length":255,"required":true,"remote":null},{"name":"class","column":"discriminator","type":"SHORT","length":255,"required":true,"remote":null},{"name":"minMark","column":"minmark_p","type":"INT","length":255,"required":true,"remote":null},{"name":"enrollmentCampaign","column":"enrollmentcampaign_id","type":"LONG","length":0,"required":true,"remote":"enrEnrollmentCampaign"},{"name":"eduProgramSubject","column":"eduprogramsubject_id","type":"LONG","length":0,"required":true,"remote":"eduProgramSubject"},{"name":"discipline","column":"discipline_id","type":"LONG","length":0,"required":false,"remote":"enrCampaignDiscipline"},{"name":"stateExamSubject","column":"stateexamsubject_id","type":"LONG","length":0,"required":true,"remote":"enrStateExamSubject"}]},
		{"name":"enrFisSettingsStateExamMinMarkNew","abstract":false,"parent":null,"table":"enr14fis_s_st_xm_mn_mrk_nw_t","interfaces":[],"properties":[{"name":"id","column":"id","type":"LONG","length":255,"required":true,"remote":null},{"name":"class","column":"discriminator","type":"SHORT","length":255,"required":true,"remote":null},{"name":"enrProgramSetBase","column":"enrprogramsetbase_id","type":"LONG","length":0,"required":true,"remote":"enrProgramSetBase"},{"name":"subject","column":"subject_id","type":"LONG","length":0,"required":true,"remote":"enrFisCatalogItem"},{"name":"benefitType","column":"benefittype_id","type":"LONG","length":0,"required":true,"remote":"enrBenefitType"},{"name":"minMark","column":"minmark_p","type":"INT","length":255,"required":true,"remote":null}]},
		{"name":"enrFisSyncPackage","abstract":true,"parent":null,"table":"enr14fis_package_t","interfaces":[],"properties":[{"name":"id","column":"id","type":"LONG","length":255,"required":true,"remote":null},{"name":"class","column":"discriminator","type":"SHORT","length":255,"required":true,"remote":null},{"name":"session","column":"session_id","type":"LONG","length":0,"required":true,"remote":"enrFisSyncSession"},{"name":"comment","column":"comment_p","type":"TRIMMEDSTRING","length":255,"required":false,"remote":null},{"name":"creationDate","column":"creationdate_p","type":"TIMESTAMP","length":255,"required":true,"remote":null},{"name":"nextOperationThresholdDate","column":"nextoperationthresholddate_p","type":"TIMESTAMP","length":255,"required":false,"remote":null},{"name":"zipXmlPackage","column":"zipxmlpackage_p","type":"BLOB","length":255,"required":true,"remote":null},{"name":"fisPackageID","column":"fispackageid_p","type":"LONG","length":255,"required":false,"remote":null},{"name":"pkgSendSuccess","column":"pkgsendsuccess_id","type":"LONG","length":0,"required":false,"remote":"enrFisSyncPackageIOLog"},{"name":"pkgRecvSuccess","column":"pkgrecvsuccess_id","type":"LONG","length":0,"required":false,"remote":"enrFisSyncPackageIOLog"}]},
		{"name":"enrFisSyncPackage4AOrdersInfo","abstract":false,"parent":"enrFisSyncPackage","table":"enr14fis_package_4orders_t","interfaces":[],"properties":[]},
		{"name":"enrFisSyncPackage4AdmissionInfo","abstract":false,"parent":"enrFisSyncPackage","table":"enr14fis_package_2adm_t","interfaces":[],"properties":[]},
		{"name":"enrFisSyncPackage4ApplicationsInfo","abstract":false,"parent":"enrFisSyncPackage","table":"enr14fis_package_3apps_t","interfaces":[],"properties":[]},
		{"name":"enrFisSyncPackage4CampaignInfo","abstract":false,"parent":"enrFisSyncPackage","table":"enr14fis_package_1camp_t","interfaces":[],"properties":[]},
		{"name":"enrFisSyncPackageIOLog","abstract":true,"parent":null,"table":"enr14fis_package_iolog_t","interfaces":[],"properties":[{"name":"id","column":"id","type":"LONG","length":255,"required":true,"remote":null},{"name":"class","column":"discriminator","type":"SHORT","length":255,"required":true,"remote":null},{"name":"owner","column":"owner_id","type":"LONG","length":0,"required":true,"remote":"enrFisSyncPackage"},{"name":"operationDate","column":"operationdate_p","type":"TIMESTAMP","length":255,"required":true,"remote":null},{"name":"operationUrl","column":"operationurl_p","type":"STRING","length":255,"required":true,"remote":null},{"name":"zipXmlRequest","column":"zipxmlrequest_p","type":"BLOB","length":255,"required":false,"remote":null},{"name":"zipXmlResponse","column":"zipxmlresponse_p","type":"BLOB","length":255,"required":false,"remote":null},{"name":"fisErrorText","column":"fiserrortext_p","type":"STRING","length":1024,"required":false,"remote":null},{"name":"error","column":null,"type":"BOOLEAN","length":255,"required":true,"remote":null},{"name":"zipErrorLog","column":"ziperrorlog_p","type":"BLOB","length":255,"required":false,"remote":null}]},
		{"name":"enrFisSyncPackageReceiveIOLog","abstract":false,"parent":"enrFisSyncPackageIOLog","table":"enr14fis_package_r_iolog_t","interfaces":[],"properties":[{"name":"failureCount","column":"failurecount_p","type":"INTEGER","length":255,"required":true,"remote":null},{"name":"conflictCount","column":"conflictcount_p","type":"INTEGER","length":255,"required":true,"remote":null},{"name":"successfulCount","column":"successfulcount_p","type":"INTEGER","length":255,"required":true,"remote":null}]},
		{"name":"enrFisSyncPackageSendIOLog","abstract":false,"parent":"enrFisSyncPackageIOLog","table":"enr14fis_package_s_iolog_t","interfaces":[],"properties":[{"name":"dataNodeCount","column":"datanodecount_p","type":"INTEGER","length":255,"required":true,"remote":null}]},
		{"name":"enrFisSyncSession","abstract":false,"parent":null,"table":"enr14fis_session_t","interfaces":[],"properties":[{"name":"id","column":"id","type":"LONG","length":255,"required":true,"remote":null},{"name":"class","column":"discriminator","type":"SHORT","length":255,"required":true,"remote":null},{"name":"enrOrgUnit","column":"enrorgunit_id","type":"LONG","length":0,"required":true,"remote":"enrOrgUnit"},{"name":"creationDate","column":"creationdate_p","type":"TIMESTAMP","length":255,"required":true,"remote":null},{"name":"requestState","column":"requeststate_p","type":"INT","length":255,"required":true,"remote":null},{"name":"fillDate","column":"filldate_p","type":"TIMESTAMP","length":255,"required":false,"remote":null},{"name":"queueDate","column":"queuedate_p","type":"TIMESTAMP","length":255,"required":false,"remote":null},{"name":"archiveDate","column":"archivedate_p","type":"TIMESTAMP","length":255,"required":false,"remote":null},{"name":"zipLog","column":"ziplog_p","type":"BLOB","length":255,"required":false,"remote":null},{"name":"campaignInfoStatus","column":"campaigninfostatus_id","type":"LONG","length":0,"required":true,"remote":"enrFisCatalogItem"},{"name":"skipAdmissionInfo","column":"skipadmissioninfo_p","type":"BOOLEAN","length":255,"required":true,"remote":null},{"name":"eduProgramUniqueTitleForming","column":"eduprogramuniquetitleforming_p","type":"BOOLEAN","length":255,"required":true,"remote":null},{"name":"forceAllEntrants","column":"forceallentrants_p","type":"BOOLEAN","length":255,"required":true,"remote":null},{"name":"acceptedInfo","column":"acceptedinfo_p","type":"BOOLEAN","length":255,"required":true,"remote":null},{"name":"sendRequestInOrderInfo","column":"sendrequestinorderinfo_p","type":"BOOLEAN","length":255,"required":true,"remote":null},{"name":"skipEnrCampaignInfo","column":"skipenrcampaigninfo_p","type":"BOOLEAN","length":255,"required":true,"remote":null},{"name":"skipApplicationsInfo","column":"skipapplicationsinfo_p","type":"BOOLEAN","length":255,"required":true,"remote":null},{"name":"skipOrdersOfAdmission","column":"skipordersofadmission_p","type":"BOOLEAN","length":255,"required":true,"remote":null},{"name":"skipIllegalDirections","column":"skipillegaldirections_p","type":"BOOLEAN","length":255,"required":true,"remote":null},{"name":"skipErrorEntrants","column":"skiperrorentrants_p","type":"BOOLEAN","length":255,"required":true,"remote":null},{"name":"skippedEntrantCount","column":"skippedentrantcount_p","type":"INTEGER","length":255,"required":true,"remote":null},{"name":"skippedExtractCount","column":"skippedextractcount_p","type":"INTEGER","length":255,"required":true,"remote":null},{"name":"skippedRecItemCount","column":"skippedrecitemcount_p","type":"INTEGER","length":255,"required":true,"remote":null}]}],
 "dependencies":["unienr14"]}