{"name":"uniplanrmc",
 "interfaces":[],
 "entities":[
		{"name":"eppEduPlanVersionBlock2DiplomaQualifications","abstract":false,"parent":null,"table":"ppedplnvrsnblck2dplmqlfctns_t","interfaces":[],"properties":[{"name":"id","column":"id","type":"LONG","length":255,"required":true,"remote":null},{"name":"class","column":"discriminator","type":"SHORT","length":255,"required":true,"remote":null},{"name":"block","column":"block_id","type":"LONG","length":0,"required":true,"remote":"eppEduPlanVersionBlock"},{"name":"qualification","column":"qualification_id","type":"LONG","length":0,"required":true,"remote":"diplomaQualifications"},{"name":"special","column":"special_p","type":"BOOLEAN","length":255,"required":true,"remote":null}]},
		{"name":"eppWorkPlanRowExt","abstract":false,"parent":null,"table":"eppworkplanrowext_t","interfaces":[],"properties":[{"name":"id","column":"id","type":"LONG","length":255,"required":true,"remote":null},{"name":"class","column":"discriminator","type":"SHORT","length":255,"required":true,"remote":null},{"name":"row","column":"row_id","type":"LONG","length":0,"required":true,"remote":"eppWorkPlanRow"},{"name":"recertification","column":"recertification_p","type":"BOOLEAN","length":255,"required":true,"remote":null}]}],
 "dependencies":["uniepp"]}