050101/050102;«Химия» с дополнительной специальностью «Биология»;65;Учитель химии и биологии
050102/050706;«Биология» с дополнительной специальностью «Педагогика и психология»;65;Учитель биологии и педагог-психолог
050201/050202;«Математика» с дополнительной специальностью «Информатика»;65;Учитель математики и информатики
050202/050203;«Информатика» с дополнительной специальностью  «Физика»;65;Учитель информатики и физики
050202/050303;«Информатика» с дополнительной специальностью «Иностранный язык (английский язык)»;65;Учитель информатики и иностранного языка
050203/050202;«Физика» с дополнительной специальностью «Информатика»;65;Учитель физики и информатики
050303/050303;«Иностранный язык» с дополнительной специальностью «Иностранный язык»;65;Учитель двух иностранных языков
050401/050402;«История» с дополнительной специальностью «Юриспруденция»;65;Учитель истории и права
050703/050711;«Дошкольная педагогика и психология» с дополнительной специальностью «Социальная педагогика»;65;Преподаватель дошкольной педагогики и психологии, социальный педагог
050708/050703;«Педагогика и методика начального образования» с дополнительной специальностью  «Дошкольная педагогика и психология»;65;Учитель начальных классов и преподаватель дошкольной педагогики и психологии
050720/050104;«Физическая культура» с дополнительной специальностью «Безопасность жизнедеятельности»;65;Педагог по физической культуре и учитель безопасности жизнедеятельности
