010701;Фундаментальная математика и механика;
011501;Астрономия;
020201;Фундаментальная и прикладная химия;
020501;Биоинженерия и биоинформатика;
021302;Военная картография;
021605;Метеорология специального назначения;
030301;Психология служебной деятельности;
030401;Клиническая психология;
030901;Правовое обеспечение национальной безопасности;
031001;Правоохранительная деятельность;
031003;Судебная экспертиза;
031301;Военная журналистика;
034301;Служебно-прикладная физическая подготовка;
035701;Перевод и переводоведение;
036401;Таможенное дело;
050407;Педагогика и психология девиантного поведения;
060101;Лечебное дело;
060103;Педиатрия;
060105;Медико-профилактическое дело;
060201;Стоматология;
060301;Фармация;
060601;Медицинская биохимия;
060602;Медицинская биофизика;
060609;Медицинская кибернетика;
070201;Музыкально-театральное искусство;
070301;Актерское искусство;
070401;Сценография;
070501;Режиссура театра;
070601;Режиссура кино и телевидения;
070701;Звукорежиссура аудиовизуальных искусств;
070702;Музыкальная звукорежиссура;
070703;Звукорежиссура культурно-массовых представлений и концертных программ;
070901;Кинооператорство;
071001;Живопись;
071002;Графика;
071003;Скульптура;
071004;Монументально-декоративное искусство;
071005;Живопись и изящные искусства;
071101;Литературное творчество;
072801;Композиция;
072901;Музыковедение;
073201;Искусство концертного исполнительства;
073301;Художественное руководство симфоническим оркестром и академическим хором;
073507;Дирижирование военным духовым оркестром;
074201;Киноведение;
074301;Продюсерство;
080101;Экономическая безопасность;
080225;Тыловое обеспечение;
090101;Криптография;
090201;Противодействие техническим разведкам;
090301;Компьютерная безопасность;
090302;Информационная безопасность телекоммуникационных систем;
090303;Информационная безопасность автоматизированных систем;
090305;Информационно-аналитические системы безопасности;
090915;Безопасность информационных технологий в правоохранительной сфере;
111801;Ветеринария;
120401;Прикладная геодезия;
130101;Прикладная геология;
130102;Технологии геологической разведки;
130400;Горное дело;
131201;Физические процессы горного или нефтегазового производства;
140107;Тепло- и электрообеспечение специальных технических систем и объектов;
140401;Специальные электромеханические системы;
140801;Электроника и автоматика физических установок;
141108;Специальные системы жизнеобеспечения;
141401;Ядерные реакторы и материалы;
141403;Атомные станции: проектирование, эксплуатация и инжиниринг;
141405;Технологии разделения изотопов и ядерное топливо;
150106;Технологии веществ и материалов в вооружении и военной технике;
151701;Проектирование технологических машин и комплексов;
160100;Самолето- и вертолетостроение;
160400;Проектирование, производство и эксплуатация ракет и ракетно-космических комплексов;
160700;Проектирование авиационных и ракетных двигателей;
161002;Летная эксплуатация и применение авиационных комплексов;
161101;Системы управления летательными аппаратами;
161400;Интегрированные системы летательных аппаратов;
161702;Навигационно-баллистическое обеспечение применения космической техники;
162001;Эксплуатация воздушных судов и организация воздушного движения;
162107;Техническая эксплуатация транспортного радиооборудования;
162110;Испытание летательных аппаратов;
162301;Техническая эксплуатация и восстановление боевых летательных аппаратов и двигателей;
162501;Техническая эксплуатация и восстановление электросистем и пилотажно-навигационных комплексов боевых летательных аппаратов;
170100;Боеприпасы и взрыватели;
170400;Стрелково-пушечное, артиллерийское и ракетное оружие;
180101;Проектирование и постройка кораблей, судов и объектов океанотехники;
180102;Проектирование, изготовление и ремонт энергетических установок и систем автоматизации кораблей и судов;
180112;Строительство, ремонт и поисково-спасательное обеспечение надводных кораблей и подводных лодок;
180403;Судовождение;
180405;Эксплуатация судовых энергетических установок;
180407;Эксплуатация судового электрооборудования и средств автоматики;
180801;Применение и эксплуатация технических систем надводных кораблей и подводных лодок;
180802;Проектирование, производство и испытание корабельного вооружения и информационно-управляющих систем;
190109;Наземные транспортно-технологические средства;
190110;Транспортные средства специального назначения;
190300;Подвижной состав железных дорог;
190401;Эксплуатация железных дорог;
190901;Системы обеспечения движения поездов;
200106;Применение и эксплуатация средств и систем специального мониторинга;
200401;Электронные и оптико-электронные приборы и системы специального назначения;
210601;Радиоэлектронные системы и комплексы;
210602;Специальные радиотехнические системы;
210701;Инфокоммуникационные технологии и системы специальной связи;
220402;Специальные организационно-технические системы;
221701;Метрологическое обеспечение вооружения и военной техники;
230106;Применение и эксплуатация автоматизированных систем специального назначения;
240300;Химическая технология энергонасыщенных материалов и изделий;
240501;Химическая технология материалов современной энергетики;
271101;Строительство уникальных зданий и сооружений;
271501;Строительство железных дорог, мостов и транспортных тоннелей;
271502;Строительство, эксплуатация, восстановление и техническое прикрытие автомобильных дорог, мостов и тоннелей;
280705;Пожарная безопасность;
290101;Пограничная деятельность;
290201;Радиационная, химическая и биологическая защита;
290301;Управление персоналом (Вооруженные Силы Российской Федерации, другие войска, воинские формирования и приравненные к ним органы Российской Федерации);
