01.03.01;Математика;Бакалавр
01.03.02;Прикладная математика и информатика;Бакалавр
01.03.03;Механика и математическое моделирование;Бакалавр
01.03.04;Прикладная математика;Бакалавр
02.03.01;Математика и компьютерные науки;Бакалавр
02.03.02;Фундаментальная информатика и информационные технологии;Бакалавр
02.03.03;Математическое обеспечение и администрирование информационных систем;Бакалавр
03.03.01;Прикладные математика и физика;Бакалавр
03.03.02;Физика;Бакалавр
03.03.03;Радиофизика;Бакалавр
04.03.01;Химия;Бакалавр
04.03.02;Химия, физика и механика материалов;Бакалавр
05.03.01;Геология;Бакалавр
05.03.02;География;Бакалавр
05.03.03;Картография и геоинформатика;Бакалавр
05.03.04;Гидрометеорология;Бакалавр
05.03.05;Прикладная гидрометеорология;Бакалавр
05.03.06;Экология и природопользование;Бакалавр
06.03.01;Биология;Бакалавр
06.03.02;Почвоведение;Бакалавр
07.03.01;Архитектура;Бакалавр
07.03.02;Реконструкция и реставрация архитектурного наследия;Бакалавр
07.03.03;Дизайн архитектурной среды;Бакалавр
07.03.03;Дизайн архитектурной среды;Бакалавр
07.03.04;Градостроительство;Бакалавр
08.03.01;Строительство;Бакалавр
09.03.01;Информатика и вычислительная техника;Бакалавр
09.03.02;Информационные системы и технологии;Бакалавр
09.03.03;Прикладная информатика;Бакалавр
09.03.04;Программная инженерия;Бакалавр
10.03.01;Информационная безопасность;Бакалавр
11.03.01;Радиотехника;Бакалавр
11.03.02;Инфокоммуникационные технологии и системы связи;Бакалавр
11.03.03;Конструирование и технология электронных средств;Бакалавр
11.03.04;Электроника и наноэлектроника;Бакалавр
12.03.01;Приборостроение;Бакалавр
12.03.02;Оптотехника;Бакалавр
12.03.03;Фотоника и оптоинформатика;Бакалавр
12.03.04;Биотехнические системы и технологии;Бакалавр
12.03.05;Лазерная техника и лазерные технологии;Бакалавр
13.03.01;Теплоэнергетика и теплотехника;Бакалавр
13.03.02;Электроэнергетика и электротехника;Бакалавр
13.03.03;Энергетическое машиностроение;Бакалавр
14.03.01;Ядерная энергетика и теплофизика;Бакалавр
14.03.02;Ядерные физика и технологии;Бакалавр
15.03.01;Машиностроение;Бакалавр
15.03.02;Технологические машины и оборудование;Бакалавр
15.03.03;Прикладная механика;Бакалавр
15.03.04;Автоматизация технологических процессов и производств;Бакалавр
15.03.05;Конструкторско-технологическое обеспечение машиностроительных производств;Бакалавр
15.03.06;Мехатроника и робототехника;Бакалавр
16.03.01;Техническая физика;Бакалавр
16.03.02;Высокотехнологические плазменные и энергетические установки;Бакалавр
16.03.03;Холодильная, криогенная техника и системы жизнеобеспечения;Бакалавр
17.03.01;Корабельное вооружение;Бакалавр
18.03.01;Химическая технология;Бакалавр
18.03.02;Энерго- и ресурсосберегающие процессы в химической технологии, нефтехимии и биотехнологии;Бакалавр
19.03.01;Биотехнология;Бакалавр
19.03.02;Продукты питания из растительного сырья;Бакалавр
19.03.03;Продукты питания животного происхождения;Бакалавр
19.03.04;Технология продукции и организация общественного питания;Бакалавр
20.03.01;Техносферная безопасность;Бакалавр
20.03.02;Природообустройство и водопользование;Бакалавр
21.03.01;Нефтегазовое дело;Бакалавр
21.03.02;Землеустройство и кадастры;Бакалавр
21.03.03;Геодезия и дистанционное зондирование;Бакалавр
22.03.01;Материаловедение и технологии материалов;Бакалавр
22.03.02;Металлургия;Бакалавр
23.03.01;Технология транспортных процессов;Бакалавр
23.03.02;Наземные транспортно-технологические комплексы;Бакалавр
23.03.03;Эксплуатация транспортно-технологических машин и комплексов;Бакалавр
24.03.01;Ракетные комплексы и космонавтика;Бакалавр
24.03.02;Системы управления движением и навигация;Бакалавр
24.03.03;Баллистика и гидроаэродинамика;Бакалавр
24.03.04;Авиастроение;Бакалавр
24.03.05;Двигатели летательных аппаратов;Бакалавр
25.03.01;Техническая эксплуатация летательных аппаратов и двигателей;Бакалавр
25.03.02;Техническая эксплуатация авиационных электросистем и пилотажно-навигационных комплексов;Бакалавр
25.03.03;Аэронавигация;Бакалавр
25.03.04;Эксплуатация аэропортов и обеспечение полетов воздушных судов;Бакалавр
26.03.01;Управление водным транспортом и гидрографическое обеспечение судоходства;Бакалавр
26.03.02;Кораблестроение, океанотехника и системотехника объектов морской инфраструктуры;Бакалавр
27.03.01;Стандартизация и метрология;Бакалавр
27.03.02;Управление качеством;Бакалавр
27.03.03;Системный анализ и управление;Бакалавр
27.03.04;Управление в технических системах;Бакалавр
27.03.05;Инноватика;Бакалавр
28.03.01;Нанотехнологии и микросистемная техника;Бакалавр
28.03.02;Наноинженерия;Бакалавр
28.03.03;Наноматериалы;Бакалавр
29.03.01;Технология изделий легкой промышленности;Бакалавр
29.03.02;Технологии и проектирование текстильных изделий;Бакалавр
29.03.03;Технология полиграфического и упаковочного производства;Бакалавр
29.03.04;Технология художественной обработки материалов;Бакалавр
29.03.05;Конструирование изделий легкой промышленности;Бакалавр
34.03.01;Сестринское дело;Академическая медицинская сестра. Преподаватель
35.03.01;Лесное дело;Бакалавр
35.03.02;Технология лесозаготовительных и деревоперерабатывающих производств;Бакалавр
35.03.03;Агрохимия и агропочвоведение;Бакалавр
35.03.04;Агрономия;Бакалавр
35.03.05;Садоводство;Бакалавр
35.03.06;Агроинженерия;Бакалавр
35.03.07;Технология производства и переработки сельскохозяйственной продукции;Бакалавр
35.03.08;Водные биоресурсы и аквакультура;Бакалавр
35.03.09;Промышленное рыболовство;Бакалавр
35.03.10;Ландшафтная архитектура;Бакалавр
36.03.01;Ветеринарно-санитарная экспертиза;Бакалавр
36.03.02;Зоотехния;Бакалавр
37.03.01;Психология;Бакалавр
37.03.02;Конфликтология;Бакалавр
38.03.01;Экономика;Бакалавр
38.03.02;Менеджмент;Бакалавр
38.03.03;Управление персоналом;Бакалавр
38.03.04;Государственное и муниципальное управление;Бакалавр
38.03.05;Бизнес-информатика;Бакалавр
38.03.06;Торговое дело;Бакалавр
38.03.07;Товароведение;Бакалавр
39.03.01;Социология;Бакалавр
39.03.02;Социальная работа;Бакалавр
39.03.03;Организация работы с молодежью;Бакалавр
40.03.01;Юриспруденция;Бакалавр
41.03.01;Зарубежное регионоведение;Бакалавр
41.03.02;Регионоведение России;Бакалавр
41.03.03;Востоковедение и африканистика;Бакалавр
41.03.04;Политология;Бакалавр
41.03.05;Международные отношения;Бакалавр
41.03.06;Публичная политика и социальные науки;Бакалавр
42.03.01;Реклама и связи с общественностью;Бакалавр
42.03.02;Журналистика;Бакалавр
42.03.03;Издательское дело;Бакалавр
42.03.04;Телевидение;Бакалавр
42.03.05;Медиакоммуникации;Бакалавр
43.03.01;Сервис;Бакалавр
43.03.02;Туризм;Бакалавр
43.03.03;Гостиничное дело;Бакалавр
44.03.01;Педагогическое образование;Бакалавр
44.03.02;Психолого-педагогическое образование;Бакалавр
44.03.03;Специальное (дефектологическое) образование;Бакалавр
44.03.04;Профессиональное обучение (по отраслям);Бакалавр
44.03.05;Педагогическое образование (с двумя профилями подготовки);Бакалавр
45.03.01;Филология;Бакалавр
45.03.02;Лингвистика;Бакалавр
45.03.03;Фундаментальная и прикладная лингвистика;Бакалавр
45.03.04;Интеллектуальные системы в гуманитарной сфере;Бакалавр
46.03.01;История;Бакалавр
46.03.02;Документоведение и архивоведение;Бакалавр
46.03.03;Антропология и этнология;Бакалавр
47.03.01;Философия;Бакалавр
47.03.02;Прикладная этика;Бакалавр
47.03.03;Религиоведение;Бакалавр
48.03.01;Теология;Бакалавр
49.03.01;Физическая культура;Бакалавр
49.03.02;Физическая культура для лиц с отклонениями в состоянии здоровья (адаптивная физическая культура);Бакалавр
49.03.03;Рекреация и спортивно-оздоровительный туризм;Бакалавр
50.03.01;Искусства и гуманитарные науки;Бакалавр
50.03.02;Изящные искусства;Бакалавр
50.03.03;История искусств;Бакалавр
50.03.04;Теория и история искусств;Бакалавр
51.03.01;Культурология;Бакалавр
51.03.02;Народная художественная культура;Бакалавр
51.03.03;Социально-культурная деятельность;Бакалавр
51.03.04;Музеология и охрана объектов культурного и природного наследия;Бакалавр
51.03.05;Режиссура театрализованных представлений и праздников;Бакалавр
51.03.06;Библиотечно-информационная деятельность;Бакалавр
52.03.01;Хореографическое искусство;Бакалавр
52.03.02;Хореографическое исполнительство;Бакалавр
52.03.03;Цирковое искусство;Бакалавр
52.03.04;Технология художественного оформления спектакля;Бакалавр
52.03.05;Театроведение;Бакалавр
52.03.06;Драматургия;Бакалавр
53.03.01;Музыкальное искусство эстрады;"Концертный исполнитель. Артист ансамбля. Преподаватель (Инструменты эстрадного оркестра);Концертный исполнитель. Артист ансамбля. Преподаватель (Эстрадно-джазовое пение);Концертный исполнитель. Артист ансамбля. Преподаватель (Мюзикл, шоу-программы)"
53.03.02;Музыкально-инструментальное искусство;"Артист ансамбля. Концертмейстер. Преподаватель (Фортепиано);Артист ансамбля. Концертмейстер. Преподаватель (Орган);Артист ансамбля. Артист оркестра. Преподаватель. Руководитель творческого коллектива (Оркестровые духовые и ударные инструменты);Артист ансамбля. Артист оркестра. Преподаватель. Руководитель творческого коллектива (Оркестровые струнные инструменты);Артист ансамбля. Артист оркестра. Концертмейстер. Руководитель творческого коллектива. Преподаватель (Баян, аккордеон и струнные щипковые инструменты);Артист ансамбля. Артист оркестра. Преподаватель. Руководитель творческого коллектива (Национальные инструменты народов России)"
53.03.03;Вокальное искусство;"Концертно-камерный певец. Преподаватель (Академическое пение);Артист музыкального театра. Преподаватель (Театр оперетты)"
53.03.04;Искусство народного пения;"Хормейстер. Руководитель творческого коллектива. Преподаватель (Хоровое народное пение);Концертный исполнитель. Солист ансамбля. Преподаватель (Сольное народное пение)"
53.03.05;Дирижирование;"Дирижер хора. Хормейстер. Артист хора. Преподаватель (Дирижирование академическим хором);Дирижер оркестра народных инструментов. Преподаватель (Дирижирование оркестром народных инструментов);Дирижер оркестра духовых инструментов. Преподаватель (Дирижирование оркестром духовых инструментов);Дирижер оперно-симфонического оркестра. Преподаватель (Дирижирование оперно-симфоническим оркестром);Дирижер хора. Хормейстер. Артист хора. Преподаватель (Певческое хоровое искусство)"
53.03.06;Музыкознание и музыкально-прикладное искусство;"Музыковед. Преподаватель. Лектор (музыковедение);Преподаватель. Музыкальный журналист. Редактор СМИ (музыкальная журналистика и редакторская деятельность в СМИ);Этномузыколог. Преподаватель. Руководитель творческого коллектива (этномузыкология);Медиевист. Преподаватель. Руководитель творческого коллектива (древнерусское певческое искусство);Преподаватель (музыкальная педагогика);Преподаватель. Аранжировщик (компьютерная музыка и аранжировка);Преподаватель. Менеджер музыкального искусства (менеджмент музыкального искусства);Преподаватель. Специалист в области музыкальной рекламы (музыкальная реклама)"
54.03.01;Дизайн;Бакалавр
54.03.02;Декоративно-прикладное искусство и народные промыслы;Бакалавр
54.03.03;Искусство костюма и текстиля;Бакалавр
54.03.04;Реставрация;Бакалавр
