31.10.01;Акушерство и гинекология;Врач-акушер-гинеколог
31.10.02;Анестезиология-реаниматология;Врач-анестезиолог-реаниматолог
31.10.03;Токсикология;Врач-токсиколог
31.10.04;Трансфузиология;Врач-трансфузиолог
31.10.05;Клиническая лабораторная диагностика;Врач клинической лабораторной диагностики
31.10.06;Лабораторная генетика;Врач - лабораторный генетик
31.10.07;Патологическая анатомия;Врач-патологоанатом
31.10.08;Радиология;Врач-радиолог
31.10.09;Рентгенология;Врач-рентгенолог
31.10.10;Судебно-медицинская экспертиза;Врач - судебно-медицинский эксперт
31.10.11;Ультразвуковая диагностика;Врач - ультразвуковой диагност
31.10.12;Функциональная диагностика;Врач - функциональный диагност
31.10.13;Детская кардиология;Врач - детский кардиолог
31.10.14;Детская онкология;Врач - детский онколог
31.10.15;Детская урология-андрология;Врач - детский уролог-андролог
31.10.16;Детская хирургия;Врач - детский хирург
31.10.17;Детская эндокринология;Врач - детский эндокринолог
31.10.18;Неонатология;Врач-неонатолог
31.10.19;Педиатрия;Врач-педиатр
31.10.20;Психиатрия;Врач-психиатр
31.10.21;Психиатрия-наркология;Врач-психиатр-нарколог
31.10.22;Психотерапия;Врач-психотерапевт
31.10.23;Сексология;Врач-сексолог
31.10.24;Судебно-психиатрическая экспертиза;Врач - судебно-психиатрический эксперт
31.10.25;Авиационная и космическая медицина;Врач по авиационной и космической медицине
31.10.26;Аллергология и иммунология;Врач-аллерголог-иммунолог
31.10.27;Водолазная медицина;Врач по водолазной медицине
31.10.28;Гастроэнтерология;Врач-гастроэнтеролог
31.10.29;Гематология;Врач-гематолог
31.10.30;Генетика;Врач-генетик
31.10.31;Гериатрия;Врач-гериатр
31.10.32;Дерматовенерология;Врач-дерматовенеролог
31.10.33;Диабетология;Врач-диабетолог
31.10.34;Диетология;Врач-диетолог
31.10.35;Инфекционные болезни;Врач-инфекционист
31.10.36;Кардиология;Врач-кардиолог
31.10.37;Клиническая фармакология;Врач - клинический фармаколог
31.10.38;Косметология;Врач-косметолог
31.10.39;Лечебная физкультура и спортивная медицина;Врач по лечебной физкультуре и спортивной медицине
31.10.40;Мануальная терапия;Врач - мануальный терапевт
31.10.41;Медико-социальная экспертиза;Врач - медико-социальный эксперт
31.10.42;Неврология;Врач-невролог
31.10.43;Нефрология;Врач-нефролог
31.10.44;Профпатология;Врач-профпатолог
31.10.45;Пульмонология;Врач-пульмонолог
31.10.46;Ревматология;Врач-ревматолог
31.10.47;Рефлексотерапия;Врач-рефлексотерапевт
31.10.48;Скорая медицинская помощь;Врач скорой медицинской помощи
31.10.49;Терапия;Врач-терапевт
31.10.50;Физиотерапия;Врач-физиотерапевт
31.10.51;Фтизиатрия;Врач-фтизиатр
31.10.52;Остеопатия;Врач-остеопат
31.10.53;Эндокринология;Врач-эндокринолог
31.10.54;Общая врачебная практика (семейная медицина);Врач общей врачебной практики (семейная медицина)
31.10.55;Колопроктология;Врач-колопроктолог
31.10.56;Нейрохирургия;Врач-нейрохирург
31.10.57;Онкология;Врач-онколог
31.10.58;Оториноларингология;Врач-оториноларинголог
31.10.59;Офтальмология;Врач-офтальмолог
31.10.60;Пластическая хирургия;Врач - пластический хирург
31.10.61;Радиотерапия;Врач-радиотерапевт
31.10.62;Рентгенэндоваскулярные диагностика и лечение;Врач по рентгенэндоваскулярным диагностике и лечению
31.10.63;Сердечно-сосудистая хирургия;Врач - сердечно-сосудистый хирург
31.10.64;Сурдология-оториноларингология;Врач-сурдолог-оториноларинголог
31.10.65;Торакальная хирургия;Врач - торакальный хирург
31.10.66;Травматология и ортопедия;Врач-травматолог-ортопед
31.10.67;Хирургия;Врач-хирург
31.10.68;Урология;Врач-уролог
31.10.69;Челюстно-лицевая хирургия;Врач - челюстно-лицевой хирург
31.10.70;Эндоскопия;Врач-эндоскопист
31.10.71;Организация здравоохранения и общественное здоровье;Врач - организатор здравоохранения и общественного здоровья
31.10.72;Стоматология общей практики;Врач-стоматолог
31.10.73;Стоматология терапевтическая;Врач-стоматолог-терапевт
31.10.74;Стоматология хирургическая;Врач-стоматолог-хирург
31.10.75;Стоматология ортопедическая;Врач-стоматолог-ортопед
31.10.76;Стоматология детская;Врач-стоматолог детский
31.10.77;Ортодонтия;Врач-ортодонт
31.10.78;Управление сестринской деятельностью;Менеджер
32.10.01;Гигиена детей и подростков;Врач по гигиене детей и подростков
32.10.02;Гигиена питания;Врач по гигиене питания
32.10.03;Гигиена труда;Врач по гигиене труда
32.10.04;Гигиеническое воспитание;Врач по гигиеническому воспитанию
32.10.05;Дезинфектология;Врач-дезинфектолог
32.10.06;Коммунальная гигиена;Врач по коммунальной гигиене
32.10.07;Общая гигиена;Врач по общей гигиене
32.10.08;Паразитология;Врач-паразитолог
32.10.09;Радиационная гигиена;Врач по радиационной гигиене
32.10.10;Санитарно-гигиенические лабораторные исследования;Врач по санитарно-гигиеническим лабораторным исследованиям
32.10.11;Социальная гигиена и организация госсанэпидслужбы;Врач по социальной гигиене и организации госсанэпидслужбы
32.10.12;Эпидемиология;Врач-эпидемиолог
32.10.13;Вирусология;Врач-вирусолог
32.10.14;Бактериология;Врач-бактериолог
33.10.01;Фармацевтическая технология;Провизор-технолог
33.10.02;Управление и экономика фармации;Провизор-менеджер
33.10.03;Фармацевтическая химия и фармакогнозия;Провизор-аналитик
