{"name":"unisc",
 "interfaces":[],
 "entities":[
		{"name":"uniscAgreementIncomeReport","abstract":false,"parent":null,"table":"uniscagreementincomereport_t","interfaces":[],"properties":[{"name":"id","column":"id","type":"LONG","length":255,"required":true,"remote":null},{"name":"class","column":"discriminator","type":"SHORT","length":255,"required":true,"remote":null},{"name":"content","column":"content_id","type":"LONG","length":0,"required":true,"remote":"databaseFile"},{"name":"formingDate","column":"formingdate_p","type":"TIMESTAMP","length":255,"required":true,"remote":null},{"name":"orgUnit","column":"orgunit_id","type":"LONG","length":0,"required":false,"remote":"orgUnit"},{"name":"formativeOrgUnitTitle","column":"formativeorgunittitle_p","type":"TRIMMEDSTRING","length":255,"required":false,"remote":null},{"name":"territorialOrgUnitTitle","column":"territorialorgunittitle_p","type":"TRIMMEDSTRING","length":255,"required":false,"remote":null},{"name":"eduLevelTitle","column":"eduleveltitle_p","type":"TEXT","length":255,"required":false,"remote":null},{"name":"developFormTitle","column":"developformtitle_p","type":"TRIMMEDSTRING","length":255,"required":false,"remote":null},{"name":"developConditionTitle","column":"developconditiontitle_p","type":"TRIMMEDSTRING","length":255,"required":false,"remote":null},{"name":"developTechTitle","column":"developtechtitle_p","type":"TRIMMEDSTRING","length":255,"required":false,"remote":null},{"name":"developPeriodTitle","column":"developperiodtitle_p","type":"TRIMMEDSTRING","length":255,"required":false,"remote":null},{"name":"selection","column":"selection_p","type":"TRIMMEDSTRING","length":255,"required":false,"remote":null},{"name":"course","column":"course_p","type":"TRIMMEDSTRING","length":255,"required":false,"remote":null},{"name":"group","column":"group_p","type":"TRIMMEDSTRING","length":255,"required":false,"remote":null},{"name":"detalization","column":"detalization_p","type":"TRIMMEDSTRING","length":255,"required":false,"remote":null},{"name":"dateFrom","column":"datefrom_p","type":"TIMESTAMP","length":255,"required":true,"remote":null},{"name":"dateTo","column":"dateto_p","type":"TIMESTAMP","length":255,"required":true,"remote":null}]},
		{"name":"uniscAgreementIncomeSummaryReport","abstract":false,"parent":null,"table":"nscagrmntincmsmmryrprt_t","interfaces":[],"properties":[{"name":"id","column":"id","type":"LONG","length":255,"required":true,"remote":null},{"name":"class","column":"discriminator","type":"SHORT","length":255,"required":true,"remote":null},{"name":"content","column":"content_id","type":"LONG","length":0,"required":true,"remote":"databaseFile"},{"name":"formingDate","column":"formingdate_p","type":"TIMESTAMP","length":255,"required":true,"remote":null},{"name":"orgUnit","column":"orgunit_id","type":"LONG","length":0,"required":false,"remote":"orgUnit"},{"name":"formativeOrgUnitTitle","column":"formativeorgunittitle_p","type":"TRIMMEDSTRING","length":255,"required":false,"remote":null},{"name":"territorialOrgUnitTitle","column":"territorialorgunittitle_p","type":"TRIMMEDSTRING","length":255,"required":false,"remote":null},{"name":"eduLevelTitle","column":"eduleveltitle_p","type":"TEXT","length":255,"required":false,"remote":null},{"name":"developFormTitle","column":"developformtitle_p","type":"TRIMMEDSTRING","length":255,"required":false,"remote":null},{"name":"developConditionTitle","column":"developconditiontitle_p","type":"TRIMMEDSTRING","length":255,"required":false,"remote":null},{"name":"developTechTitle","column":"developtechtitle_p","type":"TRIMMEDSTRING","length":255,"required":false,"remote":null},{"name":"developPeriodTitle","column":"developperiodtitle_p","type":"TRIMMEDSTRING","length":255,"required":false,"remote":null},{"name":"course","column":"course_p","type":"TRIMMEDSTRING","length":255,"required":false,"remote":null},{"name":"group","column":"group_p","type":"TRIMMEDSTRING","length":255,"required":false,"remote":null},{"name":"dateFrom","column":"datefrom_p","type":"TIMESTAMP","length":255,"required":true,"remote":null},{"name":"dateTo","column":"dateto_p","type":"TIMESTAMP","length":255,"required":true,"remote":null}]},
		{"name":"uniscCustomerType","abstract":false,"parent":null,"table":"unisccustomertype_t","interfaces":[],"properties":[{"name":"id","column":"id","type":"LONG","length":255,"required":true,"remote":null},{"name":"class","column":"discriminator","type":"SHORT","length":255,"required":true,"remote":null},{"name":"code","column":"code_p","type":"TRIMMEDSTRING","length":255,"required":true,"remote":null},{"name":"hidden","column":"hidden_p","type":"BOOLEAN","length":255,"required":true,"remote":null},{"name":"title","column":"title_p","type":"TRIMMEDSTRING","length":1200,"required":false,"remote":null}]},
		{"name":"uniscEduAgreement2Student","abstract":false,"parent":null,"table":"sc_eduag2student","interfaces":[],"properties":[{"name":"id","column":"id","type":"LONG","length":255,"required":true,"remote":null},{"name":"class","column":"discriminator","type":"SHORT","length":255,"required":true,"remote":null},{"name":"agreement","column":"agreement_id","type":"LONG","length":0,"required":true,"remote":"uniscEduMainAgreement"},{"name":"student","column":"student_id","type":"LONG","length":0,"required":true,"remote":"student"},{"name":"active","column":"active_p","type":"BOOLEAN","length":255,"required":true,"remote":null}]},
		{"name":"uniscEduAgreementBase","abstract":true,"parent":null,"table":"sc_ag_base","interfaces":[],"properties":[{"name":"id","column":"id","type":"LONG","length":255,"required":true,"remote":null},{"name":"class","column":"discriminator","type":"SHORT","length":255,"required":true,"remote":null},{"name":"config","column":"config_id","type":"LONG","length":0,"required":true,"remote":"uniscEduOrgUnit"},{"name":"number","column":"number_p","type":"TRIMMEDSTRING","length":255,"required":true,"remote":null},{"name":"formingDate","column":"formingdate_p","type":"DATE","length":255,"required":true,"remote":null},{"name":"deadlineDate","column":"deadlinedate_p","type":"DATE","length":255,"required":false,"remote":null},{"name":"lastModificationDate","column":"lastmodificationdate_p","type":"TIMESTAMP","length":255,"required":true,"remote":null},{"name":"developPeriodGos","column":"developperiodgos_id","type":"LONG","length":0,"required":false,"remote":"developPeriod"},{"name":"developPeriodEduPlan","column":"developperiodeduplan_id","type":"LONG","length":0,"required":false,"remote":"developPeriod"},{"name":"payPlanDuration","column":"payplanduration_id","type":"LONG","length":0,"required":true,"remote":"uniscPayPeriod"},{"name":"payPlanFreq","column":"payplanfreq_id","type":"LONG","length":0,"required":true,"remote":"uniscPayPeriod"},{"name":"firstStage","column":"firststage_p","type":"INTEGER","length":255,"required":true,"remote":null},{"name":"customerType","column":"customertype_id","type":"LONG","length":0,"required":true,"remote":"uniscCustomerType"},{"name":"juridicalPerson","column":"juridicalperson_id","type":"LONG","length":0,"required":false,"remote":"contactPerson"},{"name":"checkedByLawyer","column":"checkedbylawyer_p","type":"BOOLEAN","length":255,"required":true,"remote":null},{"name":"checkedByAccounting","column":"checkedbyaccounting_p","type":"BOOLEAN","length":255,"required":true,"remote":null},{"name":"checkedBySignature","column":"checkedbysignature_p","type":"BOOLEAN","length":255,"required":true,"remote":null},{"name":"printVersion","column":"printversion_id","type":"LONG","length":0,"required":false,"remote":"uniscEduAgreementPrintVersion"}]},
		{"name":"uniscEduAdditAgreement","abstract":false,"parent":"uniscEduAgreementBase","table":"sc_ag_additional","interfaces":[],"properties":[{"name":"agreement","column":"agreement_id","type":"LONG","length":0,"required":false,"remote":"uniscEduMainAgreement"}]},
		{"name":"uniscEduMainAgreement","abstract":false,"parent":"uniscEduAgreementBase","table":"unisc_ag_agreement","interfaces":[],"properties":[{"name":"uuid","column":"uuid_p","type":"TRIMMEDSTRING","length":255,"required":false,"remote":null}]},
		{"name":"uniscEduAgreementFinesHistory","abstract":false,"parent":null,"table":"sc_ag_fines","interfaces":[],"properties":[{"name":"id","column":"id","type":"LONG","length":255,"required":true,"remote":null},{"name":"class","column":"discriminator","type":"SHORT","length":255,"required":true,"remote":null},{"name":"owner","column":"owner_id","type":"LONG","length":0,"required":true,"remote":"uniscEduAgreementBase"},{"name":"date","column":"date_p","type":"DATE","length":255,"required":true,"remote":null},{"name":"active","column":"active_p","type":"BOOLEAN","length":255,"required":true,"remote":null}]},
		{"name":"uniscEduAgreementFinesState","abstract":false,"parent":null,"table":"sc_ag_fines_row","interfaces":[],"properties":[{"name":"id","column":"id","type":"LONG","length":255,"required":true,"remote":null},{"name":"class","column":"discriminator","type":"SHORT","length":255,"required":true,"remote":null},{"name":"agreement","column":"agreement_id","type":"LONG","length":0,"required":true,"remote":"uniscEduMainAgreement"},{"name":"date","column":"date_p","type":"DATE","length":255,"required":true,"remote":null},{"name":"finesActive","column":"finesactive_p","type":"BOOLEAN","length":255,"required":true,"remote":null}]},
		{"name":"uniscEduAgreementNaturalPerson","abstract":false,"parent":null,"table":"sc_ag_nperson","interfaces":[],"properties":[{"name":"id","column":"id","type":"LONG","length":255,"required":true,"remote":null},{"name":"class","column":"discriminator","type":"SHORT","length":255,"required":true,"remote":null},{"name":"owner","column":"owner_id","type":"LONG","length":0,"required":true,"remote":"uniscEduAgreementBase"},{"name":"relationDegree","column":"relationdegree_id","type":"LONG","length":0,"required":true,"remote":"relationDegree"},{"name":"address","column":"address_id","type":"LONG","length":0,"required":true,"remote":"addressDetailed"},{"name":"lastName","column":"lastname_p","type":"TRIMMEDSTRING","length":255,"required":true,"remote":null},{"name":"firstName","column":"firstname_p","type":"TRIMMEDSTRING","length":255,"required":true,"remote":null},{"name":"middleName","column":"middlename_p","type":"TRIMMEDSTRING","length":255,"required":false,"remote":null},{"name":"passportSeria","column":"passportseria_p","type":"TRIMMEDSTRING","length":255,"required":false,"remote":null},{"name":"passportNumber","column":"passportnumber_p","type":"TRIMMEDSTRING","length":255,"required":false,"remote":null},{"name":"passportIssuanceDate","column":"passportissuancedate_p","type":"DATE","length":255,"required":false,"remote":null},{"name":"passportIssuancePlace","column":"passportissuanceplace_p","type":"TRIMMEDSTRING","length":255,"required":false,"remote":null},{"name":"passportIssuanceCode","column":"passportissuancecode_p","type":"TRIMMEDSTRING","length":255,"required":false,"remote":null},{"name":"homePhoneNumber","column":"homephonenumber_p","type":"TRIMMEDSTRING","length":255,"required":false,"remote":null},{"name":"mobilePhoneNumber","column":"mobilephonenumber_p","type":"TRIMMEDSTRING","length":255,"required":false,"remote":null},{"name":"signInAgreement","column":"signinagreement_p","type":"BOOLEAN","length":255,"required":true,"remote":null},{"name":"usedInAgreement","column":"usedinagreement_p","type":"BOOLEAN","length":255,"required":true,"remote":null}]},
		{"name":"uniscEduAgreementPayFactRow","abstract":false,"parent":null,"table":"sc_ag_fact_row","interfaces":[],"properties":[{"name":"id","column":"id","type":"LONG","length":255,"required":true,"remote":null},{"name":"class","column":"discriminator","type":"SHORT","length":255,"required":true,"remote":null},{"name":"agreement","column":"agreement_id","type":"LONG","length":0,"required":true,"remote":"uniscEduMainAgreement"},{"name":"uuid","column":"uuid_p","type":"TRIMMEDSTRING","length":255,"required":false,"remote":null},{"name":"date","column":"date_p","type":"DATE","length":255,"required":true,"remote":null},{"name":"finesPayment","column":"finespayment_p","type":"BOOLEAN","length":255,"required":true,"remote":null},{"name":"JCost","column":"jcost_p","type":"LONG","length":255,"required":true,"remote":null},{"name":"NCost","column":"ncost_p","type":"LONG","length":255,"required":true,"remote":null},{"name":"type","column":"type_id","type":"LONG","length":0,"required":false,"remote":"uniscPaymentDocumentType"},{"name":"number","column":"number_p","type":"TRIMMEDSTRING","length":255,"required":false,"remote":null},{"name":"payer","column":"payer_p","type":"TRIMMEDSTRING","length":255,"required":false,"remote":null},{"name":"comment","column":"comment_p","type":"TRIMMEDSTRING","length":255,"required":false,"remote":null}]},
		{"name":"uniscEduAgreementPayPlanRow","abstract":false,"parent":null,"table":"sc_ag_plan_row","interfaces":[],"properties":[{"name":"id","column":"id","type":"LONG","length":255,"required":true,"remote":null},{"name":"class","column":"discriminator","type":"SHORT","length":255,"required":true,"remote":null},{"name":"owner","column":"owner_id","type":"LONG","length":0,"required":true,"remote":"uniscEduAgreementBase"},{"name":"replacedBy","column":"replacedby_id","type":"LONG","length":0,"required":false,"remote":"uniscEduAdditAgreement"},{"name":"stage","column":"stage_p","type":"INTEGER","length":255,"required":true,"remote":null},{"name":"date","column":"date_p","type":"DATE","length":255,"required":true,"remote":null},{"name":"JCost","column":"jcost_p","type":"LONG","length":255,"required":true,"remote":null},{"name":"NCost","column":"ncost_p","type":"LONG","length":255,"required":true,"remote":null},{"name":"comment","column":"comment_p","type":"TRIMMEDSTRING","length":255,"required":false,"remote":null},{"name":"discount","column":"discount_p","type":"DOUBLE","length":255,"required":false,"remote":null},{"name":"changed","column":"changed_p","type":"DATE","length":255,"required":false,"remote":null}]},
		{"name":"uniscEduAgreementPrintVersion","abstract":false,"parent":null,"table":"sc_ag_print","interfaces":[],"properties":[{"name":"id","column":"id","type":"LONG","length":255,"required":true,"remote":null},{"name":"class","column":"discriminator","type":"SHORT","length":255,"required":true,"remote":null},{"name":"owner","column":"owner_id","type":"LONG","length":0,"required":true,"remote":"uniscEduAgreementBase"},{"name":"file","column":"file_id","type":"LONG","length":0,"required":true,"remote":"databaseFile"},{"name":"uploaded","column":"uploaded_p","type":"BOOLEAN","length":255,"required":true,"remote":null},{"name":"timestamp","column":"timestamp_p","type":"TIMESTAMP","length":255,"required":true,"remote":null},{"name":"title","column":"title_p","type":"TRIMMEDSTRING","length":255,"required":false,"remote":null},{"name":"comment","column":"comment_p","type":"TRIMMEDSTRING","length":255,"required":false,"remote":null},{"name":"fileName","column":"filename_p","type":"TRIMMEDSTRING","length":255,"required":false,"remote":null},{"name":"contentType","column":"contenttype_p","type":"TRIMMEDSTRING","length":255,"required":false,"remote":null},{"name":"user","column":"user_p","type":"TRIMMEDSTRING","length":255,"required":false,"remote":null}]},
		{"name":"uniscEduOrgUnit","abstract":false,"parent":null,"table":"sc_eduou_config","interfaces":[],"properties":[{"name":"id","column":"id","type":"LONG","length":255,"required":true,"remote":null},{"name":"class","column":"discriminator","type":"SHORT","length":255,"required":true,"remote":null},{"name":"educationYear","column":"educationyear_id","type":"LONG","length":0,"required":true,"remote":"educationYear"},{"name":"educationOrgUnit","column":"educationorgunit_id","type":"LONG","length":0,"required":true,"remote":"educationOrgUnit"},{"name":"cipher","column":"cipher_p","type":"TRIMMEDSTRING","length":255,"required":false,"remote":null},{"name":"countTerm","column":"countterm_p","type":"INTEGER","length":255,"required":true,"remote":null},{"name":"description","column":"description_p","type":"TRIMMEDSTRING","length":2048,"required":false,"remote":null},{"name":"conditions","column":"conditions_p","type":"TRIMMEDSTRING","length":2048,"required":false,"remote":null},{"name":"defaultFormingDate","column":"defaultformingdate_p","type":"DATE","length":255,"required":false,"remote":null},{"name":"defaultDeadlineDate","column":"defaultdeadlinedate_p","type":"DATE","length":255,"required":false,"remote":null}]},
		{"name":"uniscEduOrgUnitPayPlan","abstract":false,"parent":null,"table":"sc_eduou_pay_plan","interfaces":[],"properties":[{"name":"id","column":"id","type":"LONG","length":255,"required":true,"remote":null},{"name":"class","column":"discriminator","type":"SHORT","length":255,"required":true,"remote":null},{"name":"uniscEduOrgUnit","column":"unisceduorgunit_id","type":"LONG","length":0,"required":true,"remote":"uniscEduOrgUnit"},{"name":"uniscPayFreq","column":"uniscpayfreq_id","type":"LONG","length":0,"required":true,"remote":"uniscPayPeriod"}]},
		{"name":"uniscEduOrgUnitPayPlanRow","abstract":false,"parent":null,"table":"sc_eduou_pay_plan_row","interfaces":[],"properties":[{"name":"id","column":"id","type":"LONG","length":255,"required":true,"remote":null},{"name":"class","column":"discriminator","type":"SHORT","length":255,"required":true,"remote":null},{"name":"plan","column":"plan_id","type":"LONG","length":0,"required":true,"remote":"uniscEduOrgUnitPayPlan"},{"name":"stage","column":"stage_p","type":"INTEGER","length":255,"required":true,"remote":null},{"name":"date","column":"date_p","type":"DATE","length":255,"required":true,"remote":null},{"name":"cost","column":"cost_p","type":"LONG","length":255,"required":true,"remote":null}]},
		{"name":"uniscEduOrgUnitRelation","abstract":false,"parent":null,"table":"sc_eduou_config_relation","interfaces":[],"properties":[{"name":"id","column":"id","type":"LONG","length":255,"required":true,"remote":null},{"name":"class","column":"discriminator","type":"SHORT","length":255,"required":true,"remote":null},{"name":"config","column":"config_id","type":"LONG","length":0,"required":true,"remote":"uniscEduOrgUnit"},{"name":"basedOn","column":"basedon_id","type":"LONG","length":0,"required":true,"remote":"uniscEduOrgUnit"}]},
		{"name":"uniscFinesHistory","abstract":false,"parent":null,"table":"sc_fines","interfaces":[],"properties":[{"name":"id","column":"id","type":"LONG","length":255,"required":true,"remote":null},{"name":"class","column":"discriminator","type":"SHORT","length":255,"required":true,"remote":null},{"name":"date","column":"date_p","type":"DATE","length":255,"required":true,"remote":null},{"name":"tax","column":"tax_p","type":"DOUBLE","length":255,"required":true,"remote":null}]},
		{"name":"uniscFreq2DevForm","abstract":false,"parent":null,"table":"sc_freq2dform","interfaces":[],"properties":[{"name":"id","column":"id","type":"LONG","length":255,"required":true,"remote":null},{"name":"class","column":"discriminator","type":"SHORT","length":255,"required":true,"remote":null},{"name":"freq","column":"freq_id","type":"LONG","length":0,"required":true,"remote":"uniscPayPeriod"},{"name":"developForm","column":"developform_id","type":"LONG","length":0,"required":true,"remote":"developForm"}]},
		{"name":"uniscGroupIncomeReport","abstract":false,"parent":null,"table":"uniscgroupincomereport_t","interfaces":[],"properties":[{"name":"id","column":"id","type":"LONG","length":255,"required":true,"remote":null},{"name":"class","column":"discriminator","type":"SHORT","length":255,"required":true,"remote":null},{"name":"content","column":"content_id","type":"LONG","length":0,"required":true,"remote":"databaseFile"},{"name":"formingDate","column":"formingdate_p","type":"TIMESTAMP","length":255,"required":true,"remote":null},{"name":"orgUnit","column":"orgunit_id","type":"LONG","length":0,"required":false,"remote":"orgUnit"},{"name":"group","column":"group_p","type":"TRIMMEDSTRING","length":255,"required":false,"remote":null},{"name":"dateFrom","column":"datefrom_p","type":"TIMESTAMP","length":255,"required":true,"remote":null},{"name":"dateTo","column":"dateto_p","type":"TIMESTAMP","length":255,"required":true,"remote":null}]},
		{"name":"uniscInflationHistory","abstract":false,"parent":null,"table":"sc_inflations","interfaces":[],"properties":[{"name":"id","column":"id","type":"LONG","length":255,"required":true,"remote":null},{"name":"class","column":"discriminator","type":"SHORT","length":255,"required":true,"remote":null},{"name":"date","column":"date_p","type":"DATE","length":255,"required":true,"remote":null},{"name":"tax","column":"tax_p","type":"DOUBLE","length":255,"required":true,"remote":null}]},
		{"name":"uniscOrgUnitPresenter","abstract":false,"parent":null,"table":"sc_presenters","interfaces":[],"properties":[{"name":"id","column":"id","type":"LONG","length":255,"required":true,"remote":null},{"name":"class","column":"discriminator","type":"SHORT","length":255,"required":true,"remote":null},{"name":"orgUnit","column":"orgunit_id","type":"LONG","length":0,"required":true,"remote":"orgUnit"},{"name":"person","column":"person_p","type":"STRING","length":255,"required":true,"remote":null},{"name":"grounds","column":"grounds_p","type":"STRING","length":255,"required":true,"remote":null}]},
		{"name":"uniscPayPeriod","abstract":false,"parent":null,"table":"uniscpayperiod_t","interfaces":[],"properties":[{"name":"id","column":"id","type":"LONG","length":255,"required":true,"remote":null},{"name":"class","column":"discriminator","type":"SHORT","length":255,"required":true,"remote":null},{"name":"code","column":"code_p","type":"TRIMMEDSTRING","length":255,"required":true,"remote":null},{"name":"hidden","column":"hidden_p","type":"BOOLEAN","length":255,"required":true,"remote":null},{"name":"title","column":"title_p","type":"TRIMMEDSTRING","length":1200,"required":false,"remote":null}]},
		{"name":"uniscPaymentDocumentType","abstract":false,"parent":null,"table":"uniscpaymentdocumenttype_t","interfaces":[],"properties":[{"name":"id","column":"id","type":"LONG","length":255,"required":true,"remote":null},{"name":"class","column":"discriminator","type":"SHORT","length":255,"required":true,"remote":null},{"name":"code","column":"code_p","type":"TRIMMEDSTRING","length":255,"required":true,"remote":null},{"name":"shortTitle","column":"shorttitle_p","type":"TRIMMEDSTRING","length":255,"required":false,"remote":null},{"name":"title","column":"title_p","type":"TRIMMEDSTRING","length":1200,"required":false,"remote":null}]},
		{"name":"uniscPaymentReport","abstract":false,"parent":null,"table":"uniscpaymentreport_t","interfaces":[],"properties":[{"name":"id","column":"id","type":"LONG","length":255,"required":true,"remote":null},{"name":"class","column":"discriminator","type":"SHORT","length":255,"required":true,"remote":null},{"name":"content","column":"content_id","type":"LONG","length":0,"required":true,"remote":"databaseFile"},{"name":"formingDate","column":"formingdate_p","type":"TIMESTAMP","length":255,"required":true,"remote":null},{"name":"orgUnit","column":"orgunit_id","type":"LONG","length":0,"required":false,"remote":"orgUnit"},{"name":"formativeOrgUnitTitle","column":"formativeorgunittitle_p","type":"TRIMMEDSTRING","length":255,"required":false,"remote":null},{"name":"territorialOrgUnitTitle","column":"territorialorgunittitle_p","type":"TRIMMEDSTRING","length":255,"required":false,"remote":null},{"name":"eduLevelTitle","column":"eduleveltitle_p","type":"TEXT","length":255,"required":false,"remote":null},{"name":"developFormTitle","column":"developformtitle_p","type":"TRIMMEDSTRING","length":255,"required":false,"remote":null},{"name":"developConditionTitle","column":"developconditiontitle_p","type":"TRIMMEDSTRING","length":255,"required":false,"remote":null},{"name":"developTechTitle","column":"developtechtitle_p","type":"TRIMMEDSTRING","length":255,"required":false,"remote":null},{"name":"developPeriodTitle","column":"developperiodtitle_p","type":"TRIMMEDSTRING","length":255,"required":false,"remote":null},{"name":"selection","column":"selection_p","type":"TRIMMEDSTRING","length":255,"required":false,"remote":null},{"name":"course","column":"course_p","type":"TRIMMEDSTRING","length":255,"required":false,"remote":null},{"name":"group","column":"group_p","type":"TRIMMEDSTRING","length":255,"required":false,"remote":null},{"name":"dateFrom","column":"datefrom_p","type":"TIMESTAMP","length":255,"required":true,"remote":null},{"name":"dateTo","column":"dateto_p","type":"TIMESTAMP","length":255,"required":true,"remote":null}]},
		{"name":"uniscTemplateDocument","abstract":false,"parent":null,"table":"unisctemplatedocument_t","interfaces":[],"properties":[{"name":"id","column":"id","type":"LONG","length":255,"required":true,"remote":null},{"name":"class","column":"discriminator","type":"SHORT","length":255,"required":true,"remote":null},{"name":"code","column":"code_p","type":"TRIMMEDSTRING","length":255,"required":true,"remote":null},{"name":"path","column":"path_p","type":"STRING","length":255,"required":true,"remote":null},{"name":"document","column":"document_p","type":"BLOB","length":255,"required":false,"remote":null},{"name":"editDate","column":"editdate_p","type":"TIMESTAMP","length":255,"required":false,"remote":null},{"name":"comment","column":"comment_p","type":"TEXT","length":255,"required":false,"remote":null},{"name":"title","column":"title_p","type":"TRIMMEDSTRING","length":1200,"required":false,"remote":null}]}],
 "dependencies":["unictr"]}