\trowd \trleft-108\trpaddl100\trpaddfl3\trpaddr100\trpaddfr3
\clvertalc\cellx10316 \pard\intbl\qc\fs40
{\pict\wmetafile8\picwgoal1026\pichgoal604
0100090000037212000000004d12000000000400000003010800050000000b0200000000050000
000c027100b500030000001e0004000000070104004d120000410b2000cc006900ad0000000000
7000b4000000000028000000ad0000006900000001000400000000000000000000000000000000
00000000000000000000000000ffffff00fefefe00000000000000000000000000000000000000
000000000000000000000000000000000000000000000000000000000000000000002222222222
222222222222222222222222222222222222222222222222222222222222222222222222222222
222222222222222222222222222222222222222222222222222222222222222222222222222222
222222200222222222222222222222222222222222222222222222222222222222222222222222
222222222222222222222222222222222222222222222222222222222222222222222222222222
222222222222222222222222222000222222222222222222222222222222222222222222222222
222222222222222222222222222222222222222222222222222222222222222222222222222222
222222222222222222222222222222222222222222222220022222222222222222222222222222
222222222222222222222222222222222222222222222222222222222222222222222222222222
222222222222222222222222222222222222222222222222222222222222222222200022222222
222222222222222222222222222222222222222222222222222222222222222222222222222222
222222222222222222222222222222222222222222222222222222222222222222222222222222
222222222002222222222222222222222222222222222222222222222222222222222222222000
000000000000000000000000000002222222222222222222222222222222222222222222222222
222222222222222222222222222220002222222222222222222222222222222222222222222222
222222222200000000000000000000000000000000000000000000000022222222222222222222
222222222222222222222222222222222222222222222222200222222222222222222222222222
222222222222222222222222222000000000000000000000000000000000000000000000000000
000022222222222222222222222222222222222222222222222222222222222222222000222222
222222222222222222222222222222222222222220000000000000000000000000000000000000
000000000000000000000000000022222222222222222222222222222222222222222222222222
222222222220022222222222222222222222222222222222222222222200000000000000000000
000000000000000000000000000000000000000000000000002222222222222222222222222222
222222222222222222222222222222200022222222222222222222222222222222222222222000
000000000000000000000000000000000000000000000000000000000000000000000000222222
222222222222222222222222222222222222222222222222222000222222222222222222222222
222222222222222000000000000000000000000000000000000000000000000000000000000000
000000000000000000222222222222222222222222222222222222222222222222222220002222
222222222222222222222222222222220000000000000000000000000000000000000000000000
000000000000000000000000000000000000000222222222222222222222222222222222222222
222222222222200022222222222222222222222222222222222000000000000000000000000000
000000000000002222222222222222222220000000000000000000000000022222222222222222
222222222222222222222222222222222000222222222222222222222222222222222000000000
000000000000000000000000222222222222222222222222222222222222222220000000000000
000002222222222222222222222222222222222222222222222220002222222222222222222222
222222222000000000000000000000000000000002222222222222222222222222222222222222
222222222220000000000000000222222222222222222222222222222222222222222222200022
222222222222222222222222222000000000000000000000000000022222222222222222222222
222222222222222222222222222222222222200000000000002222222222222222222222222222
222222222222222000222222222222222222222222222200000000000000000000000000000222
222222222222222222222222222222222222222222222222222222222222000000000002222222
222222222222222222222222222222222220002222222222222222222222222200000000000000
000000000000000022222222222222222222222222222222222222222222222222222222222222
222220000000000222222222222222222222222222222222222222200022222222222222222222
222200000000000000000000000022220000222222222222222222222222222222222222222222
222222222222222222222222222200000000222222222222222222222222222222222222222000
222222222222222222222220000000000000000000000222222200002222222222222222222222
222222222222222222222222222222222222222222222222220000000022222222222222222222
222222222222222220002222222222222222222222000000000000000000000222222222000022
222222222222222222222222222222222222222222222222222222222222222222222222200000
022222222222222222222222222222222222200022222222222222222222200000000000000000
002222222222220000222222222222222222222222222222222222222222222222222222222222
222222222222222222000002222222222222222222222222222222222000222222222222222222
220000000000000000000222222222222200002222222222222222222222222222222222222222
222222222222222222222222222222222222222000002222222222222222222222222222222220
002222222222222222222000000000000000000022222222222222000022222222222222222222
222222222222222222222222222222222222222222222222222222222222000002222222222222
222222222222222222200022222222222222222000000000000000000222222222222222220000
222222222222222222222222222222222222222222222222222222222222222222222222222222
222200000222222222222222222222222222222000222222222222222220000000000000000222
222222222222222200002222222222222222222222222222222222222222222222222222222222
222222222222222222222222220000222222222222222222222222222220022222222222222222
000000000000000022222222222222222222000022222222222222222222222222222222222222
222222222222222222222222222222222222222222222220000222222222222222222222222222
200022222222222222220000000000000002222222222222222222220000222222222222222222
222222222222222222222222222222222222222222222222222222222222222222222000022222
222222222222222222222002222222222222222000000000000002222222222222222222222200
002222222222222222222222222222222222222222222222222222222222222222222222222222
222222222222000022222222222222222222222220002222222222222200000000000000222000
222222222222222222000022222222222222222222222222222222222222222222222222222222
222222222222220002222222222222222000022222222222222222222222200222222222222222
000000000000022200000002222222222222220000222200222222222000000000000000222222
222222200000000000000022222222222200000022222222222222000022222222222222222222
222000222222222222200000000000002222000000002222222222222200000000000000222220
000000000000002222222222200000000000000000002222222222000000022222222222222200
222222222222222222222220022222222222222000000000000222222000000002222222222222
000000000000000022222220000000022222222222200000000000000000000002222222220000
000022222222222222200222222222222222222222200022222222222200000000000022222220
000000022222222222220000000002222000022222220000002222222222220000022222222200
000000000222222200000000022222222222222000222222222222222222222002222222222222
000000000000222222220220000022222222222200000002222222000002222200000222222222
222200222222222222222000000000222222200220000222222222222222000222222222222222
222220002222222222200000000000022222222222222000022222222222000002222222222200
022222000002222222222220222222222222222222200000000222222222222000222222222222
222000222222222222222222200222222222222000000000022222222222222222000222222222
220000222222222222200022220000022222222222222222222222222222222200000000222222
222222000222222222222222000222222222222222222000222222222220000000000222222222
222222222000222222222200002222222222222000022200000222222222222222222222222222
222222200000002222222222222002222222222222222002222222222222222220022222222222
200000000022222222222222222220002222222222000022222222222220000222000002222222
222222222222222222222222222200000002222222222220022222222222222220002222222222
222222200022222222222000000000222222222222222222220022222222220000222222222222
220000220000022222222222222222222222222222222222200000002222222222200022222222
222222220022222222222222222002222222222220000000022222222222222222222000022222
222200002222222222222200002200000222222222222222222222222222222222222000000022
222222220000222222222222222200022222222222222220002222222222000000000222222222
222222222220000022222222000022222222222222000022000002222222222222222222222222
222222222222000000222222222200000222222222222222200022222222222222200222222222
220000000002222222222222222222200000222222220000222222222222220000020000022222
222222222222222222222222222222222000000222222222000002222222222222222000222222
222222222000222222222220000000022222222222222222220000002222222200002222222222
222200000200000222222222222222222222222222222222222220000002222222200000002222
222222222222000222222222222220022222222222200000002222222222222222222200000002
222222000022222222222222200002000002222222222222222222222222222222222222200000
022222222000000022222222222222220002222222222222200022222222222000000022222222
222222222220000000022222220000222222222222222000020000022222222222222222222222
222222000022222200000222222200000000022222222222222200002222222222222002222222
222220000000222222222222222222200000000022222200002222222222222200000200000220
222222222222222222222222000000002222000000222222000000200222222222222222000022
222222222220002222222222200000002222222222222222222000002200222222000022222222
222222000002000002200022222222222222222220002222222222220000002222220000022002
222222222222220000022222222222200222222222222000000222222222222222222200000022
000222220000222222222222220000020000022200002222222000002222000222000000022200
000022222000000220002222222222222200000222222222222000222222222222000002222222
222222222222000000222002222200002222222222222200000200000222200000220000000000
002222000000000022000000222220000002220022222222222222000002222222222220022222
222222220000022222222222222222220000022220022222000002222222222220000002000002
222200000000000222222222000000000000022000002222200000222200222222222222220000
022222222222200022222222222220000222222222222222222000000222200022200000022222
222222200000020000022222202000000222220222000000000000000220000022220000002222
200222222222222200000022222222222002222222222222200002222222222222222220000022
222200222000000022222222220000002200000222222220222222222220000000000000000000
200000222200000222222000222222222222000000222222222220002222222222222000002222
222222222222200000222222002220000020022222222000000022000002222222220222222222
220000000000000000222000002222000002222220002222222222220000002222222222200222
222222222222000022222222222222220000002222222000000000200022222000000002220000
022222222220222222220020000000000022222200000022200000022222220022222222222200
000022222222222000222222222222220000222222222222222200000222222220000000002220
000000000000022200000222222222222002220002220000000022222222000000222000002222
222200022222222222000000222222222220022222222222222220000222222222222222000002
222222220000000022200000000000002222000002222222222222000022222222000222222222
220000022220000022222222200222222222220000002222222222200022222222222222200002
222222222222200000022222222200220000222220000000002222220000022222222222222222
222222222222222222222200000222000000222222222000222222222000000002222222222002
222222222222222000022222222222222000002222222222002222002222220000000222222200
000222222222222222222222222222222222222222000002220000022222222222002222222220
000000022222222220002222222222222222000222222222222200000022222222222002222222
222222222222222222000002222222222222222222222222222222222222220000022000000222
222222220022222222000000000222222222200222222222222222220000222222222222000002
222222222220002222222222222222222222220000022222222222222222222222222222222222
222000002220000022222222222200022222220000000022222222222000222222222222222220
002222222222220000022222222222200022222222222222222222222200000222222222222222
222222222222222222222220000022200000222222222222000222222000000000222222222220
022222222222222222220002222222222000000222222222222200222222222222222222222222
000002222222222222202222222222222222222222200002220000002222222222222000222220
000000002222222222200022222222222222222220022222222220000022222222222222000222
222222222222222222220000022222222222220022222222222222222222220000022200000222
222222222220002222000000000022222222222002222222222222222222200002222222000000
222222222222220002222222222222222222222200000222222222222200222222222222222222
222000002220000002222222222222220002200000000000222222222220002222222222222222
222200002222220000002222222222222200002222222222222222222222000002222222222222
002222222222222222222220000222200000022222222222222200020000000000002222222222
200222222222222222222222200022222000000222222222222222200022222222222222222222
220000022222222222220022222222222222222222000002220000002222222222222222000000
000000000222222222222000222222222222222222222200022200000002222222222222222000
222222222222222222222200000022222222222200002222222222222222200000222200000022
222222222222220000000000000002222222222220022222222222222222222222200020000000
222222222222222220000222222222222222222222000000222222222222000000222222222222
220000022200000000222222222222222220000000000000222222222222200022222222222222
222222222200000000002222222222222222220000222222222222222222200000000222222200
000000000222222222220000002220000000022222222222222222000000000000022222222222
222002222222222222222222222222200000000222222222222222222200002222222222222222
000000000000000000000000000000002222220000002220000000000222222222222222200000
000000000222222222222220002222222222222222222222222200000002222222222222222222
000022222222222222220000000000000000000000000000000000000000002222222222000022
222222222222220000000000000022222222222222200222222222222222222222222222200002
222222222222222222222000022222222222222222222222222222222222222222000000000000
002222222222222022222222222222222000000000000000222222222222222000222222222222
222222222222222200002222222222222222222222222222222222222222222222222222222222
222222222222220022222222222222222222222222222222222200000000000000022222222222
222220022222222222222222222222222222000002222222222222222222222222222222222222
222222222222222222222222222222222222222222222222222222222222222222222200000000
000000000222222222222222200022222222222222222222222222222200000222222222222222
222222222222222222222222222222222222222222222222222222222222222222222222222222
222222222200000000000000000022222222222222222002222222222222222222222222222222
200000222222222222222222222222222222222222222222222222222222222222222222222222
222222222222222222222222222220000000000000000022222222222222222220002222222222
222222222222222222222200000022222222222222222222222222222222222222222222222222
222222222222222222222222222222222222222222222222000000000000000002222222222222
222222200222222222222222222222222222222222200000002222222222222222222222222222
222222222222222222222222222222222222222222222222222222222222222222000000000000
000000222222222222222222222000222222222222222222222222222222222220000000022222
222222222222222222222222222222222222222222222222222222222222222222222222222222
222220000000000000000000002222222222222222222220022222222222222222222222222222
222222220000000002222222222222222222222222222222222222222222222222222222222222
222222222222222222222200000000000000000000000222222222222222222222200022222222
222222222222222222222222222220000000000022222222222222222222222222222222222222
222222222222222222222222222222222222222200000000000000000000000222222222222222
222222222002222222222222222222222222222222222222220000000000000222222222222222
222222222222222222222222222222222222222222222222222222222000000000000000000000
000222222222222222222222222220002222222222222222222222222222222222222222000000
000000002222222222222222222222222222222222222222222222222222222222222222220000
000000000000000000000022222222222222222222222222200222222222222222222222222222
222222222222222220000000000000022222222222222222222222222222222222222222222222
222222222222200000000000000000000000000022222222222222222222222222222000222222
222222222222222222222222222222222222222000000000000000222222222222222222222222
222222222222222222222222222222000000000000000000000000000022222222222222222222
222222222220022222222222222222222222222222222222222222222222200000000000000002
222222222222222222222222222222222222222222222220000000000000000000000000000022
222222222222222222222222222222200022222222222222222222222222222222222222222222
222200000000000000000000022222222222222222222222222222222222000000000000000000
000000000000000002222222222222222222222222222222222002222222222222222222222222
222222222222222222222222220000000000000000000000000000002222222222222200000000
000000000000000000000000000000000002222222222222222222222222222222222220002222
222222222222222222222222222222222222222222222222220000000000000000000000000000
000000000000000000000000000000000000000000000000000002222222222222222222222222
222222222222200222222222222222222222222222222222222222222222222222222222000000
000000000000000000000000000000000000000000000000000000000000000000000022222222
222222222222222222222222222222222000222222222222222222222222222222222222222222
222222222222222200000000000000000000000000000000000000000000000000000000000000
000000000222222222222222222222222222222222222222222220022222222222222222222222
222222222222222222222222222222222222222200000000000000000000000000000000000000
000000000000000000000000002222222222222222222222222222222222222222222222200022
222222222222222222222222222222222222222222222222222222222222222200000000000000
000000000000000000000000000000000000000000022222222222222222222222222222222222
222222222222222002222222222222222222222222222222222222222222222222222222222222
222222222200000000000000000000000000000000000000000000000222222222222222222222
222222222222222222222222222222222220002222222222222222222222222222222222222222
222222222222222222222222222222222200000000000000000000000000000000000000002222
222222222222222222222222222222222222222222222222222222200222222222222222222222
222222222222222222222222222222222222222222222222222222222220000000000000000000
000000000222222222222222222222222222222222222222222222222222222222222222222000
222222222222222222222222222222222222222222222222222222222222222222222222222222
222222222222222222222222222222222222222222222222222222222222222222222222222222
222222222222222220002222222222222222222222222222222222222222222222222222222222
222222222222222222222222222222222222222222222222222222222222222222222222222222
222222222222222222222222222222222222200022222222222222222222222222222222222222
222222222222222222222222222222222222222222222222222222222222222222222222222222
222222222222222222222222222222222222222222222222222222222000222222222222222222
222222222222222222222222222222222222222222222222222222222222222222222222222222
222222222222222222222222222222222222222222222222222222222222222222222222222220
002222222222222222222222222222222222222222222222222222222222222222222222222222
222222222222222222222222222222222222222222222222222222222222222222222222222222
222222222222222222200022222222222222222222222222222222222222222222222222222222
222222222222222222222222222222222222222222222222222222222222222222222222222222
222222222222222222222222222222222222222000222222222222222222222222222222222222
222222222222222222222222222222222222222222222222222222222222222222222222222222
22222222222222222222222222222222222222222222222222222222222000040000002701ffff
030000000000
}
\cell\row

\trowd \trleft-108\trpaddl100\trpaddfl3\trpaddr100\trpaddfr3
\clvertalc\clbrdrb\brdrs\brdrw45\cellx10316
\pard\intbl\f1\b\qc\fs28 МИНИСТЕРСТВО ОБРАЗОВАНИЯ И НАУКИ РФ \par\pard\plain\qc\intbl\wrapdefault\aspalpha\aspnum\faauto\adjustright\f0\fs24\cgrid0
\b Государственное образовательное учреждение высшего профессионального образования\par
\expndtw0\expnd0\b0\pard\qc\intbl\wrapdefault\faauto\adjustright\f1\b\fs28 «Уральский государственный экономический университет»\par \sa20(УрГЭУ) \fs20\b0\fs30\cell \sa0\f0\fs20\pard
\qc\intbl\wrapdefault\faauto\adjustright\fs30\brdrtbl\brdrtbl\brdrtbl\row

\trowd \trleft-108\trrh539\trpaddl108\trpaddfl3\trpaddr108\trpaddfr3
\clvertalc\clbrdrt\brdrtnthsg\brdrw60\cellx10316 \fs20\expndtw0\expnd0\brdrtbl\brdrtbl\brdrtbl
\pard\plain\s1\qc\keepn\intbl\wrapdefault\aspalpha\aspnum\faauto\outlinelevel0\adjustright
\b\fs32 {formativeOrgUnit}\line\cgrid0\expnd12\expndtw60\par\fs36 ПРИКАЗ\cell \expndtw0\expnd0\pard\plain\qc\intbl\wrapdefault\aspalpha\aspnum\faauto\adjustright
\fs24\cgrid0\brdrtbl\brdrtbl\brdrtbl\row