{"name":"uniepp_load",
 "interfaces":[],
 "entities":[
		{"name":"eplCompensationSource","abstract":false,"parent":null,"table":"epl_comp_source_t","interfaces":[],"properties":[{"name":"id","column":"id","type":"LONG","length":255,"required":true,"remote":null},{"name":"class","column":"discriminator","type":"SHORT","length":255,"required":true,"remote":null},{"name":"code","column":"code_p","type":"TRIMMEDSTRING","length":255,"required":true,"remote":null},{"name":"title","column":"title_p","type":"TRIMMEDSTRING","length":1200,"required":false,"remote":null}]},
		{"name":"eplEduGroup","abstract":false,"parent":null,"table":"epl_edu_group_t","interfaces":[],"properties":[{"name":"id","column":"id","type":"LONG","length":255,"required":true,"remote":null},{"name":"class","column":"discriminator","type":"SHORT","length":255,"required":true,"remote":null},{"name":"summary","column":"summary_id","type":"LONG","length":0,"required":true,"remote":"eplStudentSummary"},{"name":"yearPart","column":"yearpart_id","type":"LONG","length":0,"required":true,"remote":"yearDistributionPart"},{"name":"registryElementPart","column":"registryelementpart_id","type":"LONG","length":0,"required":true,"remote":"eppRegistryElementPart"},{"name":"groupType","column":"grouptype_id","type":"LONG","length":0,"required":true,"remote":"eppGroupType"},{"name":"title","column":"title_p","type":"TRIMMEDSTRING","length":255,"required":true,"remote":null}]},
		{"name":"eplEduGroupRow","abstract":false,"parent":null,"table":"epl_edu_group_row_t","interfaces":[],"properties":[{"name":"id","column":"id","type":"LONG","length":255,"required":true,"remote":null},{"name":"class","column":"discriminator","type":"SHORT","length":255,"required":true,"remote":null},{"name":"group","column":"group_id","type":"LONG","length":0,"required":true,"remote":"eplEduGroup"},{"name":"studentWP2GTypeSlot","column":"studentwp2gtypeslot_id","type":"LONG","length":0,"required":true,"remote":"eplStudentWP2GTypeSlot"},{"name":"count","column":"count_p","type":"INTEGER","length":255,"required":true,"remote":null}]},
		{"name":"eplGroup","abstract":false,"parent":null,"table":"epl_group_t","interfaces":[],"properties":[{"name":"id","column":"id","type":"LONG","length":255,"required":true,"remote":null},{"name":"class","column":"discriminator","type":"SHORT","length":255,"required":true,"remote":null},{"name":"summary","column":"summary_id","type":"LONG","length":0,"required":true,"remote":"eplStudentSummary"},{"name":"course","column":"course_id","type":"LONG","length":0,"required":true,"remote":"course"},{"name":"title","column":"title_p","type":"TRIMMEDSTRING","length":255,"required":true,"remote":null}]},
		{"name":"eplIndPlan2OuSummaryRel","abstract":false,"parent":null,"table":"epl_ind_plan_2_ou_summary_t","interfaces":[],"properties":[{"name":"id","column":"id","type":"LONG","length":255,"required":true,"remote":null},{"name":"class","column":"discriminator","type":"SHORT","length":255,"required":true,"remote":null},{"name":"indPlan","column":"indplan_id","type":"LONG","length":0,"required":true,"remote":"eplIndividualPlan"},{"name":"ouSummary","column":"ousummary_id","type":"LONG","length":0,"required":true,"remote":"eplOrgUnitSummary"}]},
		{"name":"eplIndividualPlan","abstract":false,"parent":null,"table":"epl_ind_plan_t","interfaces":[],"properties":[{"name":"id","column":"id","type":"LONG","length":255,"required":true,"remote":null},{"name":"class","column":"discriminator","type":"SHORT","length":255,"required":true,"remote":null},{"name":"pps","column":"pps_id","type":"LONG","length":0,"required":true,"remote":"ppsEntry"},{"name":"eppYear","column":"eppyear_id","type":"LONG","length":0,"required":true,"remote":"eppYearEducationProcess"},{"name":"orgUnit","column":"orgunit_id","type":"LONG","length":0,"required":true,"remote":"orgUnit"},{"name":"formingDate","column":"formingdate_p","type":"TIMESTAMP","length":255,"required":true,"remote":null}]},
		{"name":"eplOrgUnitSummary","abstract":false,"parent":null,"table":"epl_ou_summary_t","interfaces":[],"properties":[{"name":"id","column":"id","type":"LONG","length":255,"required":true,"remote":null},{"name":"class","column":"discriminator","type":"SHORT","length":255,"required":true,"remote":null},{"name":"studentSummary","column":"studentsummary_id","type":"LONG","length":0,"required":true,"remote":"eplStudentSummary"},{"name":"orgUnit","column":"orgunit_id","type":"LONG","length":0,"required":true,"remote":"orgUnit"},{"name":"creationDate","column":"creationdate_p","type":"TIMESTAMP","length":255,"required":true,"remote":null},{"name":"state","column":"state_id","type":"LONG","length":0,"required":true,"remote":"eppState"},{"name":"rateHours","column":"ratehours_p","type":"INTEGER","length":255,"required":true,"remote":null},{"name":"hourlyFund","column":"hourlyfund_p","type":"INTEGER","length":255,"required":true,"remote":null}]},
		{"name":"eplPlannedPps","abstract":false,"parent":null,"table":"epl_pl_pps_t","interfaces":[],"properties":[{"name":"id","column":"id","type":"LONG","length":255,"required":true,"remote":null},{"name":"class","column":"discriminator","type":"SHORT","length":255,"required":true,"remote":null},{"name":"orgUnitSummary","column":"orgunitsummary_id","type":"LONG","length":0,"required":true,"remote":"eplOrgUnitSummary"},{"name":"type","column":"type_id","type":"LONG","length":0,"required":true,"remote":"eplPlannedPpsType"},{"name":"post","column":"post_id","type":"LONG","length":0,"required":false,"remote":"postBoundedWithQGandQL"},{"name":"vacancy","column":"vacancy_p","type":"TRIMMEDSTRING","length":255,"required":false,"remote":null},{"name":"staffRateAsLong","column":"staffrateaslong_p","type":"LONG","length":255,"required":false,"remote":null},{"name":"maxTimeAmountAsLong","column":"maxtimeamountaslong_p","type":"LONG","length":255,"required":true,"remote":null},{"name":"ppsEntry","column":"ppsentry_id","type":"LONG","length":0,"required":false,"remote":"ppsEntry"}]},
		{"name":"eplPlannedPpsTimeItem","abstract":false,"parent":null,"table":"epl_pl_pps_time_item_t","interfaces":[],"properties":[{"name":"id","column":"id","type":"LONG","length":255,"required":true,"remote":null},{"name":"class","column":"discriminator","type":"SHORT","length":255,"required":true,"remote":null},{"name":"pps","column":"pps_id","type":"LONG","length":0,"required":true,"remote":"eplPlannedPps"},{"name":"timeItem","column":"timeitem_id","type":"LONG","length":0,"required":true,"remote":"eplTimeItem"},{"name":"timeAmountAsLong","column":"timeamountaslong_p","type":"LONG","length":255,"required":true,"remote":null},{"name":"overTime","column":"overtime_p","type":"BOOLEAN","length":255,"required":true,"remote":null}]},
		{"name":"eplPlannedPpsType","abstract":false,"parent":null,"table":"epl_pl_pps_type_t","interfaces":[],"properties":[{"name":"id","column":"id","type":"LONG","length":255,"required":true,"remote":null},{"name":"class","column":"discriminator","type":"SHORT","length":255,"required":true,"remote":null},{"name":"code","column":"code_p","type":"TRIMMEDSTRING","length":255,"required":true,"remote":null},{"name":"shortTitle","column":"shorttitle_p","type":"TRIMMEDSTRING","length":255,"required":true,"remote":null},{"name":"priority","column":"priority_p","type":"INTEGER","length":255,"required":true,"remote":null},{"name":"title","column":"title_p","type":"TRIMMEDSTRING","length":1200,"required":false,"remote":null}]},
		{"name":"eplSettingsPpsLoad","abstract":false,"parent":null,"table":"epl_settings_pps_load_t","interfaces":[],"properties":[{"name":"id","column":"id","type":"LONG","length":255,"required":true,"remote":null},{"name":"class","column":"discriminator","type":"SHORT","length":255,"required":true,"remote":null},{"name":"eduYear","column":"eduyear_id","type":"LONG","length":0,"required":true,"remote":"educationYear"},{"name":"post","column":"post_id","type":"LONG","length":0,"required":false,"remote":"postBoundedWithQGandQL"},{"name":"hoursMinAsLong","column":"hoursminaslong_p","type":"LONG","length":255,"required":true,"remote":null},{"name":"hoursMaxAsLong","column":"hoursmaxaslong_p","type":"LONG","length":255,"required":true,"remote":null},{"name":"hoursAdditionalAsLong","column":"hoursadditionalaslong_p","type":"LONG","length":255,"required":true,"remote":null},{"name":"staffRateFactor","column":"staffratefactor_p","type":"BOOLEAN","length":255,"required":true,"remote":null},{"name":"staffNumberFactor","column":"staffnumberfactor_p","type":"BOOLEAN","length":255,"required":true,"remote":null},{"name":"level","column":"level_p","type":"LONG","length":255,"required":true,"remote":null},{"name":"entity","column":"entity_p","type":"LONG","length":255,"required":false,"remote":null}]},
		{"name":"eplSettingsPpsLoadOuSummary","abstract":false,"parent":"eplSettingsPpsLoad","table":"eplsettingsppsloadousummary_t","interfaces":[],"properties":[{"name":"summary","column":"summary_id","type":"LONG","length":0,"required":true,"remote":"eplOrgUnitSummary"}]},
		{"name":"eplSettingsPpsLoadSummary","abstract":false,"parent":"eplSettingsPpsLoad","table":"eplsettingsppsloadsummary_t","interfaces":[],"properties":[{"name":"summary","column":"summary_id","type":"LONG","length":0,"required":true,"remote":"eplStudentSummary"}]},
		{"name":"eplStudent","abstract":false,"parent":null,"table":"epl_student_t","interfaces":[],"properties":[{"name":"id","column":"id","type":"LONG","length":255,"required":true,"remote":null},{"name":"class","column":"discriminator","type":"SHORT","length":255,"required":true,"remote":null},{"name":"group","column":"group_id","type":"LONG","length":0,"required":true,"remote":"eplGroup"},{"name":"educationOrgUnit","column":"educationorgunit_id","type":"LONG","length":0,"required":true,"remote":"educationOrgUnit"},{"name":"compensationSource","column":"compensationsource_id","type":"LONG","length":0,"required":true,"remote":"eplCompensationSource"},{"name":"developGrid","column":"developgrid_id","type":"LONG","length":0,"required":true,"remote":"developGrid"},{"name":"count","column":"count_p","type":"INTEGER","length":255,"required":true,"remote":null},{"name":"errorCountWithWp","column":"errorcountwithwp_p","type":"BOOLEAN","length":255,"required":true,"remote":null},{"name":"noWp","column":"nowp_p","type":"BOOLEAN","length":255,"required":true,"remote":null}]},
		{"name":"eplStudent2WorkPlan","abstract":false,"parent":null,"table":"epl_student2workplan_t","interfaces":[],"properties":[{"name":"id","column":"id","type":"LONG","length":255,"required":true,"remote":null},{"name":"class","column":"discriminator","type":"SHORT","length":255,"required":true,"remote":null},{"name":"student","column":"student_id","type":"LONG","length":0,"required":true,"remote":"eplStudent"},{"name":"workPlan","column":"workplan_id","type":"LONG","length":0,"required":true,"remote":"eppWorkPlanBase"},{"name":"count","column":"count_p","type":"INTEGER","length":255,"required":true,"remote":null},{"name":"cachedGridTerm","column":"cachedgridterm_id","type":"LONG","length":0,"required":true,"remote":"developGridTerm"}]},
		{"name":"eplStudentCount4SplitElement","abstract":false,"parent":null,"table":"epl_student_count_4se_t","interfaces":[],"properties":[{"name":"id","column":"id","type":"LONG","length":255,"required":true,"remote":null},{"name":"class","column":"discriminator","type":"SHORT","length":255,"required":true,"remote":null},{"name":"student2WorkPlan","column":"student2workplan_id","type":"LONG","length":0,"required":true,"remote":"eplStudent2WorkPlan"},{"name":"regElement","column":"regelement_id","type":"LONG","length":0,"required":true,"remote":"eppRegistryElement"},{"name":"splitElement","column":"splitelement_id","type":"LONG","length":0,"required":true,"remote":"eppEduGroupSplitBaseElement"},{"name":"studentCount","column":"studentcount_p","type":"INTEGER","length":255,"required":true,"remote":null}]},
		{"name":"eplStudentSummary","abstract":false,"parent":null,"table":"epl_student_summary_t","interfaces":[],"properties":[{"name":"id","column":"id","type":"LONG","length":255,"required":true,"remote":null},{"name":"class","column":"discriminator","type":"SHORT","length":255,"required":true,"remote":null},{"name":"eppYear","column":"eppyear_id","type":"LONG","length":0,"required":true,"remote":"eppYearEducationProcess"},{"name":"title","column":"title_p","type":"TRIMMEDSTRING","length":255,"required":true,"remote":null},{"name":"creationDate","column":"creationdate_p","type":"TIMESTAMP","length":255,"required":true,"remote":null},{"name":"archival","column":"archival_p","type":"BOOLEAN","length":255,"required":true,"remote":null},{"name":"state","column":"state_id","type":"LONG","length":0,"required":true,"remote":"eplStudentSummaryState"},{"name":"zipLog","column":"ziplog_id","type":"LONG","length":0,"required":false,"remote":"databaseFile"}]},
		{"name":"eplStudentSummaryState","abstract":false,"parent":null,"table":"epl_student_summary_state_t","interfaces":[],"properties":[{"name":"id","column":"id","type":"LONG","length":255,"required":true,"remote":null},{"name":"class","column":"discriminator","type":"SHORT","length":255,"required":true,"remote":null},{"name":"code","column":"code_p","type":"TRIMMEDSTRING","length":255,"required":true,"remote":null},{"name":"priority","column":"priority_p","type":"INTEGER","length":255,"required":true,"remote":null},{"name":"permissionSuffix","column":"permissionsuffix_p","type":"TRIMMEDSTRING","length":255,"required":true,"remote":null},{"name":"title","column":"title_p","type":"TRIMMEDSTRING","length":1200,"required":false,"remote":null}]},
		{"name":"eplStudentWP2GTypeSlot","abstract":false,"parent":null,"table":"epl_student_wp2gt_slot_t","interfaces":[],"properties":[{"name":"id","column":"id","type":"LONG","length":255,"required":true,"remote":null},{"name":"class","column":"discriminator","type":"SHORT","length":255,"required":true,"remote":null},{"name":"studentWPSlot","column":"studentwpslot_id","type":"LONG","length":0,"required":true,"remote":"eplStudentWPSlot"},{"name":"groupType","column":"grouptype_id","type":"LONG","length":0,"required":true,"remote":"eppGroupType"},{"name":"splitElement","column":"splitelement_id","type":"LONG","length":0,"required":false,"remote":"eppEduGroupSplitBaseElement"},{"name":"count","column":"count_p","type":"INTEGER","length":255,"required":true,"remote":null}]},
		{"name":"eplStudentWPSlot","abstract":false,"parent":null,"table":"epl_student_wp_slot_t","interfaces":[],"properties":[{"name":"id","column":"id","type":"LONG","length":255,"required":true,"remote":null},{"name":"class","column":"discriminator","type":"SHORT","length":255,"required":true,"remote":null},{"name":"student","column":"student_id","type":"LONG","length":0,"required":true,"remote":"eplStudent"},{"name":"activityElementPart","column":"activityelementpart_id","type":"LONG","length":0,"required":true,"remote":"eppRegistryElementPart"},{"name":"yearPart","column":"yearpart_id","type":"LONG","length":0,"required":true,"remote":"yearDistributionPart"},{"name":"term","column":"term_id","type":"LONG","length":0,"required":true,"remote":"term"},{"name":"cachedCourse","column":"cachedcourse_id","type":"LONG","length":0,"required":true,"remote":"course"}]},
		{"name":"eplTimeCategory","abstract":true,"parent":null,"table":"epl_time_cat_t","interfaces":[],"properties":[{"name":"id","column":"id","type":"LONG","length":255,"required":true,"remote":null},{"name":"class","column":"discriminator","type":"SHORT","length":255,"required":true,"remote":null},{"name":"code","column":"code_p","type":"TRIMMEDSTRING","length":255,"required":true,"remote":null},{"name":"shortTitle","column":"shorttitle_p","type":"TRIMMEDSTRING","length":255,"required":true,"remote":null},{"name":"priority","column":"priority_p","type":"INTEGER","length":255,"required":true,"remote":null},{"name":"parent","column":"parent_id","type":"LONG","length":0,"required":false,"remote":"eplTimeCategory"},{"name":"title","column":"title_p","type":"TRIMMEDSTRING","length":1200,"required":true,"remote":null},{"name":"userCode","column":"usercode_p","type":"TRIMMEDSTRING","length":255,"required":false,"remote":null},{"name":"disabledDate","column":"disableddate_p","type":"TIMESTAMP","length":255,"required":false,"remote":null},{"name":"enabled","column":null,"type":"BOOLEAN","length":255,"required":true,"remote":null}]},
		{"name":"eplTimeCategoryEduLoad","abstract":false,"parent":"eplTimeCategory","table":"epl_time_cat_edu_load_t","interfaces":[],"properties":[]},
		{"name":"eplTimeCategoryNonEduLoad","abstract":false,"parent":"eplTimeCategory","table":"epl_time_cat_non_edu_load_t","interfaces":[],"properties":[]},
		{"name":"eplTimeItem","abstract":true,"parent":null,"table":"epl_time_item_t","interfaces":[],"properties":[{"name":"id","column":"id","type":"LONG","length":255,"required":true,"remote":null},{"name":"class","column":"discriminator","type":"SHORT","length":255,"required":true,"remote":null},{"name":"summary","column":"summary_id","type":"LONG","length":0,"required":true,"remote":"eplOrgUnitSummary"},{"name":"timeRule","column":"timerule_id","type":"LONG","length":0,"required":true,"remote":"eplTimeRuleEduLoad"},{"name":"timeAmountAsLong","column":"timeamountaslong_p","type":"LONG","length":255,"required":true,"remote":null},{"name":"controlTimeAmountAsLong","column":"controltimeamountaslong_p","type":"LONG","length":255,"required":true,"remote":null},{"name":"creationDate","column":"creationdate_p","type":"TIMESTAMP","length":255,"required":true,"remote":null},{"name":"description","column":"description_p","type":"TEXT","length":255,"required":false,"remote":null}]},
		{"name":"eplEduGroupTimeItem","abstract":false,"parent":"eplTimeItem","table":"epl_edu_group_time_item_t","interfaces":[],"properties":[{"name":"eduGroup","column":"edugroup_id","type":"LONG","length":0,"required":false,"remote":"eplEduGroup"},{"name":"registryElementPart","column":"registryelementpart_id","type":"LONG","length":0,"required":true,"remote":"eppRegistryElementPart"}]},
		{"name":"eplTransferOrgUnitEduGroupTimeItem","abstract":false,"parent":"eplEduGroupTimeItem","table":"epl_t_ou_edu_group_time_item_t","interfaces":[],"properties":[{"name":"transferredFrom","column":"transferredfrom_id","type":"LONG","length":0,"required":true,"remote":"eplOrgUnitSummary"}]},
		{"name":"eplSimpleTimeItem","abstract":false,"parent":"eplTimeItem","table":"epl_simple_time_item_t","interfaces":[],"properties":[{"name":"yearPart","column":"yearpart_id","type":"LONG","length":0,"required":false,"remote":"yearDistributionPart"},{"name":"parameter","column":"parameter_p","type":"DOUBLE","length":255,"required":true,"remote":null},{"name":"countAsContract","column":"countascontract_p","type":"BOOLEAN","length":255,"required":true,"remote":null}]},
		{"name":"eplTimeItemNonEduLoad","abstract":false,"parent":null,"table":"epl_time_item_non_edu_load_t","interfaces":[],"properties":[{"name":"id","column":"id","type":"LONG","length":255,"required":true,"remote":null},{"name":"class","column":"discriminator","type":"SHORT","length":255,"required":true,"remote":null},{"name":"indPlan","column":"indplan_id","type":"LONG","length":0,"required":true,"remote":"eplIndividualPlan"},{"name":"timeRule","column":"timerule_id","type":"LONG","length":0,"required":true,"remote":"eplTimeRuleNonEduLoad"},{"name":"timeAmountAsLong","column":"timeamountaslong_p","type":"LONG","length":255,"required":true,"remote":null},{"name":"controlTimeAmountAsLong","column":"controltimeamountaslong_p","type":"LONG","length":255,"required":true,"remote":null},{"name":"parameter","column":"parameter_p","type":"DOUBLE","length":255,"required":false,"remote":null},{"name":"yearPart","column":"yearpart_id","type":"LONG","length":0,"required":false,"remote":"yearDistributionPart"},{"name":"dateFrom","column":"datefrom_p","type":"DATE","length":255,"required":false,"remote":null},{"name":"dateTo","column":"dateto_p","type":"DATE","length":255,"required":false,"remote":null},{"name":"creationDate","column":"creationdate_p","type":"TIMESTAMP","length":255,"required":true,"remote":null}]},
		{"name":"eplTimeItemVariantGrouping","abstract":false,"parent":null,"table":"epl_time_item_variant_group_t","interfaces":[],"properties":[{"name":"id","column":"id","type":"LONG","length":255,"required":true,"remote":null},{"name":"class","column":"discriminator","type":"SHORT","length":255,"required":true,"remote":null},{"name":"code","column":"code_p","type":"TRIMMEDSTRING","length":255,"required":true,"remote":null},{"name":"shortTitle","column":"shorttitle_p","type":"TRIMMEDSTRING","length":255,"required":true,"remote":null},{"name":"title","column":"title_p","type":"TRIMMEDSTRING","length":1200,"required":false,"remote":null}]},
		{"name":"eplTimeRule","abstract":true,"parent":null,"table":"epl_time_rule_t","interfaces":[],"properties":[{"name":"id","column":"id","type":"LONG","length":255,"required":true,"remote":null},{"name":"class","column":"discriminator","type":"SHORT","length":255,"required":true,"remote":null},{"name":"code","column":"code_p","type":"TRIMMEDSTRING","length":255,"required":true,"remote":null},{"name":"catalogCode","column":"catalogcode_p","type":"TRIMMEDSTRING","length":255,"required":true,"remote":null},{"name":"description","column":"description_p","type":"TEXT","length":255,"required":false,"remote":null},{"name":"disabledDate","column":"disableddate_p","type":"TIMESTAMP","length":255,"required":false,"remote":null},{"name":"enabled","column":null,"type":"BOOLEAN","length":255,"required":true,"remote":null},{"name":"title","column":"title_p","type":"TRIMMEDSTRING","length":1200,"required":false,"remote":null}]},
		{"name":"eplTimeRuleEduLoad","abstract":false,"parent":"eplTimeRule","table":"epl_time_rule_edu_load_t","interfaces":[],"properties":[{"name":"category","column":"category_id","type":"LONG","length":0,"required":true,"remote":"eplTimeCategoryEduLoad"},{"name":"grouping","column":"grouping_id","type":"LONG","length":0,"required":true,"remote":"eplTimeItemVariantGrouping"}]},
		{"name":"eplTimeRuleEduGroupFormula","abstract":false,"parent":"eplTimeRuleEduLoad","table":"epl_time_rule_edugrp_simple_t","interfaces":[],"properties":[{"name":"coefficient","column":"coefficient_p","type":"DOUBLE","length":255,"required":true,"remote":null},{"name":"multiplyHours","column":"multiplyhours_p","type":"BOOLEAN","length":255,"required":true,"remote":null},{"name":"multiplyStudents","column":"multiplystudents_p","type":"BOOLEAN","length":255,"required":true,"remote":null},{"name":"groupType","column":"grouptype_id","type":"LONG","length":0,"required":true,"remote":"eppGroupType"},{"name":"eppRegistryStructure","column":"eppregistrystructure_id","type":"LONG","length":0,"required":true,"remote":"eppRegistryStructure"}]},
		{"name":"eplTimeRuleEduGroupScript","abstract":false,"parent":"eplTimeRuleEduLoad","table":"epl_time_rule_edugrp_base_t","interfaces":[],"properties":[{"name":"userScript","column":"userscript_p","type":"TEXT","length":255,"required":false,"remote":null},{"name":"defaultScriptPath","column":"defaultscriptpath_p","type":"TRIMMEDSTRING","length":255,"required":false,"remote":null},{"name":"groupType","column":"grouptype_id","type":"LONG","length":0,"required":false,"remote":"eppGroupType"},{"name":"regStructure","column":"regstructure_id","type":"LONG","length":0,"required":false,"remote":"eppRegistryStructure"},{"name":"counterEnabled","column":"counterenabled_p","type":"BOOLEAN","length":255,"required":true,"remote":null},{"name":"totalTimeWork","column":"totaltimework_p","type":"LONG","length":255,"required":true,"remote":null},{"name":"requestCount","column":"requestcount_p","type":"INTEGER","length":255,"required":true,"remote":null}]},
		{"name":"eplTimeRuleSimple","abstract":false,"parent":"eplTimeRuleEduLoad","table":"epl_time_rule_simple_t","interfaces":[],"properties":[{"name":"coefficient","column":"coefficient_p","type":"DOUBLE","length":255,"required":true,"remote":null},{"name":"parameterNeeded","column":"parameterneeded_p","type":"BOOLEAN","length":255,"required":true,"remote":null},{"name":"parameterName","column":"parametername_p","type":"TRIMMEDSTRING","length":255,"required":false,"remote":null}]},
		{"name":"eplTimeRuleNonEduLoad","abstract":false,"parent":"eplTimeRule","table":"epl_time_rule_non_edu_load_t","interfaces":[],"properties":[{"name":"category","column":"category_id","type":"LONG","length":0,"required":true,"remote":"eplTimeCategoryNonEduLoad"},{"name":"coefficient","column":"coefficient_p","type":"DOUBLE","length":255,"required":true,"remote":null},{"name":"parameterNeeded","column":"parameterneeded_p","type":"BOOLEAN","length":255,"required":true,"remote":null},{"name":"parameterName","column":"parametername_p","type":"TRIMMEDSTRING","length":255,"required":false,"remote":null}]},
		{"name":"eplPrintScript","abstract":false,"parent":"scriptItem","table":"epl_c_print_script_t","interfaces":[],"properties":[]},
		{"name":"eplReportHourlyFund","abstract":false,"parent":"storableReport","table":"epl_rep_hourly_fund_t","interfaces":[],"properties":[{"name":"studentSummary","column":"studentsummary_p","type":"TRIMMEDSTRING","length":255,"required":true,"remote":null},{"name":"eduYear","column":"eduyear_id","type":"LONG","length":0,"required":false,"remote":"educationYear"}]},
		{"name":"eplReportOrgUnitEduAssignment","abstract":false,"parent":"storableReport","table":"epl_rep_ou_edu_assignment_t","interfaces":[],"properties":[{"name":"eduYear","column":"eduyear_id","type":"LONG","length":0,"required":true,"remote":"educationYear"},{"name":"studentSummary","column":"studentsummary_p","type":"TRIMMEDSTRING","length":255,"required":true,"remote":null},{"name":"orgUnit","column":"orgunit_p","type":"TRIMMEDSTRING","length":255,"required":true,"remote":null},{"name":"yearPart","column":"yearpart_p","type":"TRIMMEDSTRING","length":255,"required":false,"remote":null},{"name":"developForm","column":"developform_p","type":"TRIMMEDSTRING","length":255,"required":false,"remote":null},{"name":"developCondition","column":"developcondition_p","type":"TRIMMEDSTRING","length":255,"required":false,"remote":null}]},
		{"name":"eplReportOrgUnitEduLoadA","abstract":false,"parent":"storableReport","table":"epl_rep_ou_edu_load_a_t","interfaces":[],"properties":[{"name":"studentSummary","column":"studentsummary_p","type":"TRIMMEDSTRING","length":255,"required":true,"remote":null},{"name":"orgUnit","column":"orgunit_p","type":"TRIMMEDSTRING","length":255,"required":false,"remote":null},{"name":"eduYear","column":"eduyear_id","type":"LONG","length":0,"required":false,"remote":"educationYear"}]},
		{"name":"eplReportOrgUnitEduLoadB","abstract":false,"parent":"storableReport","table":"epl_rep_ou_edu_load_b_t","interfaces":[],"properties":[{"name":"studentSummary","column":"studentsummary_p","type":"TRIMMEDSTRING","length":255,"required":true,"remote":null},{"name":"orgUnit","column":"orgunit_p","type":"TRIMMEDSTRING","length":255,"required":false,"remote":null},{"name":"eduYear","column":"eduyear_id","type":"LONG","length":0,"required":false,"remote":"educationYear"}]},
		{"name":"eplReportOrgUnitEduLoadByPpsCheck","abstract":false,"parent":"storableReport","table":"epl_rep_ou_load_by_pps_check_t","interfaces":[],"properties":[{"name":"studentSummary","column":"studentsummary_p","type":"TRIMMEDSTRING","length":255,"required":true,"remote":null},{"name":"eduYear","column":"eduyear_id","type":"LONG","length":0,"required":false,"remote":"educationYear"},{"name":"orgUnit","column":"orgunit_p","type":"TRIMMEDSTRING","length":255,"required":false,"remote":null}]},
		{"name":"eplReportStaffByLoadB","abstract":false,"parent":"storableReport","table":"epl_rep_stuff_by_load_b_t","interfaces":[],"properties":[{"name":"studentSummary","column":"studentsummary_p","type":"TRIMMEDSTRING","length":255,"required":true,"remote":null},{"name":"eduYear","column":"eduyear_id","type":"LONG","length":0,"required":false,"remote":"educationYear"}]}],
 "dependencies":["uniepp"]}