{
  "comment": "Перечень профессий НПО 1999",
  "entity": {
    "name": "eduProgramSubjectOkso",
    "key": {
      "code": {"column": "$1"}
    },
    "value": {
      "subjectIndex":   { "query": "select o.id from eduProgramSubjectIndex o where o.code=$0" },
      "item":           { "query": "select o.id from eduProgramSubjectOksoItem o where o.code=$2" },
      "subjectCode":    { "column": "$3" },
      "title":          { "column": "$4" },
      "outOfSyncDate":  { "mvel": "null" }
    }
  },
  "where": "entity.code like '1999.%'",
  "data": [
    ["1999.40", "1999.40.270126", "2005.270100", "270126", "Мастер общестроительных работ"],
    ["1999.40", "1999.40.260919", "2005.260900", "260919", "Художник по костюму"],
    ["1999.40", "1999.40.270135", "2005.270100", "270135", "Монтажник санитарно-технических, вентиляционных систем и оборудования"],
    ["1999.40", "1999.40.270124", "2005.270100", "270124", "Мастер столярно-плотничных и паркетных работ"],
    ["1999.40", "1999.40.190631", "2005.190600", "190631", "Автомеханик"],
    ["1999.40", "1999.40.260506", "2005.260500", "260506", "Повар, кондитер"],
    ["1999.40", "1999.40.130507", "2005.130500", "130507", "Бурильщик эксплуатационных и разведочных скважин"],
    ["1999.40", "1999.40.151012", "2005.151000", "151012", "Слесарь"],
    ["1999.40", "1999.40.240407", "2005.240400", "240407", "Аппаратчик-оператор нефтехимического производства"],
    ["1999.40", "1999.40.032005", "2005.032000", "032005", "Делопроизводитель"],
    ["1999.40", "1999.40.130508", "2005.130500", "130508", "Машинист на буровых установках"],
    ["1999.40", "1999.40.150212", "2005.150200", "150212", "Сварщик (электросварочные и газосварочные работы)"],
    ["1999.40", "1999.40.190609", "2005.190600", "190609", "Автомеханик"],
    ["1999.40", "1999.40.260916", "2005.260900", "260916", "Оператор швейного оборудования"],
    ["1999.40", "1999.40.130506", "2005.130500", "130506", "Оператор по ремонту скважин"],
    ["1999.40", "1999.40.210502", "2005.210500", "210502", "Оператор связи"],
    ["1999.40", "1999.40.240408", "2005.240400", "240408", "Машинист технологических насосов и компрессоров"],
    ["1999.40", "1999.40.38",     "2005.080100", "38",     "Бухгалтер"],
    ["1999.40", "1999.40.151008", "2005.151000", "151008", "Станочник (металлообработка)"],
    ["1999.40", "1999.40.36",     "2005.100100", "36",     "Парикмахер"],
    ["1999.40", "1999.40.12",     "2005.130500", "12",     "Оператор нефтяных и газовых скважин"],
    ["1999.40", "1999.40.140620", "2005.140600", "140620", "Электромонтер по ремонту и обслуживанию электрооборудования (по отраслям)"],
    ["1999.40", "1999.40.220309", "2005.220300", "220309", "Слесарь по контрольно-измерительным приборам и автоматике"],
    ["1999.40", "1999.40.080118", "2005.080100", "080118", "Контролер сберегательного банка"],
    ["1999.40", "1999.40.270127", "2005.270100", "270127", "Мастер отделочных строительных работ"],
    ["1999.40", "1999.40.260917", "2005.260900", "260917", "Портной"],
    ["1999.40", "1999.40.080404", "2005.080400", "080404", "Продавец, контролер-кассир"],
    ["1999.40", "1999.40.220308", "2005.220300", "220308", "Электромонтер охранно-пожарной сигнализации"],
    ["1999.40", "1999.40.1",      "2005.230100", "1",      "Оператор электронно-вычислительных машин"],
    ["1999.40", "1999.40.34",     "2005.260300", "34",     "Мастер производства молочной продукции"]
  ]
}




