{"name":"unictr",
 "interfaces":[],
 "entities":[
		{"name":"contactPerson","abstract":false,"parent":null,"table":"contactperson_t","interfaces":[],"properties":[{"name":"id","column":"id","type":"LONG","length":255,"required":true,"remote":null},{"name":"class","column":"discriminator","type":"SHORT","length":255,"required":true,"remote":null},{"name":"firstName","column":"firstname_p","type":"TRIMMEDSTRING","length":255,"required":true,"remote":null},{"name":"lastName","column":"lastname_p","type":"TRIMMEDSTRING","length":255,"required":true,"remote":null},{"name":"middleName","column":"middlename_p","type":"TRIMMEDSTRING","length":255,"required":false,"remote":null},{"name":"birthDate","column":"birthdate_p","type":"DATE","length":255,"required":false,"remote":null},{"name":"contractor","column":"contractor_id","type":"LONG","length":0,"required":true,"remote":"contractor"},{"name":"post","column":"post_id","type":"LONG","length":0,"required":false,"remote":"contractorPost"},{"name":"subdivision","column":"subdivision_p","type":"TRIMMEDSTRING","length":255,"required":false,"remote":null},{"name":"workPhone","column":"workphone_p","type":"TRIMMEDSTRING","length":255,"required":false,"remote":null},{"name":"mobilePhone","column":"mobilephone_p","type":"TRIMMEDSTRING","length":255,"required":false,"remote":null},{"name":"phone","column":"phone_p","type":"TRIMMEDSTRING","length":255,"required":false,"remote":null},{"name":"email","column":"email_p","type":"TRIMMEDSTRING","length":255,"required":false,"remote":null},{"name":"icq","column":"icq_p","type":"TRIMMEDSTRING","length":255,"required":false,"remote":null}]},
		{"name":"contractor","abstract":false,"parent":null,"table":"contractor_t","interfaces":[],"properties":[{"name":"id","column":"id","type":"LONG","length":255,"required":true,"remote":null},{"name":"class","column":"discriminator","type":"SHORT","length":255,"required":true,"remote":null},{"name":"title","column":"title_p","type":"TRIMMEDSTRING","length":255,"required":true,"remote":null},{"name":"shortTitle","column":"shorttitle_p","type":"TRIMMEDSTRING","length":255,"required":true,"remote":null},{"name":"legalForm","column":"legalform_id","type":"LONG","length":0,"required":true,"remote":"legalForm"},{"name":"subdivision","column":"subdivision_p","type":"TRIMMEDSTRING","length":255,"required":false,"remote":null},{"name":"ground","column":"ground_p","type":"TRIMMEDSTRING","length":255,"required":false,"remote":null},{"name":"headOrganization","column":"headorganization_id","type":"LONG","length":0,"required":false,"remote":"contractor"},{"name":"scopeOfActivity","column":"scopeofactivity_id","type":"LONG","length":0,"required":false,"remote":"scopeOfActivity"},{"name":"stuffQuantity","column":"stuffquantity_p","type":"INTEGER","length":255,"required":false,"remote":null},{"name":"leader","column":"leader_id","type":"LONG","length":0,"required":false,"remote":"contactPerson"},{"name":"payee","column":"payee_p","type":"TRIMMEDSTRING","length":255,"required":false,"remote":null},{"name":"inn","column":"inn_p","type":"TRIMMEDSTRING","length":255,"required":false,"remote":null},{"name":"bank","column":"bank_p","type":"TRIMMEDSTRING","length":255,"required":false,"remote":null},{"name":"curAccount","column":"curaccount_p","type":"TRIMMEDSTRING","length":255,"required":false,"remote":null},{"name":"corAccount","column":"coraccount_p","type":"TRIMMEDSTRING","length":255,"required":false,"remote":null},{"name":"bic","column":"bic_p","type":"TRIMMEDSTRING","length":255,"required":false,"remote":null},{"name":"kpp","column":"kpp_p","type":"TRIMMEDSTRING","length":255,"required":false,"remote":null},{"name":"okato","column":"okato_p","type":"TRIMMEDSTRING","length":255,"required":false,"remote":null},{"name":"ogrn","column":"ogrn_p","type":"TRIMMEDSTRING","length":255,"required":false,"remote":null},{"name":"okonh","column":"okonh_p","type":"TRIMMEDSTRING","length":255,"required":false,"remote":null},{"name":"okpo","column":"okpo_p","type":"TRIMMEDSTRING","length":255,"required":false,"remote":null},{"name":"incomeCode","column":"incomecode_p","type":"TRIMMEDSTRING","length":255,"required":false,"remote":null},{"name":"address","column":"address_id","type":"LONG","length":0,"required":false,"remote":"addressDetailed"},{"name":"legalAddress","column":"legaladdress_id","type":"LONG","length":0,"required":false,"remote":"addressDetailed"},{"name":"email","column":"email_p","type":"TRIMMEDSTRING","length":255,"required":false,"remote":null},{"name":"icq","column":"icq_p","type":"TRIMMEDSTRING","length":255,"required":false,"remote":null},{"name":"webpage","column":"webpage_p","type":"TRIMMEDSTRING","length":255,"required":false,"remote":null},{"name":"phone","column":"phone_p","type":"TRIMMEDSTRING","length":255,"required":false,"remote":null},{"name":"fax","column":"fax_p","type":"TRIMMEDSTRING","length":255,"required":false,"remote":null},{"name":"regionalInfo","column":"regionalinfo_p","type":"TRIMMEDSTRING","length":255,"required":false,"remote":null},{"name":"comments","column":"comments_p","type":"TRIMMEDSTRING","length":255,"required":false,"remote":null}]},
		{"name":"contractorPost","abstract":false,"parent":null,"table":"contractorpost_t","interfaces":[],"properties":[{"name":"id","column":"id","type":"LONG","length":255,"required":true,"remote":null},{"name":"class","column":"discriminator","type":"SHORT","length":255,"required":true,"remote":null},{"name":"code","column":"code_p","type":"TRIMMEDSTRING","length":255,"required":true,"remote":null},{"name":"title","column":"title_p","type":"TRIMMEDSTRING","length":1200,"required":false,"remote":null}]}],
 "dependencies":["uni"]}