{
 "doNotEditMe": "это сгенерированный файл",
 "comment": "УГС для ОКСО и 2009",
 "entity": {
 	"name":"eduProgramSubjectOksoGroup",
 	"key": {
 		"code":  { "column": "$0" }
 	},
 	"value": {
 		"title": { "column": "$1" }
 	}
 },
 "data":[
["000000","Научные направления"],
["010000","Физико-математические науки"],
["020000","Естественные науки"],
["030000","Гуманитарные науки"],
["040000","Социальные науки"],
["050000","Образование и педагогика"],
["060000","Здравоохранение"],
["070000","Культура и искусство"],
["080000","Экономика и управление"],
["090000","Информационная безопасность"],
["100000","Сфера обслуживания"],
["110000","Сельское и рыбное хозяйство"],
["120000","Геодезия и землеустройство"],
["130000","Геология, разведка и разработка полезных ископаемых"],
["140000","Энергетика, энергетическое машиностроение и электротехника"],
["150000","Металлургия, машиностроение и материалообработка"],
["160000","Авиационная и ракетно-космическая техника"],
["170000","Оружие и системы вооружения"],
["180000","Морская техника"],
["190000","Транспортные средства"],
["200000","Приборостроение и оптотехника"],
["210000","Электронная техника, радиотехника и связь"],
["220000","Автоматика и управление"],
["230000","Информатика и вычислительная техника"],
["240000","Химическая и биотехнологии"],
["250000","Воспроизводство и переработка лесных ресурсов"],
["260000","Технология продовольственных продуктов и потребительских товаров"],
["270000","Архитектура и строительство"],
["280000","Безопасность жизнедеятельности, природообустройство и защита окружающей среды"],
["290000","Военное образование"]
 ]
}