{
 "doNotEditMe": "это сгенерированный файл",
 "comment": "Квалификации (только 2005 год)",
 "entity": {
 	"name":"eduProgramQualification",
 	"key": {
 		"code":                      { "column": "$1" }
 	},
 	"value": {
 		"subjectIndex":              { "query": "select o.id from eduProgramSubjectIndex o where o.code=$0" },
 		"qualificationLevelCode":    { "column": "$2" },
 		"title":                     { "column": "$3" }
 	}
 },
 "where": "entity.code like '2005.%'",
 "data":[
   ["2005.62", "2005.62.910ed66ec578bc6f52d9da169eb2cc93cd82ee6f", "62", "Бакалавр математики"],
   ["2005.68", "2005.68.58161652171dcfcc3d4fa917137ae039c4403d32", "68", "Магистр математики"],
   ["2005.65", "2005.65.02729ca188517457c4a6676b8269b671e0e96bb1", "65", "Математик"],
   ["2005.62", "2005.62.3c6d8b47a18fe2a2f7f2a1e677fc021b2abe411a", "62", "Бакалавр информационных технологий"],
   ["2005.68", "2005.68.8321e1004af7d9c622e9605a4bb10142c138a980", "68", "Магистр информационных технологий"],
   ["2005.62", "2005.62.f9b805d39657cbd807d65d696e21c59b94b6c156", "62", "Бакалавр прикладной математики и информатики"],
   ["2005.68", "2005.68.0cc7d020bab493c3228dab77d8762a8f2554e4a2", "68", "Магистр прикладной математики и информатики"],
   ["2005.65", "2005.65.822ffafce4fcd14d9515588e91c9f03424629611", "65", "Математик, системный программист"],
   ["2005.65", "2005.65.6cdc9596028eac34e379b8a9e9c9e931c47dc49e", "65", "Математик-программист"],
   ["2005.62", "2005.62.e2343e60d8a911532655b766337a38e1dca8d518", "62", "Бакалавр прикладных математики и физики"],
   ["2005.68", "2005.68.fb29213f63d1571fce78720cee9157a8c872273c", "68", "Магистр прикладных математики и физики"],
   ["2005.62", "2005.62.926fc11f2e99a9486e9b7b344cd7168682b54b49", "62", "Бакалавр физики"],
   ["2005.68", "2005.68.06a367ead767fba545ecf4c1a1746f6271d861da", "68", "Магистр физики"],
   ["2005.65", "2005.65.8586e32e2ede09df999511a97a41546138698659", "65", "Физик"],
   ["2005.65", "2005.65.e072d2ed7ef84f933dc9e1d04ee47cdb6697a94d", "65", "Астроном"],
   ["2005.65", "2005.65.0751a215ad6110177e3e407ccc1198f51a9d5da7", "65", "Физик, системный аналитик"],
   ["2005.62", "2005.62.0f87ede6c771b2234cc8aa39346e2b2e84d813de", "62", "Бакалавр радиофизики"],
   ["2005.68", "2005.68.418a790021d28a9b18a72542f700e299e5d167d9", "68", "Магистр радиофизики"],
   ["2005.65", "2005.65.d70813ac9893e452b5f83d6be75e1952ca51a235", "65", "Радиофизик"],
   ["2005.65", "2005.65.8ea7964db60e7fd5a202486b0120ad7c2ff0f061", "65", "Физик-микроэлектронщик"],
   ["2005.62", "2005.62.f403c502176d755b7b906697928f1fcfd9a72849", "62", "Бакалавр механики"],
   ["2005.68", "2005.68.9e48df1d4939f546f75c8c2855f3670e3b417381", "68", "Магистр механики"],
   ["2005.65", "2005.65.d5fbcb148cdd8755f13da5ad42528fb201f4959e", "65", "Механик"],
   ["2005.62", "2005.62.16390b9d2db182e571d5184eba3b6343abb9e3fe", "62", "Бакалавр математики и механики"],
   ["2005.68", "2005.68.3f0f065b4e7b92b0f768f87492e276c941b07bd8", "68", "Магистр математики и механики"],
   ["2005.62", "2005.62.27ec827d0aef0d828f2f659b1d25d0294023a562", "62", "Бакалавр химии"],
   ["2005.68", "2005.68.78a2e86a82b16ff96ef2adb31844c5583ecdec35", "68", "Магистр химии"],
   ["2005.65", "2005.65.73df6fe0971683ad1cf0f263ddf1ccad00e4ac8b", "65", "Химик"],
   ["2005.62", "2005.62.149eab01f4b07349390bc7b6b95aefb457e65a9e", "62", "Бакалавр биологии"],
   ["2005.68", "2005.68.8788471adaa77dbe76d8813fca160b942c6f299d", "68", "Магистр биологии"],
   ["2005.65", "2005.65.34d240d84c02d116b3cde57558bccc755d0ee3ea", "65", "Биолог"],
   ["2005.65", "2005.65.aa7f6559958ee9ea4dfcc04771ed93f68f5931ca", "65", "Антрополог"],
   ["2005.65", "2005.65.deac29867399fd46c618d26301b89676c68395c5", "65", "Зоолог"],
   ["2005.65", "2005.65.e8911840e18ba9bbacc3a734b32698791753d3f0", "65", "Ботаник"],
   ["2005.65", "2005.65.7e96c8ebf8bc2eed3db1d23be8d18eee5d01ce89", "65", "Физиолог"],
   ["2005.65", "2005.65.f7a76586b505d86ea486f544b538a8ee4c78a20e", "65", "Генетик"],
   ["2005.65", "2005.65.4c02b0eb122e129747ec93711108c43922f5ab7d", "65", "Биофизик"],
   ["2005.65", "2005.65.dedd290f038e7c766c762642eb9e0cc67b21ca84", "65", "Биохимик"],
   ["2005.65", "2005.65.3161584d58f2339442e96231c22b1e3a289bf496", "65", "Микробиолог"],
   ["2005.65", "2005.65.df3eb4c152b2fd877c976d916a67ac49460aa6cc", "65", "Специалист по биоинженерии"],
   ["2005.62", "2005.62.d12cf409bfb5152a480c0a04398238aa7923733a", "62", "Бакалавр геологии"],
   ["2005.68", "2005.68.5ffa20742ac2c934409d5a6212ea14a6e298c26f", "68", "Магистр геологии"],
   ["2005.65", "2005.65.82f3f43e351a44f5fc356d799ff560b7f2da63f2", "65", "Геолог"],
   ["2005.65", "2005.65.23ab2f5e32a022d2f5a14ba46dde6750ca2ba06d", "65", "Геофизик"],
   ["2005.65", "2005.65.0dfe0460d9cca0cc2b17fab9078cb391a0f57d85", "65", "Геохимик"],
   ["2005.65", "2005.65.7bdd4bc0662851fd3707d6ce6f568591161106e3", "65", "Гидрогеолог"],
   ["2005.65", "2005.65.315fef8325625b616d169bfc914022b65f9eca73", "65", "Геолог-нефтяник"],
   ["2005.65", "2005.65.5dc7832147a84b6abad4a3a00487b986ba08be08", "65", "Эколог-геолог"],
   ["2005.62", "2005.62.fcacdd872d8cd7a0626dc481bea650d27b47df70", "62", "Бакалавр географии"],
   ["2005.68", "2005.68.2ea53836303745eac7b2e11d736abc7f9d31b1bf", "68", "Магистр географии"],
   ["2005.65", "2005.65.06aaa4e4f94d43c880ba530745940a6fcab9aa73", "65", "Географ"],
   ["2005.62", "2005.62.2d6827ecaff9ffc0c783b8ec3425824838dbda5a", "62", "Бакалавр картографии"],
   ["2005.68", "2005.68.06019297a6e64a20db513aceda185048d4f17130", "68", "Магистр картографии"],
   ["2005.50", "2005.51.bda968fccc4818c8482be289db23027c920c473f", "51", "Техник"],
   ["2005.50", "2005.52.0c4784ca9a7e5ff524be81b9f0f795a550fd31bf", "52", "Старший техник"],
   ["2005.65", "2005.65.46f09b211700381427b3b6707d5890741825a976", "65", "Картограф"],
   ["2005.62", "2005.62.9feeeb5df851a3f24ad7d78a5e71d3b8fa1a3939", "62", "Бакалавр гидрометеорологии"],
   ["2005.68", "2005.68.0c3cee8cfdac8a8a1c4b11ddbc7102af2c12181a", "68", "Магистр гидрометеорологии"],
   ["2005.65", "2005.65.bec4931c4b1784a2b476205ef1fa3da8ce49cc99", "65", "Гидролог"],
   ["2005.65", "2005.65.3a87ae04637a52128a2656ee3a8c4f8536ef3a06", "65", "Инженер"],
   ["2005.65", "2005.65.d63846b60c181887d8cb4d007aea338937c9bb70", "65", "Метеоролог"],
   ["2005.65", "2005.65.801c9e4661ed85e92d790592a839bf3538a7e730", "65", "Океанолог"],
   ["2005.62", "2005.62.8e367a8d672a84f3167667bfa7311df27400921d", "62", "Бакалавр почвоведения"],
   ["2005.68", "2005.68.48b9e44b1cb06430180a04fa653e78037e1a13c0", "68", "Магистр почвоведения"],
   ["2005.65", "2005.65.00e698d7433d9af3c7c08317aae5263f4c87880e", "65", "Почвовед"],
   ["2005.62", "2005.62.7067b676f0ab471817199d7882a9598e614a7955", "62", "Бакалавр экологии"],
   ["2005.68", "2005.68.b4b34c6a101f8648b55035d96fb4890af4ae0eb8", "68", "Магистр экологии"],
   ["2005.65", "2005.65.765758b11dbfc304c899bcf4ba0d52bacc2a1f4e", "65", "Эколог"],
   ["2005.65", "2005.65.dd3061385c40dcdbb4903a33307fd52c6d337c43", "65", "Эколог-природопользователь"],
   ["2005.65", "2005.65.b8c42f2338dc594e407f26f0e2e0dcf6bf8b6b79", "65", "Биоэколог"],
   ["2005.65", "2005.65.0b86786f0c39ca27432eb9e3a878749040ee977a", "65", "Геоэколог"],
   ["2005.62", "2005.62.c3004ff7ef015b0c680b2623caba43ca76242bce", "62", "Бакалавр материаловедения"],
   ["2005.68", "2005.68.dc6433ca1ada36204db4676fd4e0415780821e6b", "68", "Магистр материаловедения"],
   ["2005.62", "2005.62.d6960d44c28da42e5668aa6a1229a6d49d2d90d3", "62", "Бакалавр философии"],
   ["2005.68", "2005.68.1dab02f068891f744fb31e4480f2319eb6575654", "68", "Магистр философии"],
   ["2005.65", "2005.65.4e58d33c0e210a128fd31379184adc2bc7e772e6", "65", "Философ, преподаватель"],
   ["2005.62", "2005.62.1c3c3667634f6767cdcc17ca1a85e0f2b88f7e61", "62", "Бакалавр политологии"],
   ["2005.68", "2005.68.cd70859659c1552ebbc911f4b6e167786f1cfe5c", "68", "Магистр политологии"],
   ["2005.65", "2005.65.f3847cb3f49bb7a078b6bbb6f37ed971f778bdd3", "65", "Политолог"],
   ["2005.62", "2005.62.0396b1598d09c3a83a9763548230281890741414", "62", "Бакалавр психологии"],
   ["2005.68", "2005.68.39c3cacdec29c08cc609d47d1045c522bd678ced", "68", "Магистр психологии"],
   ["2005.65", "2005.65.76b38bccdc4802b82a27a4eea8169ae737e0b97c", "65", "Психолог"],
   ["2005.65", "2005.65.67b0de26db9f0405f9ea82dbc3fffe6999b9eccb", "65", "Преподаватель психологии"],
   ["2005.65", "2005.65.32e47e3050a58dce5e08280cec239bbf351aed38", "65", "Психолог, преподаватель психологии"],
   ["2005.65", "2005.65.2e76f36700dd63a61bddce428268fe5183e6cf32", "65", "Клинический психолог"],
   ["2005.65", "2005.65.4ee2d459ff0dcf2a1a7375b8eaa6aa792874c201", "65", "Преподаватель"],
   ["2005.62", "2005.62.7339c958ddff67a4965b48ad08227fdb43c884e7", "62", "Бакалавр истории"],
   ["2005.68", "2005.68.c25c7d1fdf5791d6c159439846d268c97cf0cff0", "68", "Магистр истории"],
   ["2005.65", "2005.65.1b02a6556314405a96eb468e3f3cdbc9541455b0", "65", "Историк"],
   ["2005.65", "2005.65.1f1a3f3e92f6e9ec65875af19c660a9775688384", "65", "Преподаватель истории"],
   ["2005.65", "2005.65.e476dae0c97307d41ceca28b19e916e50a1180cf", "65", "Историк-архивист"],
   ["2005.62", "2005.62.14812c9f7569f867b0dad20351b3c4554f7c6e27", "62", "Бакалавр юриспруденции"],
   ["2005.68", "2005.68.89029016a924a3eb9a2a38d96a5fa81bd097ffa7", "68", "Магистр юриспруденции"],
   ["2005.65", "2005.65.42b39b2704b88bf4b62ba88565d348f3dd602296", "65", "Юрист"],
   ["2005.65", "2005.65.7ae6b88aa63bf939bbcd58ec7bec806a1aa59540", "65", "Судебный эксперт"],
   ["2005.50", "2005.51.42b39b2704b88bf4b62ba88565d348f3dd602296", "51", "Юрист"],
   ["2005.50", "2005.52.95ffeb406dec0029c35e4e68cd47931ecca7fa16", "52", "Юрист с углубленной подготовкой"],
   ["2005.62", "2005.62.72e2fdf60630bcf52d0cd8ae2a517c9dfbab12d6", "62", "Бакалавр журналистики"],
   ["2005.68", "2005.68.760aa26f6b85699f9ebc4f6cc96202636856b293", "68", "Магистр журналистики"],
   ["2005.65", "2005.65.5dd5d64e27f6f81c9182551091e990297901977d", "65", "Журналист"],
   ["2005.65", "2005.65.122e9149332af153fdbec5bc9a9ed7ff0db40175", "65", "Специалист по связям с общественностью"],
   ["2005.62", "2005.62.2ccf87491131c7a81fceb2332a4405516508c3eb", "62", "Бакалавр международных отношений"],
   ["2005.68", "2005.68.8d81e665ee68cb52f27c42982bcfb152966964a4", "68", "Магистр международных отношений"],
   ["2005.65", "2005.65.3b5a7a21b10f3dd655ee41f27481f715b0602d00", "65", "Специалист в области международных отношений"],
   ["2005.62", "2005.62.e727e10fbf95005427df5bf554556294ca01d315", "62", "Бакалавр востоковедения, африканистики"],
   ["2005.68", "2005.68.100a7594c71f56843ad841875a2f474272a5e70f", "68", "Магистр востоковедения, африканистики"],
   ["2005.65", "2005.65.c5c4cb05b977e96e95aa95b04d10c2a51612848d", "65", "Востоковед, африканист"],
   ["2005.62", "2005.62.e54ab461d7ee6c015c55ac20c73a3c90f9af326c", "62", "Бакалавр книжного дела"],
   ["2005.68", "2005.68.0d95b383dcfab49584a746dce33d7643fd06ab22", "68", "Магистр книжного дела"],
   ["2005.65", "2005.65.b54427b31df0875012a60d5269ee809760f6aeb7", "65", "Специалист книжного дела"],
   ["2005.50", "2005.51.8c59ccff67a79dee64c40d795174ef3c66d257e8", "51", "Специалист издательского дела"],
   ["2005.50", "2005.52.65d42cf1679c100c5cca0ddf0f2d7526b5bfe920", "52", "Редактор"],
   ["2005.62", "2005.62.43b8c18e2d7a1e52e8d0f3d4c0eb1984319cc0eb", "62", "Бакалавр филологии"],
   ["2005.68", "2005.68.56874dd05213b5fb0682391715f880d12d33841e", "68", "Магистр филологии"],
   ["2005.65", "2005.65.ec66062bcdf7f1199a0c60bb02e5e8c4783a0bcf", "65", "Филолог"],
   ["2005.62", "2005.62.2183693d70e88617bc7150da3a70771d385d22b2", "62", "Бакалавр лингвистики"],
   ["2005.68", "2005.68.c4234c28346a96f6e537eb130d26e2b2276ef972", "68", "Магистр лингвистики"],
   ["2005.65", "2005.65.63d9e329cbbf40465639c4c19faf598c91c5e54c", "65", "Лингвист, преподаватель"],
   ["2005.65", "2005.65.63fb5662fb4cccaac8b6a693a7cf0860138adac2", "65", "Лингвист, переводчик"],
   ["2005.65", "2005.65.1a99c1046c33d786cd4650ceb523dae3ba99894c", "65", "Лингвист, специалист по межкультурному общению"],
   ["2005.65", "2005.65.82280cba87f9f5cffeb2559167a4fd02646c6dae", "65", "Лингвист"],
   ["2005.65", "2005.65.8ea88f6236a69df0d88943a2fecb501a94a09f3d", "65", "Специалист по интеллектуальным системам в гуманитарной сфере"],
   ["2005.62", "2005.62.7a978949452c0a8ddb452032946b3a1596169d67", "62", "Бакалавр культурологии"],
   ["2005.68", "2005.68.f571944e919a94e29f306a5cffe48ec08ccc0783", "68", "Магистр культурологии"],
   ["2005.65", "2005.65.19a9772cb5cf73c25d11342bc142316d25514283", "65", "Культуролог"],
   ["2005.62", "2005.62.d85abbf265d7eab27fbd30a9791e9ef64c33ecb9", "62", "Бакалавр искусствоведения"],
   ["2005.68", "2005.68.65cb90006f130af2970b67355e4ae6a0f58cf5cf", "68", "Магистр искусствоведения"],
   ["2005.65", "2005.65.7908cdaadf4c060149324b62fe1192bc67c047b6", "65", "Искусствовед"],
   ["2005.65", "2005.65.0dc725b7e1a03b84e35e1bf4a9ce1922c1ff3ef0", "65", "Музеолог"],
   ["2005.62", "2005.62.fc4efa618b697a8712f1ab33c0fe4034d26f20b2", "62", "Бакалавр искусства и гуманитарных наук"],
   ["2005.68", "2005.68.2b80e8624ba40b9876d692f51f3028720a14b4e9", "68", "Магистр искусства и гуманитарных наук"],
   ["2005.62", "2005.62.36a5f8cb253f2f4e968dab68a244fcd176d9ad88", "62", "Бакалавр изящных искусств"],
   ["2005.68", "2005.68.95eaec37ff0fc2621aa3c07b8267c6ca1f35ba51", "68", "Магистр изящных искусств"],
   ["2005.62", "2005.62.75cdfa2488ee138a5fcecc7382ac836b2f62e08e", "62", "Бакалавр религиоведения"],
   ["2005.68", "2005.68.d3b468aae3abd6dbc4938339841d88967f48b31a", "68", "Магистр религиоведения"],
   ["2005.65", "2005.65.ae9ff42154f1bee3bc91fbf73c40d68b937e6218", "65", "Религиовед, преподаватель"],
   ["2005.62", "2005.62.cf7dbc56a30934944a45a350549bb0e0ef8f68d4", "62", "Бакалавр теологии"],
   ["2005.68", "2005.68.0256882f1c7f4750b497af04f5d168136851a0f1", "68", "Магистр теологии"],
   ["2005.65", "2005.65.e4c86df5af9d07cd66d9891cd65b785ffad69356", "65", "Теолог, преподаватель"],
   ["2005.62", "2005.62.05848b70ea9a80660ec64f9485687d875586f506", "62", "Бакалавр документоведения и архивоведения"],
   ["2005.68", "2005.68.342e41deace55d25546eb3724c7862fdf5471c8f", "68", "Магистр документоведения и архивоведения"],
   ["2005.65", "2005.65.9781e269c30bfbf96e7d16387e5f694e0def2e2f", "65", "Документовед"],
   ["2005.50", "2005.51.09a3e727e0107315840e0a17caee41f4ea53e86a", "51", "Специалист по документационному обеспечению управления, архивист"],
   ["2005.50", "2005.52.73a10fb6835c24533665e77a04bffb5b1547591a", "52", "Специалист по документационному обеспечению управления, архивист с углубленной подготовкой"],
   ["2005.62", "2005.62.b2a4d836945df28ea2653deb6d2a967eb7ac7ca4", "62", "Бакалавр физической культуры"],
   ["2005.68", "2005.68.d415a233d780e6b0153a0e27618c5a8df7d78933", "68", "Магистр физической культуры"],
   ["2005.65", "2005.65.be2484deb48eaae1dad287d24afb0736d1a378e9", "65", "Специалист по физической культуре и спорту"],
   ["2005.65", "2005.65.6d4ab93f0c597ec6bf7093e44a7895aa49b8feb8", "65", "Специалист по адаптивной физической культуре"],
   ["2005.65", "2005.65.6edc733f6ee39c26768842d3417c98647ae06454", "65", "Специалист по рекреации и спортивно-оздоровительному туризму"],
   ["2005.62", "2005.62.f15f56894db0ea64bf4f3efeb8b83371d1ed2f1e", "62", "Бакалавр прикладной этики"],
   ["2005.68", "2005.68.fba996c8d8e409c337de1936f5137d9adcf7bd60", "68", "Магистр прикладной этики"],
   ["2005.62", "2005.62.084dfe387fa4a4aa6982c1fec4347429d9873c5b", "62", "Бакалавр регионоведения"],
   ["2005.68", "2005.68.5aa9d42bcffe449eb5dc52b1ce0fe696e25a5a1f", "68", "Магистр регионоведения"],
   ["2005.65", "2005.65.3ad20d07705506563bfda108ee68b9499e3ee31e", "65", "Регионовед"],
   ["2005.50", "2005.51.9af13136fc186329287d653f255bd1f013437dc1", "51", "Специалист по рекламе"],
   ["2005.50", "2005.52.bcc837bc14f4067c961a6ae25bc8a40736834547", "52", "Специалист по рекламе с углубленной подготовкой"],
   ["2005.65", "2005.65.9af13136fc186329287d653f255bd1f013437dc1", "65", "Специалист по рекламе"],
   ["2005.62", "2005.62.b42474fa227e44501c3df223e0cda95824fe0165", "62", "Бакалавр социальной работы"],
   ["2005.68", "2005.68.506aee460721030480bbdf2fd18053085b68ed6c", "68", "Магистр социальной работы"],
   ["2005.50", "2005.52.938503f7b563b24131fef1fe884ca1793f8de2be", "52", "Специалист по социальной работе"],
   ["2005.65", "2005.65.938503f7b563b24131fef1fe884ca1793f8de2be", "65", "Специалист по социальной работе"],
   ["2005.65", "2005.65.d78d27ab94e8d9036cc7ce9526dc2c36f3d94ea7", "65", "Социальный антрополог"],
   ["2005.50", "2005.51.e03f6165122262f8a0bdd87c3438dbfa94f0eb9e", "51", "Сурдопереводчик"],
   ["2005.50", "2005.52.3c4955d91b1d041a69ef5aadcc85065692b323da", "52", "Сурдопереводчик с углубленной подготовкой"],
   ["2005.65", "2005.65.d42ef96974a6f93e17f96396db1f7b072c6f26ac", "65", "Специалист по работе с молодежью"],
   ["2005.62", "2005.62.9a125a5d2401b1df486fe8b3f2ecebf7154a6bfc", "62", "Бакалавр социологии"],
   ["2005.68", "2005.68.144cb6aaaf4cb3253d3564ce22a228d619a177b3", "68", "Магистр социологии"],
   ["2005.65", "2005.65.126295356327bb6458a5e391fbfa95b72d08c0d0", "65", "Социолог"],
   ["2005.65", "2005.65.a23aecdbff6f8b73585dbf437029526c183cd861", "65", "Преподаватель социологии"],
   ["2005.65", "2005.65.3bdb7c6d39fa8d93205de6d195a3e5ee8f28f1e4", "65", "Социолог, преподаватель социологии"],
   ["2005.62", "2005.62.159108e19cb97f2edb67dae5be5b1e4e970e55a9", "62", "Бакалавр конфликтологии"],
   ["2005.68", "2005.68.36b2362fe522746b5286ed24fe994edd0b46b477", "68", "Магистр конфликтологии"],
   ["2005.62", "2005.62.9416d3e4a71c778150da4b1b7c972fd0742bed59", "62", "Бакалавр естественно-научного образования"],
   ["2005.68", "2005.68.5061eaf9e1b1756ec7809ee06ef5d67de87b03f8", "68", "Магистр естественно-научного образования"],
   ["2005.65", "2005.65.34f3674f5e947e3abf98b23f9c0f9bd714ab421c", "65", "Учитель химии"],
   ["2005.65", "2005.65.4177da399a418a930f430f7722fa9ea0329e9653", "65", "Учитель биологии"],
   ["2005.50", "2005.52.7f4806a9e31db11f95ac808fd7598cebc5b5eb2e", "52", "Учитель географии основной общеобразовательной школы"],
   ["2005.65", "2005.65.4ec3939d37c800381ade4f3a7d2cce4ec61074d0", "65", "Учитель географии"],
   ["2005.65", "2005.65.9d20c6187f8a6eefa4481592762c57e2d6f4aae5", "65", "Учитель безопасности жизнедеятельности"],
   ["2005.62", "2005.62.22c7ee064a04db044e92be9b6d6390fbfdb0aadb", "62", "Бакалавр физико-математического образования"],
   ["2005.68", "2005.68.0f1f33ff8aa72401c275d71134293d73a3f906d5", "68", "Магистр физико-математического образования"],
   ["2005.50", "2005.52.51f822c647a955b35e6271bb60da666d56b3b52b", "52", "Учитель математики основной общеобразовательной школы"],
   ["2005.65", "2005.65.b706f70a234c0ea7f761fd0cd0b57ce21930594d", "65", "Учитель математики"],
   ["2005.50", "2005.52.3766d530478f843052b52a1c913ad369c0548962", "52", "Учитель информатики основной общеобразовательной школы"],
   ["2005.65", "2005.65.12da05a02aa7c0dbfd82030ef3dad166ec966624", "65", "Учитель информатики"],
   ["2005.65", "2005.65.a11da3d2bc91b20db7661926f0abd0577c337f24", "65", "Учитель физики"],
   ["2005.62", "2005.62.e9ac5b725c7767de6378849bb8a22ec8e14fddb6", "62", "Бакалавр филологического образования"],
   ["2005.68", "2005.68.751b5538e771b8ef1a33247f7f01c6ebd7e3a73f", "68", "Магистр филологического образования"],
   ["2005.50", "2005.52.6ef35d1db58a8d36e85656355e5778243b1aed22", "52", "Учитель русского языка и литературы основной общеобразовательной школы"],
   ["2005.65", "2005.65.b84b57e80f75c2d4779f5d8527c9533169f9b0b7", "65", "Учитель русского языка и литературы"],
   ["2005.50", "2005.52.2ab299b150f843ed1bef536543c5911cf937bc24", "52", "Учитель родного языка и литературы основной общеобразовательной школы"],
   ["2005.65", "2005.65.b5962103f5a1172a68e17db8272056eaa207be33", "65", "Учитель родного языка и литературы"],
   ["2005.50", "2005.52.227dc6d909ee46c9e011baadc310fd84a3bc1cae", "52", "Учитель иностранного языка начальной и основной общеобразовательной школы"],
   ["2005.65", "2005.65.75bfdea554e7bc954070e5512594f75e0b98606c", "65", "Учитель иностранного языка"],
   ["2005.62", "2005.62.0e634fa2bbc175a5374fd7d28b9415ca13506bbd", "62", "Бакалавр социально-экономического образования"],
   ["2005.68", "2005.68.af2f4e76e2e7317c649cda63b6b7bc28f036da39", "68", "Магистр социально-экономического образования"],
   ["2005.50", "2005.52.00fa309962ee422a8f59a9c04decd92ade719d14", "52", "Учитель истории основной общеобразовательной школы"],
   ["2005.65", "2005.65.ac139520575253e6cd75c11c57d03957258efbce", "65", "Учитель истории"],
   ["2005.65", "2005.65.dc68a043158fc7fda2843bf623e7b28529e34441", "65", "Учитель права"],
   ["2005.65", "2005.65.9b05b294647480a0e7088c50d5e1e48c2cde185d", "65", "Учитель культурологии"],
   ["2005.62", "2005.62.d49b9a4db1e110e3f52ec1ad93fe6be2c2791cca", "62", "Бакалавр технологического образования"],
   ["2005.68", "2005.68.ff16fe1797bfe5c5e9a4383f17f6ea6724579413", "68", "Магистр технологического образования"],
   ["2005.50", "2005.52.653b7dd84a5c1400bb63e77e4b7640e84f9487dc", "52", "Мастер производственного обучения (техник, технолог, конструктор-модельер, дизайнер и др.)"],
   ["2005.65", "2005.65.b57fc54ac5ccd109a60dba09037f6251ae8817ca", "65", "Педагог профессионального обучения"],
   ["2005.65", "2005.65.b9729710b24529c73e54fc8d3f704f4208c42315", "65", "Учитель технологии и предпринимательства"],
   ["2005.50", "2005.52.dca708e6a8f8b990169a479bfe045bbe30fc1030", "52", "Учитель технологии"],
   ["2005.62", "2005.62.ac2b332babbcd2da40977d0a9e5e1fce93ee88b0", "62", "Бакалавр художественного образования"],
   ["2005.68", "2005.68.791c9d9cc9878a00cf678bfce5832a966ef8c735", "68", "Магистр художественного образования"],
   ["2005.50", "2005.51.641132ae4c86bed5f88a8201960297f78116912c", "51", "Учитель музыки, музыкальный руководитель"],
   ["2005.50", "2005.52.641132ae4c86bed5f88a8201960297f78116912c", "52", "Учитель музыки, музыкальный руководитель"],
   ["2005.50", "2005.52.93d26eaadb444be2e630640838c5e88a5ebfc932", "52", "Учитель музыки, музыкальный руководитель (в соответствии с программой дополнительной подготовки)"],
   ["2005.65", "2005.65.3a59dc5d96574adcb1194450289186493eebaf4a", "65", "Учитель музыки"],
   ["2005.65", "2005.65.62dcd73634677db9e9e8dd02170792ed56246d86", "65", "Учитель изобразительного искусства"],
   ["2005.50", "2005.51.565c20d744b8c329a75eb32dbfc471ce54452300", "51", "Учитель изобразительного искусства и черчения"],
   ["2005.50", "2005.52.565c20d744b8c329a75eb32dbfc471ce54452300", "52", "Учитель изобразительного искусства и черчения"],
   ["2005.50", "2005.52.aace33b94bbcaddb14630f3c35fd55c74468da1e", "52", "Учитель изобразительного искусства и черчения (в соответствии с программой дополнительной подготовки)"],
   ["2005.62", "2005.62.5be0084000dac132be403763128a7da6a62148ad", "62", "Бакалавр педагогики"],
   ["2005.68", "2005.68.0306fde1cd9ade2eb718bf8cc6331159815312af", "68", "Магистр педагогики"],
   ["2005.65", "2005.65.e12643d4266f86c763896de34820351993fc74af", "65", "Преподаватель педагогики"],
   ["2005.50", "2005.52.907bfb7cc2583193edf01eba3cea08bc83de80d9", "52", "Педагог-организатор с дополнительной квалификацией или дополнительной подготовкой в области (далее - в соответствии с наименованием конкретной программы дополнительной подготовки)"],
   ["2005.65", "2005.65.bc18f7640eff7edee3d5063d34c85fdf9799ee2e", "65", "Преподаватель дошкольной педагогики и психологии"],
   ["2005.50", "2005.52.e6d00c37603171443682cd15d8dfed6179c37ad4", "52", "Воспитатель детей дошкольного возраста"],
   ["2005.50", "2005.52.4f9e5d82b0e67e872408d4d700f35d3430c342e3", "52", "Воспитатель детей дошкольного возраста (в соответствии с программой дополнительной подготовки)"],
   ["2005.50", "2005.52.598e9d02231e740e5315d586168dd08c1e335b0d", "52", "Воспитатель детей дошколного возраста с отклонениями в развитии и с сохранным развитием"],
   ["2005.65", "2005.65.095ac255859c9c5a1c14d317ae49ee869ae7f397", "65", "Педагог-психолог"],
   ["2005.65", "2005.65.0097d04ef6121141d3af2b685309b9add4272fe5", "65", "Организатор-методист дошкольного образования"],
   ["2005.65", "2005.65.7809fb4e747cd24479e68931e5aac8fc1661dba0", "65", "Учитель начальных классов"],
   ["2005.50", "2005.52.7809fb4e747cd24479e68931e5aac8fc1661dba0", "52", "Учитель начальных классов"],
   ["2005.50", "2005.52.f241badf108403edddd84104e9a30745af6b7fba", "52", "Учитель начальных классов (в соответствии с программой дополнительной подготовки)"],
   ["2005.50", "2005.52.3c0e04318fd6c868f5aad79c1ea9df0a19877b05", "52", "Педагог дополнительного образования детей (с указанием области деятельности)"],
   ["2005.50", "2005.52.a0c53f7aad3baf376f92cff282145540de252f43", "52", "Педагог дополнительного образования детей (с указанием области деятельности и программы дополнительной подготовки)"],
   ["2005.50", "2005.52.41063d9d51ed4d909ec411d3a52142d3c09a3102", "52", "Социальный педагог с дополнительной квалификацией или дополнительной подготовкой в области (далее - в соответствии с наименованием конкретной программы дополнительной подготовки)"],
   ["2005.65", "2005.65.68e626285f38a7c866302249cdbec5ea71942a87", "65", "Социальный педагог"],
   ["2005.65", "2005.65.a27988a31382083b2aec35f30e2004faae86c407", "65", "Учитель-тифлопедагог"],
   ["2005.65", "2005.65.f7fb7c2dd6a6df94fbc4599dfe2c568a5dd97726", "65", "Учитель-сурдопедагог"],
   ["2005.65", "2005.65.2dec03c4b5f20042eaf27fa9e14a72a800437485", "65", "Учитель-олигофренопедагог"],
   ["2005.65", "2005.65.e013e023e0bd5d2f0f843c5b226b3b430aa26fd5", "65", "Учитель-логопед"],
   ["2005.65", "2005.65.25da0c608e0c6b1cb4f49587a054de4d89dcb811", "65", "Специальный психолог"],
   ["2005.65", "2005.65.8eb27c2a0bfc46272524d6fa0ea4278815224cb9", "65", "Педагог-дефектолог для работы с детьми дошкольного возраста с отклонениями в развитии"],
   ["2005.50", "2005.52.d51ffdeb319f0a8bfd57af7f7b359d314dcb3f5a", "52", "Воспитатель детей школьного возраста с отклонениями в развитии и с сохранным развитием"],
   ["2005.50", "2005.52.5474c608cf393fe9f6a0f9cb17e85a0ec318b1c4", "52", "Учитель начальных классов и начальных классов компенсирующего и коррекционно-развивающего образования"],
   ["2005.50", "2005.51.8bbf5c59b09de839c99d67c660e632f86de82cd9", "51", "Педагог по физической культуре и спорту"],
   ["2005.50", "2005.52.848260bd287f4574b57de2f35e0a83d16e291125", "52", "Педагог по физической культуре и спорту с углубленной подготовкой"],
   ["2005.50", "2005.52.927b24c2e3dcd9d067750ee2d75cf98678352ab6", "52", "Учитель физической культуры"],
   ["2005.50", "2005.52.077b2e84e5b729d993d2a9fcd05438cd53ea9e68", "52", "Учитель физической культуры (в соответствии с программой дополнительной подготовки)"],
   ["2005.65", "2005.65.e7e96756a6e97ee107931fa395846f6ea7e0590a", "65", "Педагог по физической культуре"],
   ["2005.50", "2005.51.8013a9bd682ad83cdf20201e8d8fd8f23a0d8298", "51", "Педагог по адаптивной физической культуре"],
   ["2005.50", "2005.52.8013a9bd682ad83cdf20201e8d8fd8f23a0d8298", "52", "Педагог по адаптивной физической культуре"],
   ["2005.50", "2005.52.c1986f49c18fd55c8ff8814daf14c0a70d70d557", "52", "Учитель адаптивной физической культуры"],
   ["2005.50", "2005.52.ac51eec99e4aec4e633548240b5e9de73d1aaf66", "52", "Фельдшер"],
   ["2005.65", "2005.65.d1ad7c2e0ac521b7e9ab6683eb2b613577b0b16f", "65", "Врач"],
   ["2005.50", "2005.51.bd62ae87fafc03fd72bd68d5a25f1645b07a7e69", "51", "Акушерка"],
   ["2005.50", "2005.52.53710411276aa8deb5bcbac670f88f9da52a539c", "52", "Акушерка с углубленной подготовкой"],
   ["2005.50", "2005.51.dcd5ae4fa8a86a74776631159ec993307909f605", "51", "Санитарный фельдшер"],
   ["2005.50", "2005.52.d851ab4b86f86b30d4c5294334a9ee4802096ee8", "52", "Санитарный фельдшер с углубленной подготовкой"],
   ["2005.50", "2005.51.459927b784ee92a5d7e196aa79561112c0b10446", "51", "Зубной врач"],
   ["2005.50", "2005.52.ca23a7ae326434d157d149a5e92ee04c3018e6f1", "52", "Зубной врач с углубленной подготовкой"],
   ["2005.50", "2005.51.b0a03875d081e1aef1d1251226e5342c48f52cd0", "51", "Зубной техник"],
   ["2005.50", "2005.52.3aa7952b51105f131218f7605e7878f653c79ae3", "52", "Старший зубной техник"],
   ["2005.50", "2005.51.40d709cf3bbb19a8499a898b7364f269d7b717fd", "51", "Гигиенист стоматологический"],
   ["2005.50", "2005.52.01786addb7966d6517564dfbe8305b3be0ccefa2", "52", "Гигиенист стоматологический с углубленной подготовкой"],
   ["2005.50", "2005.51.d7c38a14783970507382070ac96e0b147a85421b", "51", "Фармацевт"],
   ["2005.50", "2005.52.cf0b651f1f33909d0198abea1c142ce50bb31e03", "52", "Фармацевт с углубленной подготовкой"],
   ["2005.65", "2005.65.7274491142e4a8362912f56b28c6d4a958145f56", "65", "Провизор"],
   ["2005.50", "2005.51.882d11dd9e1dbab5b70dc6481d0cda6d3104fd59", "51", "Медицинская сестра"],
   ["2005.50", "2005.52.914226e4ae1636aab3e7c6fb6011fdf2a6ccb605", "52", "Медицинская сестра с углубленной подготовкой"],
   ["2005.65", "2005.65.8d98911527e4d77e1660d9c0ef29d73743241cec", "65", "Менеджер"],
   ["2005.50", "2005.51.860ca4dd539642c31d1dc4707e21514d3144d64c", "51", "Медицинский лабораторный техник"],
   ["2005.50", "2005.52.443c418b0881ba8e784fde7ae0bde315d815e8f3", "52", "Медицинский технолог"],
   ["2005.50", "2005.51.cd6539cca71cbbd278277eaec8b3c82e0c8b1dae", "51", "Техник-оптик"],
   ["2005.50", "2005.52.810c2d6794344f158ac2a5a18bb6e7301449f6fb", "52", "Оптик-оптометрист"],
   ["2005.65", "2005.65.19c94f47a3726524cde879cb354d0b5797d9046d", "65", "Врач-биохимик"],
   ["2005.65", "2005.65.11cd5009c06516693c7258b985e61605796ea866", "65", "Врач-биофизик"],
   ["2005.65", "2005.65.d07c66df00716c427ffb66ef4a5294f7814ea9f1", "65", "Врач-кибернетик"],
   ["2005.62", "2005.62.22e1f8832ff436a62d8ad02574c8dbb712d067ac", "62", "Бакалавр музыкального искусства"],
   ["2005.68", "2005.68.be48d3699c6f46e6239de177aba613b2d7df0c42", "68", "Магистр музыкального искусства"],
   ["2005.65", "2005.65.26a08a8b3f96b9e52ef954036a9d6d0a0652f797", "65", "Концертный исполнитель, артист камерного ансамбля, концертмейстер, преподаватель"],
   ["2005.65", "2005.65.f0c8892ee30bd2cd8b1b53792fec3a6acc1ecba1", "65", "Концертный исполнитель, артист оркестра, артист ансамбля, преподаватель (оркестровые струнные инструменты)"],
   ["2005.65", "2005.65.184957e2935fb1a4dd840ac3cf5442c242b8f956", "65", "Концертный исполнитель, артист оркестра, артист ансамбля, преподаватель (оркестровые духовые и ударные инструменты)"],
   ["2005.65", "2005.65.afc6cbd4c07bbfea779c84bea4aacb94b1728ef5", "65", "Концертный исполнитель, артист оркестра, артист ансамбля, преподаватель (оркестровые народные инструменты)"],
   ["2005.50", "2005.52.9332dad7fa13596e77a2247568be817ffa301bb6", "52", "Артист оркестра, ансамбля"],
   ["2005.50", "2005.52.b2ea1736778f68fd454d592b0208ea0a1ea3fbbf", "52", "Преподаватель игры на инструменте"],
   ["2005.50", "2005.52.fa992f8b332c8ed32825569388ff3e1d461079c7", "52", "Концертмейстер"],
   ["2005.65", "2005.65.18aeb4c39f7ea3c600b32356b99396bcb9ab78db", "65", "Оперный певец, концертно-камерный певец, преподаватель"],
   ["2005.65", "2005.65.e242e80b21db6858db37cbc55fdbd6c4ccc8328f", "65", "Исполнитель народных песен, преподаватель"],
   ["2005.50", "2005.52.876d7a2826ffecb6895c34e05749a860aa9276b9", "52", "Артист академического хора, ансамбля"],
   ["2005.50", "2005.52.2d2525447e873a29d6ec21b59d1028f53ff213d3", "52", "Артист народного хора, ансамбля"],
   ["2005.65", "2005.65.9a9887c9333c65e62019150e4974ec8a8f1fdd11", "65", "Дирижер оперно-симфонического оркестра"],
   ["2005.65", "2005.65.41e8b466218f707d5d6ec579ce9dca185fb77036", "65", "Дирижер, хормейстер академического хора, преподаватель"],
   ["2005.65", "2005.65.d3a61a21495134c599cf091c7894e54147728f7d", "65", "Художественный руководитель народно-певческого коллектива, хормейстер, преподаватель"],
   ["2005.65", "2005.65.84eb9483c012cfbc80113a3123dbf2f7d16aac42", "65", "Дирижер военно-духового оркестра"],
   ["2005.50", "2005.52.2ca6ad2e43bd3afab37537a30e89584676bf7bd1", "52", "Руководитель хора и творческого коллектива"],
   ["2005.50", "2005.52.d3aa2d3b701d7bf843230fc90403c52d8c009b9a", "52", "Преподаватель хоровых дисциплин"],
   ["2005.50", "2005.52.6b51450ab10d99cffb0eb9cfd9c4aaa5c600fa80", "52", "Артист хора и ансамбля"],
   ["2005.65", "2005.65.7b9b28b64c12a26a2432ed5d7fac9b6b35c8f7da", "65", "Композитор, преподаватель"],
   ["2005.65", "2005.65.a4f36c870a3fea111b1f1f4491c74fad97614114", "65", "Концертный исполнитель, артист оркестра, артист ансамбля, преподаватель"],
   ["2005.65", "2005.65.9765800a714d84183d61764484636f58b6401be4", "65", "Концертный певец, солист ансамбля, преподаватель"],
   ["2005.50", "2005.52.e3e78c78a216ea1da00f03e652ab297e80efb586", "52", "Артист, руководитель эстрадного коллектива, преподаватель игры на инструменте"],
   ["2005.50", "2005.52.31f3a653286584efa8858adcab521ad49d88ae17", "52", "Артист, руководитель эстрадного вокального коллектива, преподаватель по классу вокала"],
   ["2005.50", "2005.52.1876e5bf63daee261e0cfda290bfec8938837ee1", "52", "Звукооператор музыкальных программ, преподаватель звукооператорского мастерства"],
   ["2005.65", "2005.65.806c5cb6ae2f695d858dd4858654ec645117b023", "65", "Звукорежиссер"],
   ["2005.65", "2005.65.f0dd5848369364e4faeacdad2f83b3353a7ef91e", "65", "Музыковед, преподаватель"],
   ["2005.65", "2005.65.4e9696f80fa7908ffa7b0974e0a3d5f7ae286f21", "65", "Музыковед, руководитель коллектива древнерусского пения, преподаватель"],
   ["2005.65", "2005.65.71d5e0da1b95b34824d3a0f31ab379a084af07a5", "65", "Этномузыколог, преподаватель"],
   ["2005.50", "2005.52.a6c7b6a721d4cd2b0d9ba9484919bae0adc39aaf", "52", "Преподаватель музыкально-теоретических дисциплин, преподаватель ритмики"],
   ["2005.62", "2005.62.98d4772c6243f50a6a23ed8f657ff1cd2f7fe7ff", "62", "Бакалавр театрального искусства"],
   ["2005.68", "2005.68.ea23d279f5908d0b8c5d4fc39523025810ac2908", "68", "Магистр театрального искусства"],
   ["2005.50", "2005.52.54195494653d0f7c2a4e87fefa682a8430e9f226", "52", "Актер"],
   ["2005.65", "2005.65.e841b3f19eb0789a1de27ea6baa2912c0da8c0d3", "65", "Артист драматического театра и кино"],
   ["2005.65", "2005.65.0407d362ea9de8e60aa987e0fd00ccb937062537", "65", "Артист музыкального театра"],
   ["2005.65", "2005.65.3f28c05ae164687711c35c06dda108c791f7870a", "65", "Артист театра кукол"],
   ["2005.65", "2005.65.b5b0028dc261b19e65f41d29d8587b2ba3c6736c", "65", "Артист эстрады"],
   ["2005.50", "2005.52.cc14a626cb4938ea81daff8428cd4ccc9a03b46c", "52", "Артист цирка"],
   ["2005.50", "2005.52.1e1f8847a83d1c3e16c2dfc947c096704f99e619", "52", "Руководитель (самодеятельного) циркового коллектива"],
   ["2005.50", "2005.52.b5b0028dc261b19e65f41d29d8587b2ba3c6736c", "52", "Артист эстрады"],
   ["2005.50", "2005.52.18853fa9993d4d533f61cccfa9b4b1a277e56d22", "52", "Руководитель (самодеятельного) творческого коллектива"],
   ["2005.65", "2005.65.8c421d8455d41706ddd578fe16b55cc04a6eb1c4", "65", "Режиссер драмы"],
   ["2005.65", "2005.65.d3e6ccd19e480cd873b50529e9f3bebbd25751fb", "65", "Режиссер музыкального театра"],
   ["2005.65", "2005.65.da517b61a96e2e5cfc49840644c8c381f9dfcca2", "65", "Режиссер театра кукол"],
   ["2005.65", "2005.65.fb309d2fec1f72186f38aea309a11f2417fa8876", "65", "Режиссер эстрады"],
   ["2005.65", "2005.65.84b5ef0370269da8cf0072928a02dc922f0e4664", "65", "Режиссер цирка"],
   ["2005.65", "2005.65.916233c597d924012e50a6d35e7be55807dadc59", "65", "Художник-технолог сцены"],
   ["2005.65", "2005.65.09b9b5faadac6173a697f1c2e6a15b2a21741b96", "65", "Художник-технолог театра кукол"],
   ["2005.65", "2005.65.ce8387f249e5531f31aec9c0fbd31ba7bade98d9", "65", "Художник-технолог по сценическому костюму"],
   ["2005.50", "2005.51.1915c31bd5a61f19d39fdfdb91035eac80406af8", "51", "Художник-технолог"],
   ["2005.50", "2005.52.684f4caeb0d59e3dcfac4d2a12158195547e8177", "52", "Художник технолог с углубленной подготовкой"],
   ["2005.65", "2005.65.f4e0d8cc5cd7687995b57941858d5d1d06299b09", "65", "Художник-постановщик театра"],
   ["2005.65", "2005.65.261dc943ed72e24a30b4e8cf86296a6ba2303316", "65", "Художник-постановщик в театре кукол"],
   ["2005.65", "2005.65.8fea32458a1fab90eb2924c8fdc7abb3af4f80b5", "65", "Художник по сценическому костюму"],
   ["2005.65", "2005.65.03aaf68562b0447583635f5c8222e294a77c09b6", "65", "Режиссер театрализованных представлений и праздников, преподаватель"],
   ["2005.65", "2005.65.b25fb905762fa97eb4559afd9c9c54f7a9595678", "65", "Режиссер шоу-программ"],
   ["2005.65", "2005.65.64dd652b1c9c3d091549b110a5466d4856f19868", "65", "Режиссер художественно-спортивных праздников, преподаватель"],
   ["2005.65", "2005.65.b0865d4d584723a099c3181aa341dc2100b3d096", "65", "Кинодраматург"],
   ["2005.65", "2005.65.dba0503036b1c8d4c531e8a782d7720c315d88f4", "65", "Драматург"],
   ["2005.65", "2005.65.df124c67e22211d84a8c0daaea63375fb48ae26b", "65", "Театровед"],
   ["2005.65", "2005.65.7214a8d231c71331017206dd5aa6d0a54c2f8e52", "65", "Театровед-менеджер"],
   ["2005.62", "2005.62.0146e0e47cfa6306fb1375ae59dbff5564542655", "62", "Бакалавр хореографического искусства"],
   ["2005.68", "2005.68.d4450ef41a8f97e953f7f14fad356b56e1730bb2", "68", "Магистр хореографического искусства"],
   ["2005.65", "2005.65.a9ba76eb46947e2a73485c2dc7ba238bd8593120", "65", "Артист балета, педагог-репетитор"],
   ["2005.50", "2005.51.ca0d278439919806932efd19e6ea5fe20fd20f29", "51", "Артист балета"],
   ["2005.50", "2005.51.20cb333ffee2ccfca877a1805f5b6952a0713ddb", "51", "Артист ансамбля народного танца"],
   ["2005.50", "2005.52.ca0d278439919806932efd19e6ea5fe20fd20f29", "52", "Артист балета"],
   ["2005.50", "2005.52.3bbefe26d6093adc9e8ec7b07a345cb977fb739a", "52", "Артист ансамбля"],
   ["2005.65", "2005.65.450748b721e673d6c25e9a702666ef5641b68326", "65", "Хореограф"],
   ["2005.65", "2005.65.8bcba437326631cba8c23d41eda6d84eeb181808", "65", "Балетмейстер-репетитор"],
   ["2005.65", "2005.65.3e2e1c65cb079efa9f2ccfe19b50d2330ab4af55", "65", "Хореограф балета на льду"],
   ["2005.65", "2005.65.ed1f1071f4a81f728964ed6b99dedd5b6a072943", "65", "Педагог-балетмейстер"],
   ["2005.65", "2005.65.de0a057ef25e24f9590c035c3a3585e25307c435", "65", "Педагог бального танца"],
   ["2005.65", "2005.65.282e0d9d45cf96a5468c17daff4e6e3a6e9a3550", "65", "Балетовед"],
   ["2005.65", "2005.65.4aef08f9d8baafaad1f865c5c47112e290ee4bde", "65", "Менеджер исполнительских искусств"],
   ["2005.62", "2005.62.b027e89f89d45bbf98f8ed6a55c567e85db8cfd9", "62", "Бакалавр реставрации"],
   ["2005.68", "2005.68.e8d3c436f55308b042969e85b462c4e78fc7d51a", "68", "Магистр реставрации"],
   ["2005.65", "2005.65.9581556e273191ed009a28ef1e454241bdd28f2e", "65", "Реставратор памятников архитектуры и архитектурной среды"],
   ["2005.65", "2005.65.95178f58a724ec0fbdf9b77e006f1f7c1072683c", "65", "Реставратор живописи"],
   ["2005.65", "2005.65.ce8162f81f55cb9357f5f26a5f77474dd66cb500", "65", "Реставратор скульптуры"],
   ["2005.65", "2005.65.beb879e22299d9842b3205126cd8bb213ef598d1", "65", "Реставратор графики"],
   ["2005.65", "2005.65.a8bdaac89630e246d11fdda989af2cbbbce6141e", "65", "Реставратор предметов декоративно-прикладного искусства"],
   ["2005.65", "2005.65.068dda7dbc3ae8601a8bb3ca3870f56949cd4a25", "65", "Эксперт-менеджер объектов культурного наследия"],
   ["2005.50", "2005.51.08898578e1926dd1cca744d88be6fe4db64bf237", "51", "Художник-реставратор"],
   ["2005.65", "2005.65.3b5fa1e125c53d23c4e3a2fe7a530f8cd14053df", "65", "Музеевед"],
   ["2005.62", "2005.62.194d4dcdef766203d48f33cf98c44dd7228c1d5b", "62", "Бакалавр дизайна"],
   ["2005.68", "2005.68.917e5c1b6e6043dee0aba6c53503a8b5c44df073", "68", "Магистр дизайна"],
   ["2005.65", "2005.65.d47dccc32a15eb97bc1bd3521d31f2f9c1836999", "65", "Дизайнер (графический дизайн)"],
   ["2005.65", "2005.65.8abf52cde17b565c68c8c119d0d61540520c1e6a", "65", "Дизайнер (промышленный дизайн)"],
   ["2005.65", "2005.65.7bb6732680f496b0d6efeaa7b9dc0bd021328535", "65", "Дизайнер (дизайн костюма)"],
   ["2005.65", "2005.65.b78349e0393864002cc8058351e9052901c1403b", "65", "Дизайнер (дизайн среды)"],
   ["2005.65", "2005.65.5c4d9d3d342b58f00f9786cc598365e6bd97c742", "65", "Дизайнер (дизайн средств транспорта)"],
   ["2005.50", "2005.51.42f886f56eaba17703465a75f66597cf5bcebade", "51", "Дизайнер"],
   ["2005.50", "2005.52.42f886f56eaba17703465a75f66597cf5bcebade", "52", "Дизайнер"],
   ["2005.65", "2005.65.b92db3996c7e7dae78550af1be4c843a0173b71b", "65", "Художник-проектировщик (художественное проектирование интерьера)"],
   ["2005.65", "2005.65.1c6dc0a3031fc86be1259347490d471e57d54b4b", "65", "Художник проектировщик (художественное проектирование мебели)"],
   ["2005.65", "2005.65.fffa7b1374c0a9e0b9102188bac02cb62f95c0c3", "65", "Художник-проектировщик (художественный текстиль)"],
   ["2005.62", "2005.62.0edc48fad9deb21114281f1da46e5620c7a92cf2", "62", "Бакалавр декоративно-прикладного искусства"],
   ["2005.68", "2005.68.8f344756092e5e8ad0dc8f355503b2f2daa703ed", "68", "Магистр декоративно-прикладного искусства"],
   ["2005.65", "2005.65.a69bc914446233a708155998bd2ff5ede96937f0", "65", "Художник декоративно-прикладного искусства (художественный металл)"],
   ["2005.65", "2005.65.ad3a47030d57cb4b1facf713156f6fd16a570f0c", "65", "Художник декоративно-прикладного искусства (художественная керамика)"],
   ["2005.65", "2005.65.8141a6610f803ea093d250c3dfad9b73787ca874", "65", "Художник декоративно-прикладного искусства (художественное стекло)"],
   ["2005.50", "2005.51.51b4fb4524dcb8b6bea021486ec1d61cc19d50d1", "51", "Художник-мастер"],
   ["2005.50", "2005.52.9654cc13d6681f4b42c5568f3ea013f495618541", "52", "Художник-мастер с углубленной подготовкой (по направлениям подготовки)"],
   ["2005.62", "2005.62.c5a40d7ff9d191172b121bdbaa599b4366a6aea9", "62", "Бакалавр изобразительного искусства"],
   ["2005.68", "2005.68.66e9fdc0fcff08e76da1fa6549360b362c5326ce", "68", "Магистр изобразительного искусства"],
   ["2005.50", "2005.51.429ce3df48201a91e51bee1516ffade3f42a0780", "51", "Художник-живописец, преподаватель"],
   ["2005.50", "2005.51.36fc45384c7ef115b3ecc69baf1868a0ab3c7222", "51", "Художник театра"],
   ["2005.65", "2005.65.4ce5d381a65714db1e946fc203ff5e01d46c30d2", "65", "Художник-живописец (станковая живопись)"],
   ["2005.65", "2005.65.627c146786fbea297f3e3ef094097e891dcc5816", "65", "Художник-живописец (монументальная живопись)"],
   ["2005.65", "2005.65.1ee158e3ed41811ec44a2d4933fd12f3f01359f9", "65", "Художник-живописец (театрально-декорационная живопись)"],
   ["2005.65", "2005.65.6ff35fe74194490d1cd8d322b4004db55e7dbc84", "65", "Художник-живописец (церковно-историческая живопись)"],
   ["2005.65", "2005.65.af9ab61411b57fd6406362c0749f657e436683a6", "65", "Художник-реставратор (станковая масляная живопись)"],
   ["2005.65", "2005.65.df1234b923a8ba86928285f5751648a8e3ed0cd3", "65", "Художник-реставратор (темперная живопись)"],
   ["2005.65", "2005.65.75cd73000cc9ac2d7f2a80351b034015528ce8e1", "65", "Художник-реставратор (монументально-декоративная живопись)"],
   ["2005.65", "2005.65.524f6751276b91c41af3c258db2a6bf2c2c00afd", "65", "Художник кино и телевидения, художник комбинированных съемок"],
   ["2005.65", "2005.65.3928c16ec03680d88a97ea8fbe8dac6604eb136f", "65", "Художник кино и телевидения по костюму"],
   ["2005.65", "2005.65.f718ad857ccea8c1b14e260a69d0cc1e2bac5789", "65", "Художник-график (станковая графика)"],
   ["2005.65", "2005.65.6be60e2e642f65fe733f9a0b3e6535ab56e05062", "65", "Художник-график (искусство книги)"],
   ["2005.65", "2005.65.ab49160bdd558690646ea6001a05d616340f2853", "65", "Художник-график (искусство графики и плаката)"],
   ["2005.65", "2005.65.6b23134217ef775b620b9ecdf4550f2a837f41d0", "65", "Художник-график (оформление печатной продукции)"],
   ["2005.65", "2005.65.8fc8ef693d690f94925a4e9e84a3377c151b8b43", "65", "Художник анимации и компьютерной графики"],
   ["2005.65", "2005.65.cb0ea27b925c490e579d6079e6492acb80e4186f", "65", "Художник мультипликационного фильма"],
   ["2005.50", "2005.51.117aa86774d3a1cd2ed57498cc5cdf52fc5f179c", "51", "Художник-скульптор, преподаватель"],
   ["2005.65", "2005.65.52003996ed97cf7a70465a95bd831a7a94030a86", "65", "Художник-скульптор"],
   ["2005.65", "2005.65.95702e4c6f901a24f4786ef63236d4c58471ebc9", "65", "Художник монументально-декоративного искусства (живопись)"],
   ["2005.65", "2005.65.e79d8c60d1cea926fa6100ee4d6bd0690b8ff3e2", "65", "Художник монументально-декоративного искусства (скульптура)"],
   ["2005.65", "2005.65.d5c5fd2b8d512c462b4c62e1ed92c3dcf3dda9a4", "65", "Художник-архитектор"],
   ["2005.62", "2005.62.65a35c7bf9abfd5c40846968f2f35a639358d6d3", "62", "Бакалавр литературного творчества"],
   ["2005.68", "2005.68.b3743a3eb706c63e9361b6b1bd779f257d931cde", "68", "Магистр литературного творчества"],
   ["2005.65", "2005.65.d1675ff7fe41ab64106d3575f9147bce0d92f841", "65", "Литературный работник"],
   ["2005.65", "2005.65.69c2d1e454179269566c4b547a0bf87e2e8ebd56", "65", "Литературный работник, переводчик художественной литературы"],
   ["2005.62", "2005.62.ec10124e48da5e99406f485daa14051db186ec7a", "62", "Бакалавр киноискусства"],
   ["2005.68", "2005.68.1e53b5cda15321e9c9a8d383487fa2c9c802b6db", "68", "Магистр киноискусства"],
   ["2005.65", "2005.65.bb87fdff379891335eff62bbac41455710f20906", "65", "Режиссер игрового кино-, теле- и видеофильма"],
   ["2005.65", "2005.65.65bdcb5a42670b7aacbc2459bc2d8e97714a5dcd", "65", "Режиссер неигрового кино-, теле- и видеофильма"],
   ["2005.65", "2005.65.e6a641b55adced63e73596f7853848d6e9882098", "65", "Режиссер анимации и компьютерной графики"],
   ["2005.65", "2005.65.d92f83d1ec7952990b437b7225f1f7b03c0d5a73", "65", "Режиссер телевизионных программ"],
   ["2005.65", "2005.65.03926ca9612142fa658805b5665e5499ebbf42eb", "65", "Режиссер мультимедиа программ"],
   ["2005.65", "2005.65.7ddf6b3be3c635b021b5eb4a840600f11421a926", "65", "Продюсер"],
   ["2005.65", "2005.65.c65131f0338ecc832a5da6549433323d599a749b", "65", "Кинооператор"],
   ["2005.65", "2005.65.afa509d709af5db7d7c4d393bc067847cad34720", "65", "Телеоператор"],
   ["2005.65", "2005.65.15ea4848b639b92db3eb7a2496e18a85e83007f6", "65", "Киновед"],
   ["2005.62", "2005.62.2cadeb7f0891834f11b2c2e190e6216665de38b1", "62", "Бакалавр библиотечно-информационных ресурсов"],
   ["2005.68", "2005.68.07f940b011e4ca7c94920a4bc162b60076b51dda", "68", "Магистр библиотечно-информационных ресурсов"],
   ["2005.65", "2005.65.030982e49b5df407987753efe2ebb288ddbd468b", "65", "Библиотекарь-библиограф, преподаватель"],
   ["2005.65", "2005.65.202de12c03a80ad91bfe5c2a867b57b5e72a4c3f", "65", "Технолог автоматизированных информационных ресурсов"],
   ["2005.65", "2005.65.c64bf338288a8043572e4b5b4bc22b8d71cba6ac", "65", "Референт-аналитик информационных ресурсов"],
   ["2005.65", "2005.65.763f895ade41f7247413579eb7a110872575741f", "65", "Менеджер информационных ресурсов"],
   ["2005.50", "2005.51.ff40384b48d662ed458e4e8f09684cd221dbfa09", "51", "Библиотекарь"],
   ["2005.50", "2005.52.65d8308e00f790bcb6f4afc4c1feed022d349119", "52", "Библиотекарь с углубленной подготовкой"],
   ["2005.62", "2005.62.44f99cc5f9547e64b7321f99ddc832c108a847e1", "62", "Бакалавр народной художественной культуры"],
   ["2005.68", "2005.68.cd39ec8d0733a4c709b182da4bfc069ef16520c1", "68", "Магистр народной художественной культуры"],
   ["2005.65", "2005.65.a8f29bc21dfe6295f189ea62f186bcfc5c48d10e", "65", "Руководитель этнокультурного центра, преподаватель"],
   ["2005.65", "2005.65.3b30ee4d7fab2d2f4957bd992f365b2e26c35cab", "65", "Художественный руководитель музыкально-инструментального коллектива, преподаватель"],
   ["2005.65", "2005.65.9fd698ef97d7ba04ad0dbb8ca72c0668c67cebd0", "65", "Художественный руководитель вокально-хорового коллектива, преподаватель"],
   ["2005.65", "2005.65.e78c5bd3520f411efc54b087d1e2d00bda22856e", "65", "Художественный руководитель хореографического коллектива, преподаватель"],
   ["2005.65", "2005.65.78c72080b93056db91cdb274f6a49f1f83fadc4b", "65", "Художественный руководитель студии декоративно-прикладного творчества, преподаватель"],
   ["2005.65", "2005.65.c087efca075ba4f912d09299f7af6d18b99e0915", "65", "Режиссер любительского театра, преподаватель"],
   ["2005.65", "2005.65.7dcf8e9247aa52ef70af47ee2acba73e2134a637", "65", "Художественный руководитель любительской студии кино-, фото-, видеотворчества, преподаватель"],
   ["2005.50", "2005.51.f6563524dc6f695549d9da9de5a86a9286234709", "51", "Руководитель творческого коллектива, преподаватель"],
   ["2005.50", "2005.52.ba20d430e8e308b6a01cb0eccf6d2b0b8f28d30c", "52", "Руководитель творческого коллектива, преподаватель с углубленной подготовкой"],
   ["2005.62", "2005.62.4418a1f7911a24c2c33ed34676ee8fb0e937e8ad", "62", "Бакалавр социально-культурной деятельности"],
   ["2005.68", "2005.68.5f4df7a4450ef5409ce75eac26bcc8d97e56c2b9", "68", "Магистр социально-культурной деятельности"],
   ["2005.65", "2005.65.9cf4c3321305630b2f6e1b8ac8852c50227c78e1", "65", "Менеджер социально-культурной деятельности"],
   ["2005.65", "2005.65.2d152c29fb2d03d702429853bc2aa34baa4989bb", "65", "Технолог социально-культурной деятельности, преподаватель"],
   ["2005.65", "2005.65.57d7e2de9b49080ebbf5176043a3086c10d7f3bc", "65", "Постановщик культурно-досуговых программ"],
   ["2005.65", "2005.65.3957fba494df1c0281a94c45640754911f247133", "65", "Художник-стилист"],
   ["2005.50", "2005.52.fe094c2ca8c8391dc0d5364c82b5d242bbbb9af6", "52", "Художник-технолог с углубленной подготовкой"],
   ["2005.62", "2005.62.f08953b69952f90bf15e8fe0fa9443695c63b32b", "62", "Бакалавр экономики"],
   ["2005.68", "2005.68.2800baf99f96e15f3bff0feef1b7a9bf22d1ff03", "68", "Магистр экономики"],
   ["2005.65", "2005.65.b12925b72d07955a14e1b87249afb00d2823942a", "65", "Экономист"],
   ["2005.50", "2005.51.f27b09a9d6b71264b1eee1b0e1b5a06038c27e3f", "51", "Финансист"],
   ["2005.50", "2005.52.eec7bc1af4c63417aec0e46f4cab0a1114dc8baa", "52", "Финансист с углубленной подготовкой"],
   ["2005.50", "2005.52.d332badc7814380756163f3a856797967f997750", "52", "Специалист по налогообложению"],
   ["2005.65", "2005.65.d332badc7814380756163f3a856797967f997750", "65", "Специалист по налогообложению"],
   ["2005.65", "2005.65.0a7fd2f40bff5f655c56462269011e7b8080cf93", "65", "Экономист, специалист по налогообложению"],
   ["2005.50", "2005.51.4985d9f7cf8b8a77dd6734cf4cf06930c6054071", "51", "Специалист банковского дела"],
   ["2005.50", "2005.52.cc18357ce7e76c523c38741c42df503decce0b0f", "52", "Специалист банковского дела с углубленной подготовкой"],
   ["2005.50", "2005.51.1118cfc4c7c8c50a7fce40b08d1412a10fd4d641", "51", "Бухгалтер"],
   ["2005.50", "2005.52.eb408b8efabd9e4e433e77b602ea31f06e97ff79", "52", "Бухгалтер с углубленной подготовкой"],
   ["2005.65", "2005.65.ee657e73fa2df08d72832eab5c6473de4d4aed00", "65", "Маркетолог"],
   ["2005.50", "2005.51.ee657e73fa2df08d72832eab5c6473de4d4aed00", "51", "Маркетолог"],
   ["2005.50", "2005.52.19eb04fbd06b42873b6ac1f5d586fac6d6869893", "52", "Маркетолог с углубленной подготовкой"],
   ["2005.50", "2005.51.529dbd15078e9dd205241adbd5f0c3804b6723a7", "51", "Специалист страхового дела"],
   ["2005.50", "2005.52.24113b75802ca5199be0d5d24f091e38d8c1e442", "52", "Специалист страхового дела с углубленной подготовкой"],
   ["2005.50", "2005.51.b12925b72d07955a14e1b87249afb00d2823942a", "51", "Экономист"],
   ["2005.50", "2005.52.f30729e1089392bbe07bf75b6a78c9d79eeba5ca", "52", "Экономист с углубленной подготовкой"],
   ["2005.65", "2005.65.03bddbb4d2730f6ca7de4e438d306f785315a099", "65", "Специалист таможенного дела"],
   ["2005.65", "2005.65.62728073fdbd9eb6e6ee66bbfb3a62ac09103577", "65", "Экономист-математик"],
   ["2005.62", "2005.62.863caed69216a728b3249640de008874f4be7ba7", "62", "Бакалавр коммерции"],
   ["2005.68", "2005.68.0031f05ce4f62ecdaa6bb9301ac3416a92c4db8e", "68", "Магистр коммерции"],
   ["2005.65", "2005.65.698bff9dab005ed2597b2c0851b062ad10478504", "65", "Специалист коммерции"],
   ["2005.50", "2005.51.ae76cc2142b60c6f54002178e99bca840652e89d", "51", "Коммерсант"],
   ["2005.50", "2005.52.e96d1087d4dccf1359d2dead664834309f2cf735", "52", "Коммерсант с углубленной подготовкой"],
   ["2005.65", "2005.65.e89f4d89bd8ea2be9f7a61006542066e369d25f0", "65", "Товаровед-эксперт"],
   ["2005.50", "2005.51.66491c85588c5f8f2fb5c0582e0dce86008b303e", "51", "Товаровед"],
   ["2005.50", "2005.52.55ddd7595b9845fb13f205edc1dd4f360d0af7a8", "52", "Товаровед с углубленной подготовкой"],
   ["2005.62", "2005.62.dc3c8cf59973024eea6a7cc5650485bd5a474a40", "62", "Бакалавр менеджмента"],
   ["2005.68", "2005.68.0960d1b58c8e827b54ba4d0100e0ca7a04352090", "68", "Магистр менеджмента"],
   ["2005.50", "2005.51.8d98911527e4d77e1660d9c0ef29d73743241cec", "51", "Менеджер"],
   ["2005.50", "2005.52.0e6a32c50520353afe77d9271a209539643d8270", "52", "Менеджер с углубленной подготовкой"],
   ["2005.65", "2005.65.9bf4cc7531a4ef2fd87d7687f9504069d249a948", "65", "Экономист-менеджер"],
   ["2005.50", "2005.51.0b567ffbdcc6ddb897af0d468bf511da86234cda", "51", "Специалист по государственному и муниципальному управлению"],
   ["2005.50", "2005.52.87b210b50e3832b3abdf869eab765639d1b01681", "52", "Специалист по государственному и муниципальному управлению с углубленной подготовкой"],
   ["2005.65", "2005.65.fb8ba17eafa876e1b3efde81b1ee31df8c3ac39f", "65", "Логист"],
   ["2005.62", "2005.62.0f1071523939ace91226d804ed2053e1a8d1fac2", "62", "Бакалавр статистики"],
   ["2005.68", "2005.68.8b20066bb78a323c2328f6ec9a1a8e5daf499c27", "68", "Магистр статистики"],
   ["2005.62", "2005.62.ce20336f7948e309876fa13d812dd8159110f214", "62", "Бакалавр бизнес-информатики"],
   ["2005.68", "2005.68.551d4b771f0b6545362f1f2db5cdacf747391019", "68", "Магистр бизнес-информатики"],
   ["2005.62", "2005.62.da420d5a0a5a1b0deef221eae3cd2c48ee268014", "62", "Бакалавр прикладной информатики"],
   ["2005.68", "2005.68.f6b36a406e68bd0a7013569478f607b05d76f508", "68", "Магистр прикладной информатики"],
   ["2005.65", "2005.65.4b230a2b52449e96331ae4fab5bddfb4c0f34895", "65", "Информатик (с указанием области)"],
   ["2005.65", "2005.65.9bca90805df5cbd8f060df4808f2418e7bbb369a", "65", "Информатик-экономист"],
   ["2005.65", "2005.65.49dac2ba02db1097cc06863ee4ea861f17f84934", "65", "Информатик-менеджер"],
   ["2005.65", "2005.65.3fa908b389516508f4b6daa7d838a6f1155cdb26", "65", "Информатик-юрист"],
   ["2005.65", "2005.65.e9791f89acca99f40655b8a2db6f9d57811af1fe", "65", "Специалист по защите информации"],
   ["2005.62", "2005.62.e8ed2b01d334703c362ba411c3cd70b7fdf7cccc", "62", "Бакалавр сервиса"],
   ["2005.68", "2005.68.16f40efb9d92c89cf82832293cbcb5c40ddc8c77", "68", "Магистр сервиса"],
   ["2005.65", "2005.65.735a813d5a01cc52cf25160f76c362ef7969dafc", "65", "Специалист по сервису"],
   ["2005.65", "2005.65.25a201d132bf91dd129684d99be4a49f8fd19ad3", "65", "Специалист по сервису и туризму"],
   ["2005.50", "2005.51.54304b7bb2ed9f949335a878ac9952d8a5f68fcd", "51", "Технолог"],
   ["2005.50", "2005.52.39063d577d30ab1862eb9f55031470958e9f4720", "52", "Технолог с углубленной подготовкой"],
   ["2005.50", "2005.52.9c7ce0b75372c37ba8b1b7e2b33c419b199f6bf3", "52", "Модельер-художник"],
   ["2005.50", "2005.52.13a97932ce93c920e03987894f96e2efbce8c84a", "52", "Технолог-эстетист с углубленной медицинской подготовкой"],
   ["2005.50", "2005.51.725f3c2a5d99204713cc7d39ca2c0003e68d919a", "51", "Фототехник"],
   ["2005.50", "2005.52.4d02c85961ac5ed72c77fc590ebd6824ab2c6b65", "52", "Фотохудожник"],
   ["2005.50", "2005.51.7dac02b61b7b9099d2920eaca27aea56f546582f", "51", "Специалист по сервису на транспорте"],
   ["2005.50", "2005.52.c09aa8bb1722239f6be52201edb08001bdf44858", "52", "Специалист по сервису на транспорте с углубленной подготовкой"],
   ["2005.62", "2005.62.9b1d49938fc341f00b3ffc7d33483df5dd27f535", "62", "Бакалавр туризма"],
   ["2005.68", "2005.68.3b701d8dd8da5e4b08218cde78b4141f3e3a1b79", "68", "Магистр туризма"],
   ["2005.50", "2005.51.a47c8374f46fc0755a396f68955bfafffb143499", "51", "Специалист по туристическим услугам"],
   ["2005.50", "2005.52.db1c676c8da7af89db7f0806715a5fd707a6e1e0", "52", "Специалист по туристическим услугам с углубленной подготовкой"],
   ["2005.65", "2005.65.59cad5eb172d9d3d5fa26dd220bab1f3f1500f6d", "65", "Специалист по туризму"],
   ["2005.62", "2005.62.e947f650df284f238007c77cda948b92f8c10417", "62", "Бакалавр сельского хозяйства"],
   ["2005.68", "2005.68.2b22a8d98663c89776aa518ee6c414b5f5e63726", "68", "Магистр сельского хозяйства"],
   ["2005.65", "2005.65.9ffdfbc7cce76f96fa2bd5854fe25679abed271d", "65", "Ученый агроном-эколог"],
   ["2005.50", "2005.51.7c7f519e87f44af38b4d0ad4022168e9505edf53", "51", "Агроном"],
   ["2005.50", "2005.52.3aa826b2077643d60b07d3f62e212add3c229a80", "52", "Старший агроном"],
   ["2005.65", "2005.65.122e477353f700ecb4b1ce63bcd0d5e4f8cb72fc", "65", "Ученый агроном"],
   ["2005.62", "2005.62.d58ef1a5a6f9f35e41f8f665a2623f794fd0450a", "62", "Бакалавр техники и технологии"],
   ["2005.68", "2005.68.5a830a1e4d873d5a25a003e70b27d60e5fe62a3f", "68", "Магистр техники и технологии"],
   ["2005.65", "2005.65.ddecc52c40d9e90c42d5288a9d4b37f4b26dfd54", "65", "Технолог сельскохозяйственного производства"],
   ["2005.50", "2005.51.104e4ca94f3175653b8e6e3ede8eeae7a0044e81", "51", "Зоотехник"],
   ["2005.50", "2005.52.e0ba17112f933840fa8dd6b6c2dbeb21bde049c7", "52", "Старший зоотехник"],
   ["2005.65", "2005.65.a145084ada43a06c20c6f2e71adfe118e0adb1cf", "65", "Зооинженер"],
   ["2005.62", "2005.62.3e3777ee9856b1fdc4ed0edd09fabadf812c0c32", "62", "Бакалавр ветеринарно-санитарной экспертизы"],
   ["2005.68", "2005.68.4dda4aac2e46fc1268bfb4bbce77cfb5f36a492c", "68", "Магистр ветеринарно-санитарной экспертизы"],
   ["2005.65", "2005.65.4e7b055b71eb746c27e721168ed619335672e1dc", "65", "Ветеринарно-санитарный врач"],
   ["2005.50", "2005.51.cec8df3030e7bc24ee86f5100a19a1f376216a4b", "51", "Охотовед"],
   ["2005.50", "2005.52.c6be4c2ad47af21840ae7c6449c58d6b19127320", "52", "Охотовед с углубленной подготовкой"],
   ["2005.50", "2005.51.41be40869ab62fdaba780028645790df9e38210e", "51", "Кинолог"],
   ["2005.50", "2005.52.ec3de5b62a7044eb8521c0b3e66c0e2d4aacfad3", "52", "Кинолог с углубленной подготовкой"],
   ["2005.62", "2005.62.f14cbfce9cbf576e88deb609edfeb1cd74ae5858", "62", "Бакалавр рыбного хозяйства"],
   ["2005.68", "2005.68.8d3c1f653e48bf6f75800dbf6f737024a9ea9126", "68", "Магистр рыбного хозяйства"],
   ["2005.65", "2005.65.244b02aa29f205d30b81bec14dc13ad1bc9b8caa", "65", "Ихтиолог-рыбовод"],
   ["2005.50", "2005.51.4ed37b9754de5ca397877f207b2f4e1f2ba18b47", "51", "Техник-рыбовод"],
   ["2005.50", "2005.52.6193b1dafa707e51994bbc29b92ec53aa72ce630", "52", "Старший техник-рыбовод"],
   ["2005.62", "2005.62.624ea53db17b28f76446fbc0cdca1f16ee989a1f", "62", "Бакалавр рыболовства"],
   ["2005.68", "2005.68.51743308787c2df2bbb75b101cfec7b9ccd8058d", "68", "Магистр рыболовства"],
   ["2005.50", "2005.51.629ec97d1cbf3977247a0447dd6bb1f18736a1fb", "51", "Фермер"],
   ["2005.50", "2005.52.706d8f84fc05ba640f83049342cd0e9f88db00b6", "52", "Фермер с углубленной подготовкой"],
   ["2005.50", "2005.51.30b0ef43a628794e41448edf59edb085a138eb95", "51", "Ветеринарный фельдшер"],
   ["2005.50", "2005.52.68f3a8e1cf15715efab8d53f955abba09d738efc", "52", "Старший ветеринарный фельдшер"],
   ["2005.65", "2005.65.8825a06d00ad93bc26b6847d425ffb32bfcf93b0", "65", "Ветеринарный врач"],
   ["2005.62", "2005.62.b267b772341748c5cae0b21ce5a1b83d1b772603", "62", "Бакалавр садоводства"],
   ["2005.68", "2005.68.1dadadb14b2262996f17cb2a783a570bb6abf7ad", "68", "Магистр садоводства"],
   ["2005.62", "2005.62.b26cb713d89768597c739cb3cfb03bb80bdfe0aa", "62", "Бакалавр землеустройства"],
   ["2005.68", "2005.68.1673bed4a87075d707025f6f3c87c1debf61267c", "68", "Магистр землеустройства"],
   ["2005.50", "2005.51.c43bc8b0117119d2242ab7302f4727a3e11e32a5", "51", "Техник-землеустроитель"],
   ["2005.50", "2005.52.eb06423a2a87822beaa8cafe826f36ac6b5a6b4e", "52", "Старший техник-землеустроитель"],
   ["2005.65", "2005.65.74c6de0ec987fb1b91f6a0feb833b27f52ecf934", "65", "Горный инженер"],
   ["2005.50", "2005.51.d0e9238af4720d28f9882a54ebe505ef411b739e", "51", "Горный техник"],
   ["2005.50", "2005.52.d4e6c8fe95bfe550a1fe859fb96616bf25c20008", "52", "Старший горный техник"],
   ["2005.50", "2005.51.162cb6e63883d6ffe8bfcc879441a825954f512c", "51", "Горный техник-технолог"],
   ["2005.50", "2005.52.c25e48cdeffca08096a6f38dc8e9cd24c4e2439a", "52", "Старший горный техник-технолог"],
   ["2005.65", "2005.65.a8e520a64340b466860cda5c46e965a03ea414cf", "65", "Инженер-физик"],
   ["2005.50", "2005.51.e46e2d66141f642b0fb4a885d9598f29580dc1cc", "51", "Горный техник-электромеханик"],
   ["2005.50", "2005.52.6a0e1e71b363963f40c22773012ec359422ea5c0", "52", "Старший горный техник-электромеханик"],
   ["2005.50", "2005.52.167fce46fdcd585db62f97b16e9922ffc7c79bb8", "52", "Старший техник-механик"],
   ["2005.62", "2005.62.7264273f978b1cf9601614f784502600e7313887", "62", "Бакалавр гидравлической, вакуумной и компрессорной техники"],
   ["2005.68", "2005.68.3bc1be2bc33e18513d2b45e8b39658d4ffa49f8d", "68", "Магистр гидравлической, вакуумной и компрессорной техники"],
   ["2005.50", "2005.51.076f5a82d9970a9312494cd5edf983d605d62e7a", "51", "Диспетчер"],
   ["2005.50", "2005.52.4481fde2e7092b908f2cac230a03b8cf2c9299e9", "52", "Диспетчер с углубленной подготовкой"],
   ["2005.50", "2005.51.e8df05f4d8ec025943a6f6ad1458e0aad1f28cff", "51", "Пилот"],
   ["2005.50", "2005.52.8961188f2cc32f485d2e437859799407a35a40e8", "52", "Пилот с углубленной подготовкой"],
   ["2005.65", "2005.65.ac23833e994d026c807a8b686395ff6d5c729ac3", "65", "Морской инженер"],
   ["2005.50", "2005.52.f18839a83f425b022cf43b67fa72ca432ff71793", "52", "Старший техник-судоводитель"],
   ["2005.50", "2005.51.d6f5eb83171cc3db10ec261bb8037c09e801c6e1", "51", "Техник-судоводитель"],
   ["2005.50", "2005.52.44faac7175e3e254654c495a006d78ed78e75caf", "52", "Старший техниксудоводитель"],
   ["2005.65", "2005.65.bedc58727f1fe73729875fb07bd8b6522136c43a", "65", "Инженер путей сообщения"],
   ["2005.50", "2005.51.e29ee8e0a88c78fd42a2ef29dedefd33665b7f2d", "51", "Техник-электромеханик"],
   ["2005.50", "2005.52.28f2f306615de29cfd645e1cf61ff1e420e4082b", "52", "Старший техник-электромеханик"],
   ["2005.50", "2005.51.05ff61e8cb7c148c4774db2f078186303b749351", "51", "Техник-судомеханик"],
   ["2005.50", "2005.52.b0cc03dd6ed8111bebe84d233646926aeec2215b", "52", "Старший техник-судомеханик"],
   ["2005.65", "2005.65.f4f2de658073ecb2f5b7fe94edd3a32b0293819f", "65", "Инженер по организации и управлению на транспорте"],
   ["2005.50", "2005.51.e6f45cee4018797befd6b11e8070f0c61424cc4c", "51", "Специалист почтовой связи"],
   ["2005.50", "2005.52.fc05b6d1a6bea804eb6415ef36df36928a6b0007", "52", "Специалист почтовой связи с углубленной подготовкой"],
   ["2005.65", "2005.65.0904795f38b005dfdd13f76bcc764d304431bd89", "65", "Инженер-эргономист"],
   ["2005.65", "2005.65.f66baf1be00f3e239c62f6e7e049e3582266f0ba", "65", "Инженер-менеджер"],
   ["2005.62", "2005.62.7d3e6b09cb5c693afc02b1b696b0c3c2cc210379", "62", "Бакалавр информационных систем"],
   ["2005.68", "2005.68.fc5c250bb5f37b977397c9de5345b4ddb41b9209", "68", "Магистр информационных систем"],
   ["2005.65", "2005.65.b73bc87cc880f4be7bf848e4a0e3be364a0dfc7e", "65", "Инженер-математик"],
   ["2005.62", "2005.62.1d98de2cd5b5d8cebd1a10790d4375413b917cef", "62", "Бакалавр лесного дела"],
   ["2005.68", "2005.68.1bd7abbc1221955456469d25c2624651f1e53b14", "68", "Магистр лесного дела"],
   ["2005.50", "2005.52.62db390b70b21d648177951438138b7ceb8299ae", "52", "Старший технолог"],
   ["2005.50", "2005.51.b242905e2a1f3d6c0962aced9e043d67960a6c29", "51", "Конструктор-модельер"],
   ["2005.50", "2005.52.b27f6b219d34b2375ff70afebbd316a29beac8d2", "52", "Конструктор-модельер с углубленной подготовкой"],
   ["2005.65", "2005.65.c9176ba8229885a32c99c164ddaa62fbfdbd0aa7", "65", "Инженер-технолог"],
   ["2005.50", "2005.51.508a7f7b258e2196b8eabe7933863327abd70876", "51", "Эксперт"],
   ["2005.50", "2005.52.172a9bb87acae5c0358d0cd2012d209e2f2a6fb5", "52", "Эксперт с углубленной подготовкой"],
   ["2005.65", "2005.65.fbb45f6a7f50e5240d160a0aa10e429bc592cdac", "65", "Инженер-архитектор"],
   ["2005.62", "2005.62.8ddafffc4fc036420469b631c11f43e5f33d4997", "62", "Бакалавр архитектуры"],
   ["2005.68", "2005.68.aa2d35957f762374082ffb585d3fcaedc1b4c8e4", "68", "Магистр архитектуры"],
   ["2005.65", "2005.65.3bfaf418cdc5278f9ca4cf60faa6fdf5e1cf9474", "65", "Архитектор"],
   ["2005.65", "2005.65.459b1e20cb8bde9d1cc86c21dc4910685f9cda49", "65", "Архитектор-дизайнер"],
   ["2005.65", "2005.65.79b1bd24eeda00f81490c032339e8093360eb24c", "65", "Архитектор-реставратор"],
   ["2005.62", "2005.62.ef450ad92a1550b1b55ab390f4e840ff2d260aa2", "62", "Бакалавр градостроительства"],
   ["2005.68", "2005.68.51fbf99dc7b40ae94f3155d2eb44783c39857851", "68", "Магистр градостроительства"],
   ["2005.65", "2005.65.dbd0912cf45c60960d68638204925fc60e76d2d5", "65", "Инженер-эколог"],
   ["2005.65", "2005.65.b5d33709e5476ba78d296f495bb928f9dddcef1c", "65", "Учитель химии и биологии"],
   ["2005.65", "2005.65.14a748ca4d6ce9de8c14e021af8d03d88bd734df", "65", "Учитель биологии и педагог-психолог"],
   ["2005.65", "2005.65.dfe9b3082168d1c3482c06f0b00035a953ce6aac", "65", "Учитель математики и информатики"],
   ["2005.65", "2005.65.063fb96f150776d21a91413c58a13f65961a2b52", "65", "Учитель информатики и физики"],
   ["2005.65", "2005.65.e7440e78500aaadb0dea74ac10d997d738f158f7", "65", "Учитель информатики и иностранного языка"],
   ["2005.65", "2005.65.7e2b1f2f78f7c9dad759524e0a162e35e48eaa0d", "65", "Учитель физики и информатики"],
   ["2005.65", "2005.65.4ffa0522e0473fd9cbe9e3ec123ce1393f4048b9", "65", "Учитель двух иностранных языков"],
   ["2005.65", "2005.65.264e03a249ee9bddf21133dea8b17e1e8fcd1cb6", "65", "Учитель истории и права"],
   ["2005.65", "2005.65.632ea9d296653e2c6a0d92af1eb63b39d485f5ef", "65", "Преподаватель дошкольной педагогики и психологии, социальный педагог"],
   ["2005.65", "2005.65.0691968382b31503e834aeaef79c78ea153f3656", "65", "Учитель начальных классов и преподаватель дошкольной педагогики и психологии"],
   ["2005.65", "2005.65.19ff10a852310ca2cbdacac007c7fa18329d19f9", "65", "Педагог по физической культуре и учитель безопасности жизнедеятельности"]
 ]
}