{
 "doNotEditMe": "это сгенерированный файл",
 "comment": "Квалификации (только 2009 год)",
 "entity": {
 	"name":"eduProgramQualification",
 	"key": {
 		"code":                      { "column": "$1" }
 	},
 	"value": {
        "subjectIndex":              { "query": "select o.id from eduProgramSubjectIndex o where o.code=$0" },
 		"qualificationLevelCode":    { "column": "$2" },
 		"title":                     { "column": "$3" }
 	}
 },
 "where": "entity.code like '2009.%'",
 "data":[
["2009.62", "2009.62", "62", "Бакалавр"],
["2009.68", "2009.68", "68", "Магистр"],
["2009.65", "2009.65", "65", "Специалист"],
["2009.00", "2009.00", "00", "Кандидат наук"]
 ]
}
